circuiti_3/data/RL/46290/F0009MTH.CSV

Record Length,2.500000e+03,,   0.001362000000,   0.96000,
Sample Interval,2.000000e-08,,   0.001362020000,   0.88000,
Trigger Point,-6.810000000000e+04,,   0.001362040000,   0.96000,
,,,   0.001362060000,   0.96000,
,,,   0.001362080000,   0.96000,
,,,   0.001362100000,   0.96000,
Source,MATH,,   0.001362120000,   0.96000,
Vertical Units,V,,   0.001362140000,   0.96000,
Vertical Scale,2.000000e+00,,   0.001362160000,   0.96000,
Vertical Offset,0.000000e+00,,   0.001362180000,   0.96000,
Horizontal Units,s,,   0.001362200000,   0.96000,
Horizontal Scale,5.000000e-06,,   0.001362220000,   0.96000,
Pt Fmt,Y,,   0.001362240000,   0.96000,
Yzero,0.000000e+00,,   0.001362260000,   0.96000,
Probe Atten,1.000000e+00,,   0.001362280000,   0.96000,
Model Number,TDS1002B,,   0.001362300000,   0.96000,
Serial Number,C010776,,   0.001362320000,   0.96000,
Firmware Version,FV:v21.20,,   0.001362340000,   0.96000,
,,,0.001362360000,   0.96000,
,,,0.001362380000,   0.88000,
,,,0.001362400000,   0.96000,
,,,0.001362420000,   0.96000,
,,,0.001362440000,   1.04000,
,,,0.001362460000,   0.96000,
,,,0.001362480000,   0.88000,
,,,0.001362500000,   0.88000,
,,,0.001362520000,   0.88000,
,,,0.001362540000,   0.88000,
,,,0.001362560000,   0.96000,
,,,0.001362580000,   0.96000,
,,,0.001362600000,   0.96000,
,,,0.001362620000,   0.96000,
,,,0.001362640000,   0.96000,
,,,0.001362660000,   0.96000,
,,,0.001362680000,   0.96000,
,,,0.001362700000,   0.96000,
,,,0.001362720000,   0.96000,
,,,0.001362740000,   0.88000,
,,,0.001362760000,   0.96000,
,,,0.001362780000,   0.88000,
,,,0.001362800000,   0.96000,
,,,0.001362820000,   0.96000,
,,,0.001362840000,   0.96000,
,,,0.001362860000,   1.04000,
,,,0.001362880000,   0.88000,
,,,0.001362900000,   0.96000,
,,,0.001362920000,   0.96000,
,,,0.001362940000,   0.96000,
,,,0.001362960000,   0.96000,
,,,0.001362980000,   0.96000,
,,,0.001363000000,   0.96000,
,,,0.001363020000,   0.88000,
,,,0.001363040000,   0.96000,
,,,0.001363060000,   0.96000,
,,,0.001363080000,   0.88000,
,,,0.001363100000,   0.88000,
,,,0.001363120000,   0.96000,
,,,0.001363140000,   0.88000,
,,,0.001363160000,   0.88000,
,,,0.001363180000,   0.96000,
,,,0.001363200000,   0.96000,
,,,0.001363220000,   0.96000,
,,,0.001363240000,   0.88000,
,,,0.001363260000,   0.88000,
,,,0.001363280000,   0.88000,
,,,0.001363300000,   0.88000,
,,,0.001363320000,   0.96000,
,,,0.001363340000,   0.96000,
,,,0.001363360000,   0.96000,
,,,0.001363380000,   0.96000,
,,,0.001363400000,   0.96000,
,,,0.001363420000,   0.96000,
,,,0.001363440000,   0.88000,
,,,0.001363460000,   0.96000,
,,,0.001363480000,   0.96000,
,,,0.001363500000,   0.88000,
,,,0.001363520000,   0.88000,
,,,0.001363540000,   0.96000,
,,,0.001363560000,   0.88000,
,,,0.001363580000,   0.88000,
,,,0.001363600000,   0.80000,
,,,0.001363620000,   0.80000,
,,,0.001363640000,   0.80000,
,,,0.001363660000,   0.88000,
,,,0.001363680000,   0.88000,
,,,0.001363700000,   0.88000,
,,,0.001363720000,   0.88000,
,,,0.001363740000,   0.88000,
,,,0.001363760000,   0.80000,
,,,0.001363780000,   0.88000,
,,,0.001363800000,   0.80000,
,,,0.001363820000,   0.88000,
,,,0.001363840000,   0.88000,
,,,0.001363860000,   0.88000,
,,,0.001363880000,   0.88000,
,,,0.001363900000,   0.88000,
,,,0.001363920000,   0.88000,
,,,0.001363940000,   0.88000,
,,,0.001363960000,   0.88000,
,,,0.001363980000,   0.88000,
,,,0.001364000000,   0.80000,
,,,0.001364020000,   0.88000,
,,,0.001364040000,   0.80000,
,,,0.001364060000,   0.88000,
,,,0.001364080000,   0.80000,
,,,0.001364100000,   0.88000,
,,,0.001364120000,   0.88000,
,,,0.001364140000,   0.80000,
,,,0.001364160000,   0.88000,
,,,0.001364180000,   0.80000,
,,,0.001364200000,   0.80000,
,,,0.001364220000,   0.80000,
,,,0.001364240000,   0.80000,
,,,0.001364260000,   0.80000,
,,,0.001364280000,   0.88000,
,,,0.001364300000,   0.80000,
,,,0.001364320000,   0.80000,
,,,0.001364340000,   0.80000,
,,,0.001364360000,   0.80000,
,,,0.001364380000,   0.88000,
,,,0.001364400000,   0.80000,
,,,0.001364420000,   0.80000,
,,,0.001364440000,   0.72000,
,,,0.001364460000,   0.72000,
,,,0.001364480000,   0.80000,
,,,0.001364500000,   0.88000,
,,,0.001364520000,   0.72000,
,,,0.001364540000,   0.80000,
,,,0.001364560000,   0.80000,
,,,0.001364580000,   0.80000,
,,,0.001364600000,   0.72000,
,,,0.001364620000,   0.80000,
,,,0.001364640000,   0.72000,
,,,0.001364660000,   0.80000,
,,,0.001364680000,   0.80000,
,,,0.001364700000,   0.72000,
,,,0.001364720000,   0.72000,
,,,0.001364740000,   0.72000,
,,,0.001364760000,   0.72000,
,,,0.001364780000,   0.72000,
,,,0.001364800000,   0.72000,
,,,0.001364820000,   0.72000,
,,,0.001364840000,   0.72000,
,,,0.001364860000,   0.72000,
,,,0.001364880000,   0.64000,
,,,0.001364900000,   0.64000,
,,,0.001364920000,   0.72000,
,,,0.001364940000,   0.80000,
,,,0.001364960000,   0.72000,
,,,0.001364980000,   0.72000,
,,,0.001365000000,   0.72000,
,,,0.001365020000,   0.64000,
,,,0.001365040000,   0.64000,
,,,0.001365060000,   0.64000,
,,,0.001365080000,   0.72000,
,,,0.001365100000,   0.64000,
,,,0.001365120000,   0.72000,
,,,0.001365140000,   0.64000,
,,,0.001365160000,   0.64000,
,,,0.001365180000,   0.56000,
,,,0.001365200000,   0.64000,
,,,0.001365220000,   0.64000,
,,,0.001365240000,   0.64000,
,,,0.001365260000,   0.64000,
,,,0.001365280000,   0.56000,
,,,0.001365300000,   0.64000,
,,,0.001365320000,   0.56000,
,,,0.001365340000,   0.64000,
,,,0.001365360000,   0.72000,
,,,0.001365380000,   0.56000,
,,,0.001365400000,   0.64000,
,,,0.001365420000,   0.56000,
,,,0.001365440000,   0.56000,
,,,0.001365460000,   0.56000,
,,,0.001365480000,   0.56000,
,,,0.001365500000,   0.64000,
,,,0.001365520000,   0.56000,
,,,0.001365540000,   0.56000,
,,,0.001365560000,   0.64000,
,,,0.001365580000,   0.56000,
,,,0.001365600000,   0.48000,
,,,0.001365620000,   0.56000,
,,,0.001365640000,   0.56000,
,,,0.001365660000,   0.56000,
,,,0.001365680000,   0.48000,
,,,0.001365700000,   0.48000,
,,,0.001365720000,   0.48000,
,,,0.001365740000,   0.56000,
,,,0.001365760000,   0.48000,
,,,0.001365780000,   0.48000,
,,,0.001365800000,   0.48000,
,,,0.001365820000,   0.48000,
,,,0.001365840000,   0.48000,
,,,0.001365860000,   0.40000,
,,,0.001365880000,   0.48000,
,,,0.001365900000,   0.48000,
,,,0.001365920000,   0.48000,
,,,0.001365940000,   0.48000,
,,,0.001365960000,   0.48000,
,,,0.001365980000,   0.48000,
,,,0.001366000000,   0.48000,
,,,0.001366020000,   0.48000,
,,,0.001366040000,   0.48000,
,,,0.001366060000,   0.48000,
,,,0.001366080000,   0.40000,
,,,0.001366100000,   0.40000,
,,,0.001366120000,   0.40000,
,,,0.001366140000,   0.40000,
,,,0.001366160000,   0.48000,
,,,0.001366180000,   0.40000,
,,,0.001366200000,   0.40000,
,,,0.001366220000,   0.40000,
,,,0.001366240000,   0.32000,
,,,0.001366260000,   0.40000,
,,,0.001366280000,   0.40000,
,,,0.001366300000,   0.40000,
,,,0.001366320000,   0.32000,
,,,0.001366340000,   0.32000,
,,,0.001366360000,   0.48000,
,,,0.001366380000,   0.40000,
,,,0.001366400000,   0.32000,
,,,0.001366420000,   0.32000,
,,,0.001366440000,   0.32000,
,,,0.001366460000,   0.40000,
,,,0.001366480000,   0.32000,
,,,0.001366500000,   0.32000,
,,,0.001366520000,   0.32000,
,,,0.001366540000,   0.24000,
,,,0.001366560000,   0.32000,
,,,0.001366580000,   0.32000,
,,,0.001366600000,   0.32000,
,,,0.001366620000,   0.24000,
,,,0.001366640000,   0.32000,
,,,0.001366660000,   0.24000,
,,,0.001366680000,   0.32000,
,,,0.001366700000,   0.32000,
,,,0.001366720000,   0.32000,
,,,0.001366740000,   0.24000,
,,,0.001366760000,   0.24000,
,,,0.001366780000,   0.32000,
,,,0.001366800000,   0.16000,
,,,0.001366820000,   0.24000,
,,,0.001366840000,   0.24000,
,,,0.001366860000,   0.24000,
,,,0.001366880000,   0.16000,
,,,0.001366900000,   0.24000,
,,,0.001366920000,   0.24000,
,,,0.001366940000,   0.16000,
,,,0.001366960000,   0.16000,
,,,0.001366980000,   0.24000,
,,,0.001367000000,   0.24000,
,,,0.001367020000,   0.24000,
,,,0.001367040000,   0.16000,
,,,0.001367060000,   0.16000,
,,,0.001367080000,   0.16000,
,,,0.001367100000,   0.16000,
,,,0.001367120000,   0.24000,
,,,0.001367140000,   0.16000,
,,,0.001367160000,   0.16000,
,,,0.001367180000,   0.16000,
,,,0.001367200000,   0.08000,
,,,0.001367220000,   0.16000,
,,,0.001367240000,   0.16000,
,,,0.001367260000,   0.16000,
,,,0.001367280000,   0.16000,
,,,0.001367300000,   0.16000,
,,,0.001367320000,   0.00000,
,,,0.001367340000,   0.24000,
,,,0.001367360000,   0.08000,
,,,0.001367380000,   0.16000,
,,,0.001367400000,   0.16000,
,,,0.001367420000,   0.08000,
,,,0.001367440000,   0.08000,
,,,0.001367460000,   0.00000,
,,,0.001367480000,   0.08000,
,,,0.001367500000,   0.08000,
,,,0.001367520000,   0.08000,
,,,0.001367540000,   0.00000,
,,,0.001367560000,   0.08000,
,,,0.001367580000,  -0.08000,
,,,0.001367600000,   0.00000,
,,,0.001367620000,   0.08000,
,,,0.001367640000,   0.00000,
,,,0.001367660000,   0.00000,
,,,0.001367680000,   0.00000,
,,,0.001367700000,  -0.08000,
,,,0.001367720000,   0.00000,
,,,0.001367740000,   0.00000,
,,,0.001367760000,   0.00000,
,,,0.001367780000,   0.00000,
,,,0.001367800000,   0.00000,
,,,0.001367820000,   0.00000,
,,,0.001367840000,   0.00000,
,,,0.001367860000,  -0.08000,
,,,0.001367880000,  -0.08000,
,,,0.001367900000,   0.00000,
,,,0.001367920000,  -0.08000,
,,,0.001367940000,  -0.08000,
,,,0.001367960000,  -0.08000,
,,,0.001367980000,  -0.08000,
,,,0.001368000000,  -0.08000,
,,,0.001368020000,  -0.08000,
,,,0.001368040000,  -0.16000,
,,,0.001368060000,  -0.08000,
,,,0.001368080000,  -0.08000,
,,,0.001368100000,  -0.16000,
,,,0.001368120000,  -0.16000,
,,,0.001368140000,  -0.16000,
,,,0.001368160000,  -0.16000,
,,,0.001368180000,  -0.16000,
,,,0.001368200000,  -0.16000,
,,,0.001368220000,  -0.16000,
,,,0.001368240000,  -0.16000,
,,,0.001368260000,  -0.16000,
,,,0.001368280000,  -0.16000,
,,,0.001368300000,  -0.24000,
,,,0.001368320000,  -0.16000,
,,,0.001368340000,  -0.08000,
,,,0.001368360000,  -0.16000,
,,,0.001368380000,  -0.16000,
,,,0.001368400000,  -0.16000,
,,,0.001368420000,  -0.24000,
,,,0.001368440000,  -0.24000,
,,,0.001368460000,  -0.16000,
,,,0.001368480000,  -0.24000,
,,,0.001368500000,  -0.24000,
,,,0.001368520000,  -0.24000,
,,,0.001368540000,  -0.24000,
,,,0.001368560000,  -0.24000,
,,,0.001368580000,  -0.32000,
,,,0.001368600000,  -0.24000,
,,,0.001368620000,  -0.32000,
,,,0.001368640000,  -0.24000,
,,,0.001368660000,  -0.24000,
,,,0.001368680000,  -0.32000,
,,,0.001368700000,  -0.24000,
,,,0.001368720000,  -0.24000,
,,,0.001368740000,  -0.32000,
,,,0.001368760000,  -0.24000,
,,,0.001368780000,  -0.32000,
,,,0.001368800000,  -0.32000,
,,,0.001368820000,  -0.32000,
,,,0.001368840000,  -0.32000,
,,,0.001368860000,  -0.40000,
,,,0.001368880000,  -0.32000,
,,,0.001368900000,  -0.40000,
,,,0.001368920000,  -0.32000,
,,,0.001368940000,  -0.32000,
,,,0.001368960000,  -0.32000,
,,,0.001368980000,  -0.32000,
,,,0.001369000000,  -0.32000,
,,,0.001369020000,  -0.32000,
,,,0.001369040000,  -0.40000,
,,,0.001369060000,  -0.32000,
,,,0.001369080000,  -0.40000,
,,,0.001369100000,  -0.32000,
,,,0.001369120000,  -0.32000,
,,,0.001369140000,  -0.40000,
,,,0.001369160000,  -0.40000,
,,,0.001369180000,  -0.40000,
,,,0.001369200000,  -0.40000,
,,,0.001369220000,  -0.40000,
,,,0.001369240000,  -0.40000,
,,,0.001369260000,  -0.40000,
,,,0.001369280000,  -0.48000,
,,,0.001369300000,  -0.40000,
,,,0.001369320000,  -0.40000,
,,,0.001369340000,  -0.48000,
,,,0.001369360000,  -0.40000,
,,,0.001369380000,  -0.48000,
,,,0.001369400000,  -0.56000,
,,,0.001369420000,  -0.48000,
,,,0.001369440000,  -0.48000,
,,,0.001369460000,  -0.48000,
,,,0.001369480000,  -0.48000,
,,,0.001369500000,  -0.48000,
,,,0.001369520000,  -0.48000,
,,,0.001369540000,  -0.48000,
,,,0.001369560000,  -0.48000,
,,,0.001369580000,  -0.48000,
,,,0.001369600000,  -0.48000,
,,,0.001369620000,  -0.48000,
,,,0.001369640000,  -0.56000,
,,,0.001369660000,  -0.48000,
,,,0.001369680000,  -0.56000,
,,,0.001369700000,  -0.56000,
,,,0.001369720000,  -0.48000,
,,,0.001369740000,  -0.56000,
,,,0.001369760000,  -0.48000,
,,,0.001369780000,  -0.48000,
,,,0.001369800000,  -0.48000,
,,,0.001369820000,  -0.56000,
,,,0.001369840000,  -0.56000,
,,,0.001369860000,  -0.56000,
,,,0.001369880000,  -0.48000,
,,,0.001369900000,  -0.56000,
,,,0.001369920000,  -0.56000,
,,,0.001369940000,  -0.56000,
,,,0.001369960000,  -0.64000,
,,,0.001369980000,  -0.56000,
,,,0.001370000000,  -0.64000,
,,,0.001370020000,  -0.56000,
,,,0.001370040000,  -0.56000,
,,,0.001370060000,  -0.56000,
,,,0.001370080000,  -0.72000,
,,,0.001370100000,  -0.64000,
,,,0.001370120000,  -0.64000,
,,,0.001370140000,  -0.56000,
,,,0.001370160000,  -0.56000,
,,,0.001370180000,  -0.56000,
,,,0.001370200000,  -0.56000,
,,,0.001370220000,  -0.64000,
,,,0.001370240000,  -0.64000,
,,,0.001370260000,  -0.64000,
,,,0.001370280000,  -0.64000,
,,,0.001370300000,  -0.64000,
,,,0.001370320000,  -0.56000,
,,,0.001370340000,  -0.72000,
,,,0.001370360000,  -0.64000,
,,,0.001370380000,  -0.72000,
,,,0.001370400000,  -0.72000,
,,,0.001370420000,  -0.64000,
,,,0.001370440000,  -0.72000,
,,,0.001370460000,  -0.64000,
,,,0.001370480000,  -0.72000,
,,,0.001370500000,  -0.72000,
,,,0.001370520000,  -0.64000,
,,,0.001370540000,  -0.72000,
,,,0.001370560000,  -0.72000,
,,,0.001370580000,  -0.72000,
,,,0.001370600000,  -0.72000,
,,,0.001370620000,  -0.72000,
,,,0.001370640000,  -0.80000,
,,,0.001370660000,  -0.72000,
,,,0.001370680000,  -0.64000,
,,,0.001370700000,  -0.80000,
,,,0.001370720000,  -0.72000,
,,,0.001370740000,  -0.64000,
,,,0.001370760000,  -0.72000,
,,,0.001370780000,  -0.64000,
,,,0.001370800000,  -0.72000,
,,,0.001370820000,  -0.72000,
,,,0.001370840000,  -0.80000,
,,,0.001370860000,  -0.72000,
,,,0.001370880000,  -0.72000,
,,,0.001370900000,  -0.72000,
,,,0.001370920000,  -0.72000,
,,,0.001370940000,  -0.80000,
,,,0.001370960000,  -0.80000,
,,,0.001370980000,  -0.72000,
,,,0.001371000000,  -0.80000,
,,,0.001371020000,  -0.80000,
,,,0.001371040000,  -0.88000,
,,,0.001371060000,  -0.80000,
,,,0.001371080000,  -0.80000,
,,,0.001371100000,  -0.80000,
,,,0.001371120000,  -0.80000,
,,,0.001371140000,  -0.80000,
,,,0.001371160000,  -0.80000,
,,,0.001371180000,  -0.72000,
,,,0.001371200000,  -0.80000,
,,,0.001371220000,  -0.80000,
,,,0.001371240000,  -0.80000,
,,,0.001371260000,  -0.80000,
,,,0.001371280000,  -0.80000,
,,,0.001371300000,  -0.88000,
,,,0.001371320000,  -0.88000,
,,,0.001371340000,  -0.88000,
,,,0.001371360000,  -0.80000,
,,,0.001371380000,  -0.88000,
,,,0.001371400000,  -0.80000,
,,,0.001371420000,  -0.88000,
,,,0.001371440000,  -0.80000,
,,,0.001371460000,  -0.88000,
,,,0.001371480000,  -0.88000,
,,,0.001371500000,  -0.80000,
,,,0.001371520000,  -0.88000,
,,,0.001371540000,  -0.88000,
,,,0.001371560000,  -0.88000,
,,,0.001371580000,  -0.88000,
,,,0.001371600000,  -0.88000,
,,,0.001371620000,  -0.88000,
,,,0.001371640000,  -0.88000,
,,,0.001371660000,  -0.96000,
,,,0.001371680000,  -0.80000,
,,,0.001371700000,  -0.88000,
,,,0.001371720000,  -0.88000,
,,,0.001371740000,  -0.96000,
,,,0.001371760000,  -0.88000,
,,,0.001371780000,  -0.88000,
,,,0.001371800000,  -0.96000,
,,,0.001371820000,  -0.96000,
,,,0.001371840000,  -0.88000,
,,,0.001371860000,  -0.88000,
,,,0.001371880000,  -0.88000,
,,,0.001371900000,  -0.88000,
,,,0.001371920000,  -0.88000,
,,,0.001371940000,  -0.88000,
,,,0.001371960000,  -0.88000,
,,,0.001371980000,  -0.88000,
,,,0.001372000000,  -0.88000,
,,,0.001372020000,  -0.88000,
,,,0.001372040000,  -0.96000,
,,,0.001372060000,  -0.96000,
,,,0.001372080000,  -0.88000,
,,,0.001372100000,  -0.96000,
,,,0.001372120000,  -0.96000,
,,,0.001372140000,  -0.96000,
,,,0.001372160000,  -0.96000,
,,,0.001372180000,  -0.88000,
,,,0.001372200000,  -0.96000,
,,,0.001372220000,  -0.96000,
,,,0.001372240000,  -0.88000,
,,,0.001372260000,  -0.96000,
,,,0.001372280000,  -0.88000,
,,,0.001372300000,  -0.88000,
,,,0.001372320000,  -0.96000,
,,,0.001372340000,  -0.88000,
,,,0.001372360000,  -0.88000,
,,,0.001372380000,  -1.04000,
,,,0.001372400000,  -0.96000,
,,,0.001372420000,  -0.96000,
,,,0.001372440000,  -0.96000,
,,,0.001372460000,  -0.96000,
,,,0.001372480000,  -1.04000,
,,,0.001372500000,  -0.96000,
,,,0.001372520000,  -1.04000,
,,,0.001372540000,  -0.96000,
,,,0.001372560000,  -1.04000,
,,,0.001372580000,  -0.96000,
,,,0.001372600000,  -0.96000,
,,,0.001372620000,  -0.96000,
,,,0.001372640000,  -1.04000,
,,,0.001372660000,  -0.96000,
,,,0.001372680000,  -0.96000,
,,,0.001372700000,  -1.04000,
,,,0.001372720000,  -0.96000,
,,,0.001372740000,  -0.96000,
,,,0.001372760000,  -0.96000,
,,,0.001372780000,  -0.96000,
,,,0.001372800000,  -0.96000,
,,,0.001372820000,  -1.04000,
,,,0.001372840000,  -0.88000,
,,,0.001372860000,  -0.96000,
,,,0.001372880000,  -0.96000,
,,,0.001372900000,  -0.96000,
,,,0.001372920000,  -0.88000,
,,,0.001372940000,  -0.96000,
,,,0.001372960000,  -0.96000,
,,,0.001372980000,  -0.96000,
,,,0.001373000000,  -0.96000,
,,,0.001373020000,  -1.04000,
,,,0.001373040000,  -1.04000,
,,,0.001373060000,  -0.96000,
,,,0.001373080000,  -1.04000,
,,,0.001373100000,  -0.96000,
,,,0.001373120000,  -0.96000,
,,,0.001373140000,  -1.04000,
,,,0.001373160000,  -1.04000,
,,,0.001373180000,  -0.96000,
,,,0.001373200000,  -0.96000,
,,,0.001373220000,  -0.96000,
,,,0.001373240000,  -1.04000,
,,,0.001373260000,  -1.04000,
,,,0.001373280000,  -0.96000,
,,,0.001373300000,  -0.96000,
,,,0.001373320000,  -1.04000,
,,,0.001373340000,  -0.96000,
,,,0.001373360000,  -0.96000,
,,,0.001373380000,  -0.96000,
,,,0.001373400000,  -0.88000,
,,,0.001373420000,  -1.04000,
,,,0.001373440000,  -0.96000,
,,,0.001373460000,  -0.96000,
,,,0.001373480000,  -0.96000,
,,,0.001373500000,  -0.96000,
,,,0.001373520000,  -1.04000,
,,,0.001373540000,  -0.96000,
,,,0.001373560000,  -0.96000,
,,,0.001373580000,  -1.04000,
,,,0.001373600000,  -0.96000,
,,,0.001373620000,  -0.96000,
,,,0.001373640000,  -0.96000,
,,,0.001373660000,  -0.96000,
,,,0.001373680000,  -0.96000,
,,,0.001373700000,  -1.04000,
,,,0.001373720000,  -0.96000,
,,,0.001373740000,  -0.96000,
,,,0.001373760000,  -0.96000,
,,,0.001373780000,  -0.88000,
,,,0.001373800000,  -0.96000,
,,,0.001373820000,  -0.96000,
,,,0.001373840000,  -1.04000,
,,,0.001373860000,  -0.88000,
,,,0.001373880000,  -0.88000,
,,,0.001373900000,  -0.88000,
,,,0.001373920000,  -0.96000,
,,,0.001373940000,  -0.96000,
,,,0.001373960000,  -0.96000,
,,,0.001373980000,  -0.96000,
,,,0.001374000000,  -0.88000,
,,,0.001374020000,  -0.96000,
,,,0.001374040000,  -1.04000,
,,,0.001374060000,  -0.96000,
,,,0.001374080000,  -0.96000,
,,,0.001374100000,  -0.88000,
,,,0.001374120000,  -0.88000,
,,,0.001374140000,  -0.96000,
,,,0.001374160000,  -0.88000,
,,,0.001374180000,  -1.04000,
,,,0.001374200000,  -0.96000,
,,,0.001374220000,  -0.96000,
,,,0.001374240000,  -0.96000,
,,,0.001374260000,  -0.88000,
,,,0.001374280000,  -0.88000,
,,,0.001374300000,  -0.88000,
,,,0.001374320000,  -0.96000,
,,,0.001374340000,  -0.88000,
,,,0.001374360000,  -0.96000,
,,,0.001374380000,  -0.88000,
,,,0.001374400000,  -0.88000,
,,,0.001374420000,  -0.88000,
,,,0.001374440000,  -0.96000,
,,,0.001374460000,  -0.96000,
,,,0.001374480000,  -0.96000,
,,,0.001374500000,  -0.96000,
,,,0.001374520000,  -0.88000,
,,,0.001374540000,  -0.96000,
,,,0.001374560000,  -0.88000,
,,,0.001374580000,  -0.96000,
,,,0.001374600000,  -0.96000,
,,,0.001374620000,  -0.96000,
,,,0.001374640000,  -0.88000,
,,,0.001374660000,  -0.88000,
,,,0.001374680000,  -0.96000,
,,,0.001374700000,  -0.96000,
,,,0.001374720000,  -0.96000,
,,,0.001374740000,  -0.80000,
,,,0.001374760000,  -0.88000,
,,,0.001374780000,  -0.88000,
,,,0.001374800000,  -0.88000,
,,,0.001374820000,  -0.88000,
,,,0.001374840000,  -0.88000,
,,,0.001374860000,  -0.80000,
,,,0.001374880000,  -0.88000,
,,,0.001374900000,  -0.88000,
,,,0.001374920000,  -0.96000,
,,,0.001374940000,  -0.88000,
,,,0.001374960000,  -0.80000,
,,,0.001374980000,  -0.80000,
,,,0.001375000000,  -0.80000,
,,,0.001375020000,  -0.88000,
,,,0.001375040000,  -0.88000,
,,,0.001375060000,  -0.80000,
