circuiti_3/data/RLC/L/13340/F0000MTH.CSV

Record Length,2.500000e+03,,   0.001248000000,  -0.28000,
Sample Interval,1.000000e-07,,   0.001248100000,  -0.32000,
Trigger Point,-1.248000000000e+04,,   0.001248200000,  -0.32000,
,,,   0.001248300000,  -0.36000,
,,,   0.001248400000,  -0.32000,
,,,   0.001248500000,  -0.32000,
Source,MATH,,   0.001248600000,  -0.32000,
Vertical Units,V,,   0.001248700000,  -0.32000,
Vertical Scale,1.000000e+00,,   0.001248800000,  -0.36000,
Vertical Offset,0.000000e+00,,   0.001248900000,  -0.36000,
Horizontal Units,s,,   0.001249000000,  -0.36000,
Horizontal Scale,2.500000e-05,,   0.001249100000,  -0.36000,
Pt Fmt,Y,,   0.001249200000,  -0.36000,
Yzero,0.000000e+00,,   0.001249300000,  -0.36000,
Probe Atten,1.000000e+00,,   0.001249400000,  -0.44000,
Model Number,TDS1002B,,   0.001249500000,  -0.40000,
Serial Number,C010776,,   0.001249600000,  -0.40000,
Firmware Version,FV:v21.20,,   0.001249700000,  -0.44000,
,,,0.001249800000,  -0.44000,
,,,0.001249900000,  -0.40000,
,,,0.001250000000,  -0.44000,
,,,0.001250100000,  -0.44000,
,,,0.001250200000,  -0.44000,
,,,0.001250300000,  -0.48000,
,,,0.001250400000,  -0.44000,
,,,0.001250500000,  -0.48000,
,,,0.001250600000,  -0.44000,
,,,0.001250700000,  -0.48000,
,,,0.001250800000,  -0.48000,
,,,0.001250900000,  -0.48000,
,,,0.001251000000,  -0.48000,
,,,0.001251100000,  -0.48000,
,,,0.001251200000,  -0.52000,
,,,0.001251300000,  -0.52000,
,,,0.001251400000,  -0.52000,
,,,0.001251500000,  -0.52000,
,,,0.001251600000,  -0.52000,
,,,0.001251700000,  -0.56000,
,,,0.001251800000,  -0.52000,
,,,0.001251900000,  -0.52000,
,,,0.001252000000,  -0.56000,
,,,0.001252100000,  -0.56000,
,,,0.001252200000,  -0.56000,
,,,0.001252300000,  -0.56000,
,,,0.001252400000,  -0.56000,
,,,0.001252500000,  -0.56000,
,,,0.001252600000,  -0.60000,
,,,0.001252700000,  -0.64000,
,,,0.001252800000,  -0.60000,
,,,0.001252900000,  -0.60000,
,,,0.001253000000,  -0.64000,
,,,0.001253100000,  -0.60000,
,,,0.001253200000,  -0.60000,
,,,0.001253300000,  -0.60000,
,,,0.001253400000,  -0.60000,
,,,0.001253500000,  -0.60000,
,,,0.001253600000,  -0.64000,
,,,0.001253700000,  -0.68000,
,,,0.001253800000,  -0.68000,
,,,0.001253900000,  -0.68000,
,,,0.001254000000,  -0.68000,
,,,0.001254100000,  -0.68000,
,,,0.001254200000,  -0.64000,
,,,0.001254300000,  -0.68000,
,,,0.001254400000,  -0.64000,
,,,0.001254500000,  -0.68000,
,,,0.001254600000,  -0.68000,
,,,0.001254700000,  -0.68000,
,,,0.001254800000,  -0.72000,
,,,0.001254900000,  -0.72000,
,,,0.001255000000,  -0.72000,
,,,0.001255100000,  -0.72000,
,,,0.001255200000,  -0.72000,
,,,0.001255300000,  -0.72000,
,,,0.001255400000,  -0.76000,
,,,0.001255500000,  -0.72000,
,,,0.001255600000,  -0.72000,
,,,0.001255700000,  -0.72000,
,,,0.001255800000,  -0.76000,
,,,0.001255900000,  -0.76000,
,,,0.001256000000,  -0.76000,
,,,0.001256100000,  -0.76000,
,,,0.001256200000,  -0.72000,
,,,0.001256300000,  -0.80000,
,,,0.001256400000,  -0.76000,
,,,0.001256500000,  -0.76000,
,,,0.001256600000,  -0.76000,
,,,0.001256700000,  -0.76000,
,,,0.001256800000,  -0.80000,
,,,0.001256900000,  -0.80000,
,,,0.001257000000,  -0.80000,
,,,0.001257100000,  -0.80000,
,,,0.001257200000,  -0.76000,
,,,0.001257300000,  -0.84000,
,,,0.001257400000,  -0.80000,
,,,0.001257500000,  -0.80000,
,,,0.001257600000,  -0.84000,
,,,0.001257700000,  -0.80000,
,,,0.001257800000,  -0.80000,
,,,0.001257900000,  -0.84000,
,,,0.001258000000,  -0.80000,
,,,0.001258100000,  -0.88000,
,,,0.001258200000,  -0.84000,
,,,0.001258300000,  -0.84000,
,,,0.001258400000,  -0.84000,
,,,0.001258500000,  -0.84000,
,,,0.001258600000,  -0.84000,
,,,0.001258700000,  -0.88000,
,,,0.001258800000,  -0.84000,
,,,0.001258900000,  -0.88000,
,,,0.001259000000,  -0.84000,
,,,0.001259100000,  -0.88000,
,,,0.001259200000,  -0.84000,
,,,0.001259300000,  -0.88000,
,,,0.001259400000,  -0.88000,
,,,0.001259500000,  -0.88000,
,,,0.001259600000,  -0.88000,
,,,0.001259700000,  -0.88000,
,,,0.001259800000,  -0.88000,
,,,0.001259900000,  -0.88000,
,,,0.001260000000,  -0.88000,
,,,0.001260100000,  -0.92000,
,,,0.001260200000,  -0.92000,
,,,0.001260300000,  -0.88000,
,,,0.001260400000,  -0.88000,
,,,0.001260500000,  -0.88000,
,,,0.001260600000,  -0.92000,
,,,0.001260700000,  -0.88000,
,,,0.001260800000,  -0.88000,
,,,0.001260900000,  -0.88000,
,,,0.001261000000,  -0.88000,
,,,0.001261100000,  -0.96000,
,,,0.001261200000,  -0.88000,
,,,0.001261300000,  -0.92000,
,,,0.001261400000,  -0.84000,
,,,0.001261500000,  -0.92000,
,,,0.001261600000,  -0.92000,
,,,0.001261700000,  -0.92000,
,,,0.001261800000,  -0.92000,
,,,0.001261900000,  -0.92000,
,,,0.001262000000,  -0.92000,
,,,0.001262100000,  -0.88000,
,,,0.001262200000,  -0.92000,
,,,0.001262300000,  -0.92000,
,,,0.001262400000,  -0.92000,
,,,0.001262500000,  -0.92000,
,,,0.001262600000,  -0.92000,
,,,0.001262700000,  -0.88000,
,,,0.001262800000,  -0.92000,
,,,0.001262900000,  -0.92000,
,,,0.001263000000,  -0.88000,
,,,0.001263100000,  -0.88000,
,,,0.001263200000,  -0.92000,
,,,0.001263300000,  -0.92000,
,,,0.001263400000,  -0.92000,
,,,0.001263500000,  -0.96000,
,,,0.001263600000,  -0.92000,
,,,0.001263700000,  -0.88000,
,,,0.001263800000,  -0.92000,
,,,0.001263900000,  -0.88000,
,,,0.001264000000,  -0.88000,
,,,0.001264100000,  -0.92000,
,,,0.001264200000,  -0.92000,
,,,0.001264300000,  -0.92000,
,,,0.001264400000,  -0.88000,
,,,0.001264500000,  -0.88000,
,,,0.001264600000,  -0.88000,
,,,0.001264700000,  -0.88000,
,,,0.001264800000,  -0.88000,
,,,0.001264900000,  -0.92000,
,,,0.001265000000,  -0.92000,
,,,0.001265100000,  -0.88000,
,,,0.001265200000,  -0.88000,
,,,0.001265300000,  -0.88000,
,,,0.001265400000,  -0.84000,
,,,0.001265500000,  -0.92000,
,,,0.001265600000,  -0.88000,
,,,0.001265700000,  -0.84000,
,,,0.001265800000,  -0.88000,
,,,0.001265900000,  -0.88000,
,,,0.001266000000,  -0.84000,
,,,0.001266100000,  -0.88000,
,,,0.001266200000,  -0.88000,
,,,0.001266300000,  -0.88000,
,,,0.001266400000,  -0.88000,
,,,0.001266500000,  -0.88000,
,,,0.001266600000,  -0.84000,
,,,0.001266700000,  -0.84000,
,,,0.001266800000,  -0.88000,
,,,0.001266900000,  -0.80000,
,,,0.001267000000,  -0.88000,
,,,0.001267100000,  -0.84000,
,,,0.001267200000,  -0.84000,
,,,0.001267300000,  -0.84000,
,,,0.001267400000,  -0.84000,
,,,0.001267500000,  -0.80000,
,,,0.001267600000,  -0.84000,
,,,0.001267700000,  -0.84000,
,,,0.001267800000,  -0.84000,
,,,0.001267900000,  -0.84000,
,,,0.001268000000,  -0.84000,
,,,0.001268100000,  -0.80000,
,,,0.001268200000,  -0.84000,
,,,0.001268300000,  -0.84000,
,,,0.001268400000,  -0.84000,
,,,0.001268500000,  -0.80000,
,,,0.001268600000,  -0.80000,
,,,0.001268700000,  -0.76000,
,,,0.001268800000,  -0.80000,
,,,0.001268900000,  -0.80000,
,,,0.001269000000,  -0.76000,
,,,0.001269100000,  -0.80000,
,,,0.001269200000,  -0.76000,
,,,0.001269300000,  -0.76000,
,,,0.001269400000,  -0.80000,
,,,0.001269500000,  -0.80000,
,,,0.001269600000,  -0.80000,
,,,0.001269700000,  -0.72000,
,,,0.001269800000,  -0.72000,
,,,0.001269900000,  -0.76000,
,,,0.001270000000,  -0.76000,
,,,0.001270100000,  -0.68000,
,,,0.001270200000,  -0.76000,
,,,0.001270300000,  -0.72000,
,,,0.001270400000,  -0.72000,
,,,0.001270500000,  -0.72000,
,,,0.001270600000,  -0.68000,
,,,0.001270700000,  -0.72000,
,,,0.001270800000,  -0.72000,
,,,0.001270900000,  -0.68000,
,,,0.001271000000,  -0.68000,
,,,0.001271100000,  -0.68000,
,,,0.001271200000,  -0.68000,
,,,0.001271300000,  -0.72000,
,,,0.001271400000,  -0.64000,
,,,0.001271500000,  -0.68000,
,,,0.001271600000,  -0.64000,
,,,0.001271700000,  -0.68000,
,,,0.001271800000,  -0.72000,
,,,0.001271900000,  -0.64000,
,,,0.001272000000,  -0.60000,
,,,0.001272100000,  -0.64000,
,,,0.001272200000,  -0.64000,
,,,0.001272300000,  -0.64000,
,,,0.001272400000,  -0.64000,
,,,0.001272500000,  -0.60000,
,,,0.001272600000,  -0.60000,
,,,0.001272700000,  -0.60000,
,,,0.001272800000,  -0.64000,
,,,0.001272900000,  -0.60000,
,,,0.001273000000,  -0.60000,
,,,0.001273100000,  -0.60000,
,,,0.001273200000,  -0.60000,
,,,0.001273300000,  -0.56000,
,,,0.001273400000,  -0.56000,
,,,0.001273500000,  -0.56000,
,,,0.001273600000,  -0.56000,
,,,0.001273700000,  -0.56000,
,,,0.001273800000,  -0.56000,
,,,0.001273900000,  -0.56000,
,,,0.001274000000,  -0.56000,
,,,0.001274100000,  -0.56000,
,,,0.001274200000,  -0.52000,
,,,0.001274300000,  -0.52000,
,,,0.001274400000,  -0.48000,
,,,0.001274500000,  -0.52000,
,,,0.001274600000,  -0.52000,
,,,0.001274700000,  -0.48000,
,,,0.001274800000,  -0.48000,
,,,0.001274900000,  -0.48000,
,,,0.001275000000,  -0.48000,
,,,0.001275100000,  -0.44000,
,,,0.001275200000,  -0.48000,
,,,0.001275300000,  -0.44000,
,,,0.001275400000,  -0.48000,
,,,0.001275500000,  -0.44000,
,,,0.001275600000,  -0.44000,
,,,0.001275700000,  -0.44000,
,,,0.001275800000,  -0.40000,
,,,0.001275900000,  -0.40000,
,,,0.001276000000,  -0.44000,
,,,0.001276100000,  -0.40000,
,,,0.001276200000,  -0.36000,
,,,0.001276300000,  -0.40000,
,,,0.001276400000,  -0.36000,
,,,0.001276500000,  -0.36000,
,,,0.001276600000,  -0.36000,
,,,0.001276700000,  -0.40000,
,,,0.001276800000,  -0.36000,
,,,0.001276900000,  -0.36000,
,,,0.001277000000,  -0.32000,
,,,0.001277100000,  -0.36000,
,,,0.001277200000,  -0.36000,
,,,0.001277300000,  -0.32000,
,,,0.001277400000,  -0.32000,
,,,0.001277500000,  -0.32000,
,,,0.001277600000,  -0.28000,
,,,0.001277700000,  -0.28000,
,,,0.001277800000,  -0.28000,
,,,0.001277900000,  -0.24000,
,,,0.001278000000,  -0.28000,
,,,0.001278100000,  -0.28000,
,,,0.001278200000,  -0.24000,
,,,0.001278300000,  -0.28000,
,,,0.001278400000,  -0.24000,
,,,0.001278500000,  -0.24000,
,,,0.001278600000,  -0.24000,
,,,0.001278700000,  -0.24000,
,,,0.001278800000,  -0.24000,
,,,0.001278900000,  -0.24000,
,,,0.001279000000,  -0.20000,
,,,0.001279100000,  -0.20000,
,,,0.001279200000,  -0.16000,
,,,0.001279300000,  -0.20000,
,,,0.001279400000,  -0.20000,
,,,0.001279500000,  -0.16000,
,,,0.001279600000,  -0.12000,
,,,0.001279700000,  -0.16000,
,,,0.001279800000,  -0.16000,
,,,0.001279900000,  -0.12000,
,,,0.001280000000,  -0.12000,
,,,0.001280100000,  -0.16000,
,,,0.001280200000,  -0.16000,
,,,0.001280300000,  -0.08000,
,,,0.001280400000,  -0.08000,
,,,0.001280500000,  -0.08000,
,,,0.001280600000,  -0.08000,
,,,0.001280700000,  -0.08000,
,,,0.001280800000,  -0.08000,
,,,0.001280900000,  -0.08000,
,,,0.001281000000,  -0.08000,
,,,0.001281100000,  -0.08000,
,,,0.001281200000,  -0.04000,
,,,0.001281300000,  -0.04000,
,,,0.001281400000,   0.00000,
,,,0.001281500000,   0.00000,
,,,0.001281600000,   0.00000,
,,,0.001281700000,  -0.04000,
,,,0.001281800000,   0.00000,
,,,0.001281900000,   0.04000,
,,,0.001282000000,   0.04000,
,,,0.001282100000,   0.00000,
,,,0.001282200000,   0.04000,
,,,0.001282300000,   0.04000,
,,,0.001282400000,   0.04000,
,,,0.001282500000,   0.04000,
,,,0.001282600000,   0.08000,
,,,0.001282700000,   0.04000,
,,,0.001282800000,   0.08000,
,,,0.001282900000,   0.08000,
,,,0.001283000000,   0.08000,
,,,0.001283100000,   0.08000,
,,,0.001283200000,   0.12000,
,,,0.001283300000,   0.12000,
,,,0.001283400000,   0.12000,
,,,0.001283500000,   0.12000,
,,,0.001283600000,   0.12000,
,,,0.001283700000,   0.16000,
,,,0.001283800000,   0.12000,
,,,0.001283900000,   0.12000,
,,,0.001284000000,   0.16000,
,,,0.001284100000,   0.12000,
,,,0.001284200000,   0.16000,
,,,0.001284300000,   0.16000,
,,,0.001284400000,   0.20000,
,,,0.001284500000,   0.20000,
,,,0.001284600000,   0.16000,
,,,0.001284700000,   0.20000,
,,,0.001284800000,   0.24000,
,,,0.001284900000,   0.20000,
,,,0.001285000000,   0.20000,
,,,0.001285100000,   0.24000,
,,,0.001285200000,   0.28000,
,,,0.001285300000,   0.28000,
,,,0.001285400000,   0.20000,
,,,0.001285500000,   0.24000,
,,,0.001285600000,   0.24000,
,,,0.001285700000,   0.28000,
,,,0.001285800000,   0.32000,
,,,0.001285900000,   0.28000,
,,,0.001286000000,   0.28000,
,,,0.001286100000,   0.28000,
,,,0.001286200000,   0.28000,
,,,0.001286300000,   0.32000,
,,,0.001286400000,   0.32000,
,,,0.001286500000,   0.32000,
,,,0.001286600000,   0.32000,
,,,0.001286700000,   0.36000,
,,,0.001286800000,   0.36000,
,,,0.001286900000,   0.32000,
,,,0.001287000000,   0.32000,
,,,0.001287100000,   0.32000,
,,,0.001287200000,   0.40000,
,,,0.001287300000,   0.40000,
,,,0.001287400000,   0.36000,
,,,0.001287500000,   0.44000,
,,,0.001287600000,   0.40000,
,,,0.001287700000,   0.40000,
,,,0.001287800000,   0.40000,
,,,0.001287900000,   0.44000,
,,,0.001288000000,   0.40000,
,,,0.001288100000,   0.44000,
,,,0.001288200000,   0.44000,
,,,0.001288300000,   0.44000,
,,,0.001288400000,   0.44000,
,,,0.001288500000,   0.48000,
,,,0.001288600000,   0.44000,
,,,0.001288700000,   0.48000,
,,,0.001288800000,   0.44000,
,,,0.001288900000,   0.44000,
,,,0.001289000000,   0.48000,
,,,0.001289100000,   0.48000,
,,,0.001289200000,   0.48000,
,,,0.001289300000,   0.48000,
,,,0.001289400000,   0.48000,
,,,0.001289500000,   0.48000,
,,,0.001289600000,   0.52000,
,,,0.001289700000,   0.48000,
,,,0.001289800000,   0.52000,
,,,0.001289900000,   0.52000,
,,,0.001290000000,   0.56000,
,,,0.001290100000,   0.56000,
,,,0.001290200000,   0.56000,
,,,0.001290300000,   0.60000,
,,,0.001290400000,   0.56000,
,,,0.001290500000,   0.56000,
,,,0.001290600000,   0.60000,
,,,0.001290700000,   0.56000,
,,,0.001290800000,   0.56000,
,,,0.001290900000,   0.56000,
,,,0.001291000000,   0.60000,
,,,0.001291100000,   0.60000,
,,,0.001291200000,   0.64000,
,,,0.001291300000,   0.60000,
,,,0.001291400000,   0.60000,
,,,0.001291500000,   0.60000,
,,,0.001291600000,   0.60000,
,,,0.001291700000,   0.64000,
,,,0.001291800000,   0.64000,
,,,0.001291900000,   0.64000,
,,,0.001292000000,   0.64000,
,,,0.001292100000,   0.64000,
,,,0.001292200000,   0.68000,
,,,0.001292300000,   0.64000,
,,,0.001292400000,   0.68000,
,,,0.001292500000,   0.68000,
,,,0.001292600000,   0.72000,
,,,0.001292700000,   0.64000,
,,,0.001292800000,   0.68000,
,,,0.001292900000,   0.68000,
,,,0.001293000000,   0.68000,
,,,0.001293100000,   0.72000,
,,,0.001293200000,   0.68000,
,,,0.001293300000,   0.72000,
,,,0.001293400000,   0.72000,
,,,0.001293500000,   0.68000,
,,,0.001293600000,   0.76000,
,,,0.001293700000,   0.72000,
,,,0.001293800000,   0.68000,
,,,0.001293900000,   0.72000,
,,,0.001294000000,   0.72000,
,,,0.001294100000,   0.76000,
,,,0.001294200000,   0.72000,
,,,0.001294300000,   0.76000,
,,,0.001294400000,   0.76000,
,,,0.001294500000,   0.72000,
,,,0.001294600000,   0.72000,
,,,0.001294700000,   0.76000,
,,,0.001294800000,   0.80000,
,,,0.001294900000,   0.80000,
,,,0.001295000000,   0.76000,
,,,0.001295100000,   0.80000,
,,,0.001295200000,   0.76000,
,,,0.001295300000,   0.76000,
,,,0.001295400000,   0.80000,
,,,0.001295500000,   0.72000,
,,,0.001295600000,   0.80000,
,,,0.001295700000,   0.80000,
,,,0.001295800000,   0.80000,
,,,0.001295900000,   0.80000,
,,,0.001296000000,   0.84000,
,,,0.001296100000,   0.80000,
,,,0.001296200000,   0.80000,
,,,0.001296300000,   0.80000,
,,,0.001296400000,   0.80000,
,,,0.001296500000,   0.80000,
,,,0.001296600000,   0.88000,
,,,0.001296700000,   0.84000,
,,,0.001296800000,   0.80000,
,,,0.001296900000,   0.80000,
,,,0.001297000000,   0.80000,
,,,0.001297100000,   0.80000,
,,,0.001297200000,   0.80000,
,,,0.001297300000,   0.80000,
,,,0.001297400000,   0.80000,
,,,0.001297500000,   0.84000,
,,,0.001297600000,   0.84000,
,,,0.001297700000,   0.80000,
,,,0.001297800000,   0.84000,
,,,0.001297900000,   0.84000,
,,,0.001298000000,   0.84000,
,,,0.001298100000,   0.88000,
,,,0.001298200000,   0.84000,
,,,0.001298300000,   0.84000,
,,,0.001298400000,   0.84000,
,,,0.001298500000,   0.84000,
,,,0.001298600000,   0.84000,
,,,0.001298700000,   0.84000,
,,,0.001298800000,   0.88000,
,,,0.001298900000,   0.84000,
,,,0.001299000000,   0.84000,
,,,0.001299100000,   0.84000,
,,,0.001299200000,   0.84000,
,,,0.001299300000,   0.84000,
,,,0.001299400000,   0.84000,
,,,0.001299500000,   0.80000,
,,,0.001299600000,   0.84000,
,,,0.001299700000,   0.88000,
,,,0.001299800000,   0.84000,
,,,0.001299900000,   0.84000,
,,,0.001300000000,   0.88000,
,,,0.001300100000,   0.88000,
,,,0.001300200000,   0.84000,
,,,0.001300300000,   0.88000,
,,,0.001300400000,   0.84000,
,,,0.001300500000,   0.88000,
,,,0.001300600000,   0.88000,
,,,0.001300700000,   0.88000,
,,,0.001300800000,   0.84000,
,,,0.001300900000,   0.88000,
,,,0.001301000000,   0.88000,
,,,0.001301100000,   0.88000,
,,,0.001301200000,   0.88000,
,,,0.001301300000,   0.84000,
,,,0.001301400000,   0.84000,
,,,0.001301500000,   0.84000,
,,,0.001301600000,   0.84000,
,,,0.001301700000,   0.88000,
,,,0.001301800000,   0.84000,
,,,0.001301900000,   0.80000,
,,,0.001302000000,   0.84000,
,,,0.001302100000,   0.84000,
,,,0.001302200000,   0.88000,
,,,0.001302300000,   0.84000,
,,,0.001302400000,   0.84000,
,,,0.001302500000,   0.84000,
,,,0.001302600000,   0.84000,
,,,0.001302700000,   0.84000,
,,,0.001302800000,   0.84000,
,,,0.001302900000,   0.84000,
,,,0.001303000000,   0.80000,
,,,0.001303100000,   0.80000,
,,,0.001303200000,   0.84000,
,,,0.001303300000,   0.84000,
,,,0.001303400000,   0.84000,
,,,0.001303500000,   0.88000,
,,,0.001303600000,   0.80000,
,,,0.001303700000,   0.80000,
,,,0.001303800000,   0.80000,
,,,0.001303900000,   0.84000,
,,,0.001304000000,   0.80000,
,,,0.001304100000,   0.84000,
,,,0.001304200000,   0.80000,
,,,0.001304300000,   0.80000,
,,,0.001304400000,   0.80000,
,,,0.001304500000,   0.80000,
,,,0.001304600000,   0.80000,
,,,0.001304700000,   0.80000,
,,,0.001304800000,   0.84000,
,,,0.001304900000,   0.76000,
,,,0.001305000000,   0.80000,
,,,0.001305100000,   0.84000,
,,,0.001305200000,   0.80000,
,,,0.001305300000,   0.80000,
,,,0.001305400000,   0.76000,
,,,0.001305500000,   0.76000,
,,,0.001305600000,   0.80000,
,,,0.001305700000,   0.76000,
,,,0.001305800000,   0.76000,
,,,0.001305900000,   0.76000,
,,,0.001306000000,   0.76000,
,,,0.001306100000,   0.76000,
,,,0.001306200000,   0.76000,
,,,0.001306300000,   0.76000,
,,,0.001306400000,   0.76000,
,,,0.001306500000,   0.76000,
,,,0.001306600000,   0.72000,
,,,0.001306700000,   0.76000,
,,,0.001306800000,   0.72000,
,,,0.001306900000,   0.72000,
,,,0.001307000000,   0.72000,
,,,0.001307100000,   0.72000,
,,,0.001307200000,   0.72000,
,,,0.001307300000,   0.68000,
,,,0.001307400000,   0.68000,
,,,0.001307500000,   0.68000,
,,,0.001307600000,   0.68000,
,,,0.001307700000,   0.72000,
,,,0.001307800000,   0.72000,
,,,0.001307900000,   0.68000,
,,,0.001308000000,   0.68000,
,,,0.001308100000,   0.68000,
,,,0.001308200000,   0.68000,
,,,0.001308300000,   0.68000,
,,,0.001308400000,   0.68000,
,,,0.001308500000,   0.64000,
,,,0.001308600000,   0.72000,
,,,0.001308700000,   0.64000,
,,,0.001308800000,   0.64000,
,,,0.001308900000,   0.64000,
,,,0.001309000000,   0.64000,
,,,0.001309100000,   0.60000,
,,,0.001309200000,   0.64000,
,,,0.001309300000,   0.60000,
,,,0.001309400000,   0.60000,
,,,0.001309500000,   0.60000,
,,,0.001309600000,   0.64000,
,,,0.001309700000,   0.60000,
,,,0.001309800000,   0.60000,
,,,0.001309900000,   0.64000,
,,,0.001310000000,   0.56000,
,,,0.001310100000,   0.56000,
,,,0.001310200000,   0.64000,
,,,0.001310300000,   0.56000,
,,,0.001310400000,   0.56000,
,,,0.001310500000,   0.56000,
,,,0.001310600000,   0.52000,
,,,0.001310700000,   0.56000,
,,,0.001310800000,   0.52000,
,,,0.001310900000,   0.52000,
,,,0.001311000000,   0.52000,
,,,0.001311100000,   0.52000,
,,,0.001311200000,   0.52000,
,,,0.001311300000,   0.56000,
,,,0.001311400000,   0.48000,
,,,0.001311500000,   0.48000,
,,,0.001311600000,   0.48000,
,,,0.001311700000,   0.48000,
,,,0.001311800000,   0.48000,
,,,0.001311900000,   0.48000,
,,,0.001312000000,   0.48000,
,,,0.001312100000,   0.44000,
,,,0.001312200000,   0.44000,
,,,0.001312300000,   0.48000,
,,,0.001312400000,   0.44000,
,,,0.001312500000,   0.48000,
,,,0.001312600000,   0.44000,
,,,0.001312700000,   0.40000,
,,,0.001312800000,   0.40000,
,,,0.001312900000,   0.44000,
,,,0.001313000000,   0.40000,
,,,0.001313100000,   0.40000,
,,,0.001313200000,   0.40000,
,,,0.001313300000,   0.40000,
