circuiti_3/data/RLC/L/7277/F0000CH1.CSV

Record Length,2.500000e+03,,   0.001118400000,   0.76000,
Sample Interval,2.000000e-07,,   0.001118600000,   0.80000,
Trigger Point,-5.592000000000e+03,,   0.001118800000,   0.80000,
,,,   0.001119000000,   0.76000,
,,,   0.001119200000,   0.80000,
,,,   0.001119400000,   0.82000,
Source,CH1,,   0.001119600000,   0.82000,
Vertical Units,V,,   0.001119800000,   0.82000,
Vertical Scale,5.000000e-01,,   0.001120000000,   0.82000,
Vertical Offset,2.000000e-02,,   0.001120200000,   0.82000,
Horizontal Units,s,,   0.001120400000,   0.84000,
Horizontal Scale,5.000000e-05,,   0.001120600000,   0.82000,
Pt Fmt,Y,,   0.001120800000,   0.84000,
Yzero,0.000000e+00,,   0.001121000000,   0.84000,
Probe Atten,1.000000e+01,,   0.001121200000,   0.84000,
Model Number,TDS1002B,,   0.001121400000,   0.84000,
Serial Number,C010776,,   0.001121600000,   0.86000,
Firmware Version,FV:v21.20,,   0.001121800000,   0.84000,
,,,0.001122000000,   0.88000,
,,,0.001122200000,   0.86000,
,,,0.001122400000,   0.86000,
,,,0.001122600000,   0.88000,
,,,0.001122800000,   0.90000,
,,,0.001123000000,   0.88000,
,,,0.001123200000,   0.86000,
,,,0.001123400000,   0.90000,
,,,0.001123600000,   0.90000,
,,,0.001123800000,   0.90000,
,,,0.001124000000,   0.88000,
,,,0.001124200000,   0.88000,
,,,0.001124400000,   0.92000,
,,,0.001124600000,   0.90000,
,,,0.001124800000,   0.88000,
,,,0.001125000000,   0.94000,
,,,0.001125200000,   0.94000,
,,,0.001125400000,   0.90000,
,,,0.001125600000,   0.92000,
,,,0.001125800000,   0.92000,
,,,0.001126000000,   0.92000,
,,,0.001126200000,   0.94000,
,,,0.001126400000,   0.94000,
,,,0.001126600000,   0.96000,
,,,0.001126800000,   0.92000,
,,,0.001127000000,   0.98000,
,,,0.001127200000,   0.92000,
,,,0.001127400000,   0.92000,
,,,0.001127600000,   0.98000,
,,,0.001127800000,   0.96000,
,,,0.001128000000,   0.94000,
,,,0.001128200000,   0.96000,
,,,0.001128400000,   0.94000,
,,,0.001128600000,   0.96000,
,,,0.001128800000,   0.96000,
,,,0.001129000000,   0.96000,
,,,0.001129200000,   0.94000,
,,,0.001129400000,   0.96000,
,,,0.001129600000,   0.96000,
,,,0.001129800000,   0.94000,
,,,0.001130000000,   0.94000,
,,,0.001130200000,   1.00000,
,,,0.001130400000,   0.96000,
,,,0.001130600000,   0.96000,
,,,0.001130800000,   0.98000,
,,,0.001131000000,   0.94000,
,,,0.001131200000,   0.96000,
,,,0.001131400000,   0.98000,
,,,0.001131600000,   0.96000,
,,,0.001131800000,   0.96000,
,,,0.001132000000,   0.98000,
,,,0.001132200000,   0.98000,
,,,0.001132400000,   0.96000,
,,,0.001132600000,   0.98000,
,,,0.001132800000,   0.98000,
,,,0.001133000000,   1.00000,
,,,0.001133200000,   0.98000,
,,,0.001133400000,   0.96000,
,,,0.001133600000,   1.00000,
,,,0.001133800000,   0.94000,
,,,0.001134000000,   0.96000,
,,,0.001134200000,   0.98000,
,,,0.001134400000,   0.94000,
,,,0.001134600000,   0.94000,
,,,0.001134800000,   0.96000,
,,,0.001135000000,   0.96000,
,,,0.001135200000,   0.96000,
,,,0.001135400000,   0.96000,
,,,0.001135600000,   0.96000,
,,,0.001135800000,   0.96000,
,,,0.001136000000,   0.94000,
,,,0.001136200000,   0.94000,
,,,0.001136400000,   0.94000,
,,,0.001136600000,   0.96000,
,,,0.001136800000,   0.92000,
,,,0.001137000000,   0.92000,
,,,0.001137200000,   0.90000,
,,,0.001137400000,   0.94000,
,,,0.001137600000,   0.92000,
,,,0.001137800000,   0.92000,
,,,0.001138000000,   0.96000,
,,,0.001138200000,   0.92000,
,,,0.001138400000,   0.94000,
,,,0.001138600000,   0.94000,
,,,0.001138800000,   0.90000,
,,,0.001139000000,   0.92000,
,,,0.001139200000,   0.92000,
,,,0.001139400000,   0.90000,
,,,0.001139600000,   0.92000,
,,,0.001139800000,   0.92000,
,,,0.001140000000,   0.92000,
,,,0.001140200000,   0.92000,
,,,0.001140400000,   0.88000,
,,,0.001140600000,   0.88000,
,,,0.001140800000,   0.90000,
,,,0.001141000000,   0.86000,
,,,0.001141200000,   0.88000,
,,,0.001141400000,   0.86000,
,,,0.001141600000,   0.84000,
,,,0.001141800000,   0.88000,
,,,0.001142000000,   0.84000,
,,,0.001142200000,   0.86000,
,,,0.001142400000,   0.86000,
,,,0.001142600000,   0.84000,
,,,0.001142800000,   0.84000,
,,,0.001143000000,   0.84000,
,,,0.001143200000,   0.86000,
,,,0.001143400000,   0.84000,
,,,0.001143600000,   0.82000,
,,,0.001143800000,   0.82000,
,,,0.001144000000,   0.80000,
,,,0.001144200000,   0.82000,
,,,0.001144400000,   0.82000,
,,,0.001144600000,   0.82000,
,,,0.001144800000,   0.78000,
,,,0.001145000000,   0.86000,
,,,0.001145200000,   0.78000,
,,,0.001145400000,   0.78000,
,,,0.001145600000,   0.78000,
,,,0.001145800000,   0.76000,
,,,0.001146000000,   0.78000,
,,,0.001146200000,   0.76000,
,,,0.001146400000,   0.78000,
,,,0.001146600000,   0.76000,
,,,0.001146800000,   0.78000,
,,,0.001147000000,   0.74000,
,,,0.001147200000,   0.74000,
,,,0.001147400000,   0.76000,
,,,0.001147600000,   0.74000,
,,,0.001147800000,   0.72000,
,,,0.001148000000,   0.72000,
,,,0.001148200000,   0.70000,
,,,0.001148400000,   0.70000,
,,,0.001148600000,   0.70000,
,,,0.001148800000,   0.68000,
,,,0.001149000000,   0.66000,
,,,0.001149200000,   0.68000,
,,,0.001149400000,   0.68000,
,,,0.001149600000,   0.64000,
,,,0.001149800000,   0.66000,
,,,0.001150000000,   0.66000,
,,,0.001150200000,   0.64000,
,,,0.001150400000,   0.64000,
,,,0.001150600000,   0.62000,
,,,0.001150800000,   0.62000,
,,,0.001151000000,   0.62000,
,,,0.001151200000,   0.64000,
,,,0.001151400000,   0.62000,
,,,0.001151600000,   0.60000,
,,,0.001151800000,   0.62000,
,,,0.001152000000,   0.60000,
,,,0.001152200000,   0.56000,
,,,0.001152400000,   0.58000,
,,,0.001152600000,   0.56000,
,,,0.001152800000,   0.58000,
,,,0.001153000000,   0.56000,
,,,0.001153200000,   0.52000,
,,,0.001153400000,   0.56000,
,,,0.001153600000,   0.52000,
,,,0.001153800000,   0.52000,
,,,0.001154000000,   0.52000,
,,,0.001154200000,   0.52000,
,,,0.001154400000,   0.50000,
,,,0.001154600000,   0.48000,
,,,0.001154800000,   0.52000,
,,,0.001155000000,   0.50000,
,,,0.001155200000,   0.48000,
,,,0.001155400000,   0.44000,
,,,0.001155600000,   0.46000,
,,,0.001155800000,   0.44000,
,,,0.001156000000,   0.44000,
,,,0.001156200000,   0.44000,
,,,0.001156400000,   0.44000,
,,,0.001156600000,   0.42000,
,,,0.001156800000,   0.40000,
,,,0.001157000000,   0.40000,
,,,0.001157200000,   0.38000,
,,,0.001157400000,   0.36000,
,,,0.001157600000,   0.38000,
,,,0.001157800000,   0.36000,
,,,0.001158000000,   0.34000,
,,,0.001158200000,   0.36000,
,,,0.001158400000,   0.36000,
,,,0.001158600000,   0.34000,
,,,0.001158800000,   0.34000,
,,,0.001159000000,   0.32000,
,,,0.001159200000,   0.32000,
,,,0.001159400000,   0.32000,
,,,0.001159600000,   0.30000,
,,,0.001159800000,   0.30000,
,,,0.001160000000,   0.30000,
,,,0.001160200000,   0.26000,
,,,0.001160400000,   0.28000,
,,,0.001160600000,   0.24000,
,,,0.001160800000,   0.26000,
,,,0.001161000000,   0.20000,
,,,0.001161200000,   0.22000,
,,,0.001161400000,   0.22000,
,,,0.001161600000,   0.20000,
,,,0.001161800000,   0.18000,
,,,0.001162000000,   0.20000,
,,,0.001162200000,   0.18000,
,,,0.001162400000,   0.14000,
,,,0.001162600000,   0.18000,
,,,0.001162800000,   0.16000,
,,,0.001163000000,   0.16000,
,,,0.001163200000,   0.14000,
,,,0.001163400000,   0.14000,
,,,0.001163600000,   0.12000,
,,,0.001163800000,   0.10000,
,,,0.001164000000,   0.12000,
,,,0.001164200000,   0.10000,
,,,0.001164400000,   0.08000,
,,,0.001164600000,   0.08000,
,,,0.001164800000,   0.08000,
,,,0.001165000000,   0.06000,
,,,0.001165200000,   0.06000,
,,,0.001165400000,   0.06000,
,,,0.001165600000,   0.06000,
,,,0.001165800000,   0.02000,
,,,0.001166000000,   0.00000,
,,,0.001166200000,   0.02000,
,,,0.001166400000,  -0.02000,
,,,0.001166600000,   0.00000,
,,,0.001166800000,  -0.02000,
,,,0.001167000000,  -0.04000,
,,,0.001167200000,  -0.02000,
,,,0.001167400000,  -0.02000,
,,,0.001167600000,  -0.04000,
,,,0.001167800000,  -0.06000,
,,,0.001168000000,  -0.08000,
,,,0.001168200000,  -0.08000,
,,,0.001168400000,  -0.08000,
,,,0.001168600000,  -0.08000,
,,,0.001168800000,  -0.14000,
,,,0.001169000000,  -0.10000,
,,,0.001169200000,  -0.12000,
,,,0.001169400000,  -0.16000,
,,,0.001169600000,  -0.14000,
,,,0.001169800000,  -0.16000,
,,,0.001170000000,  -0.18000,
,,,0.001170200000,  -0.14000,
,,,0.001170400000,  -0.16000,
,,,0.001170600000,  -0.22000,
,,,0.001170800000,  -0.16000,
,,,0.001171000000,  -0.20000,
,,,0.001171200000,  -0.20000,
,,,0.001171400000,  -0.22000,
,,,0.001171600000,  -0.20000,
,,,0.001171800000,  -0.24000,
,,,0.001172000000,  -0.26000,
,,,0.001172200000,  -0.24000,
,,,0.001172400000,  -0.28000,
,,,0.001172600000,  -0.28000,
,,,0.001172800000,  -0.28000,
,,,0.001173000000,  -0.32000,
,,,0.001173200000,  -0.28000,
,,,0.001173400000,  -0.32000,
,,,0.001173600000,  -0.30000,
,,,0.001173800000,  -0.30000,
,,,0.001174000000,  -0.30000,
,,,0.001174200000,  -0.32000,
,,,0.001174400000,  -0.34000,
,,,0.001174600000,  -0.36000,
,,,0.001174800000,  -0.36000,
,,,0.001175000000,  -0.38000,
,,,0.001175200000,  -0.38000,
,,,0.001175400000,  -0.36000,
,,,0.001175600000,  -0.40000,
,,,0.001175800000,  -0.42000,
,,,0.001176000000,  -0.44000,
,,,0.001176200000,  -0.40000,
,,,0.001176400000,  -0.42000,
,,,0.001176600000,  -0.44000,
,,,0.001176800000,  -0.44000,
,,,0.001177000000,  -0.46000,
,,,0.001177200000,  -0.46000,
,,,0.001177400000,  -0.48000,
,,,0.001177600000,  -0.48000,
,,,0.001177800000,  -0.48000,
,,,0.001178000000,  -0.46000,
,,,0.001178200000,  -0.50000,
,,,0.001178400000,  -0.50000,
,,,0.001178600000,  -0.50000,
,,,0.001178800000,  -0.52000,
,,,0.001179000000,  -0.54000,
,,,0.001179200000,  -0.54000,
,,,0.001179400000,  -0.54000,
,,,0.001179600000,  -0.54000,
,,,0.001179800000,  -0.54000,
,,,0.001180000000,  -0.56000,
,,,0.001180200000,  -0.54000,
,,,0.001180400000,  -0.58000,
,,,0.001180600000,  -0.60000,
,,,0.001180800000,  -0.58000,
,,,0.001181000000,  -0.60000,
,,,0.001181200000,  -0.64000,
,,,0.001181400000,  -0.64000,
,,,0.001181600000,  -0.60000,
,,,0.001181800000,  -0.62000,
,,,0.001182000000,  -0.64000,
,,,0.001182200000,  -0.64000,
,,,0.001182400000,  -0.66000,
,,,0.001182600000,  -0.66000,
,,,0.001182800000,  -0.66000,
,,,0.001183000000,  -0.70000,
,,,0.001183200000,  -0.68000,
,,,0.001183400000,  -0.68000,
,,,0.001183600000,  -0.66000,
,,,0.001183800000,  -0.70000,
,,,0.001184000000,  -0.70000,
,,,0.001184200000,  -0.70000,
,,,0.001184400000,  -0.72000,
,,,0.001184600000,  -0.74000,
,,,0.001184800000,  -0.72000,
,,,0.001185000000,  -0.74000,
,,,0.001185200000,  -0.76000,
,,,0.001185400000,  -0.76000,
,,,0.001185600000,  -0.72000,
,,,0.001185800000,  -0.76000,
,,,0.001186000000,  -0.76000,
,,,0.001186200000,  -0.76000,
,,,0.001186400000,  -0.76000,
,,,0.001186600000,  -0.74000,
,,,0.001186800000,  -0.78000,
,,,0.001187000000,  -0.78000,
,,,0.001187200000,  -0.80000,
,,,0.001187400000,  -0.78000,
,,,0.001187600000,  -0.82000,
,,,0.001187800000,  -0.80000,
,,,0.001188000000,  -0.82000,
,,,0.001188200000,  -0.82000,
,,,0.001188400000,  -0.84000,
,,,0.001188600000,  -0.84000,
,,,0.001188800000,  -0.82000,
,,,0.001189000000,  -0.86000,
,,,0.001189200000,  -0.86000,
,,,0.001189400000,  -0.84000,
,,,0.001189600000,  -0.84000,
,,,0.001189800000,  -0.84000,
,,,0.001190000000,  -0.86000,
,,,0.001190200000,  -0.84000,
,,,0.001190400000,  -0.88000,
,,,0.001190600000,  -0.86000,
,,,0.001190800000,  -0.88000,
,,,0.001191000000,  -0.90000,
,,,0.001191200000,  -0.90000,
,,,0.001191400000,  -0.88000,
,,,0.001191600000,  -0.92000,
,,,0.001191800000,  -0.88000,
,,,0.001192000000,  -0.90000,
,,,0.001192200000,  -0.90000,
,,,0.001192400000,  -0.90000,
,,,0.001192600000,  -0.88000,
,,,0.001192800000,  -0.94000,
,,,0.001193000000,  -0.90000,
,,,0.001193200000,  -0.92000,
,,,0.001193400000,  -0.92000,
,,,0.001193600000,  -0.92000,
,,,0.001193800000,  -0.92000,
,,,0.001194000000,  -0.92000,
,,,0.001194200000,  -0.94000,
,,,0.001194400000,  -0.94000,
,,,0.001194600000,  -0.96000,
,,,0.001194800000,  -0.94000,
,,,0.001195000000,  -0.94000,
,,,0.001195200000,  -0.90000,
,,,0.001195400000,  -0.94000,
,,,0.001195600000,  -0.96000,
,,,0.001195800000,  -0.96000,
,,,0.001196000000,  -0.96000,
,,,0.001196200000,  -0.98000,
,,,0.001196400000,  -0.96000,
,,,0.001196600000,  -0.98000,
,,,0.001196800000,  -0.96000,
,,,0.001197000000,  -0.96000,
,,,0.001197200000,  -0.96000,
,,,0.001197400000,  -0.98000,
,,,0.001197600000,  -1.00000,
,,,0.001197800000,  -1.00000,
,,,0.001198000000,  -0.98000,
,,,0.001198200000,  -0.98000,
,,,0.001198400000,  -1.00000,
,,,0.001198600000,  -1.00000,
,,,0.001198800000,  -1.00000,
,,,0.001199000000,  -1.00000,
,,,0.001199200000,  -1.02000,
,,,0.001199400000,  -1.00000,
,,,0.001199600000,  -0.98000,
,,,0.001199800000,  -1.00000,
,,,0.001200000000,  -0.98000,
,,,0.001200200000,  -1.00000,
,,,0.001200400000,  -1.00000,
,,,0.001200600000,  -0.98000,
,,,0.001200800000,  -1.00000,
,,,0.001201000000,  -1.04000,
,,,0.001201200000,  -1.00000,
,,,0.001201400000,  -1.00000,
,,,0.001201600000,  -1.00000,
,,,0.001201800000,  -1.02000,
,,,0.001202000000,  -0.98000,
,,,0.001202200000,  -0.98000,
,,,0.001202400000,  -0.98000,
,,,0.001202600000,  -0.98000,
,,,0.001202800000,  -1.00000,
,,,0.001203000000,  -0.98000,
,,,0.001203200000,  -0.98000,
,,,0.001203400000,  -1.00000,
,,,0.001203600000,  -0.96000,
,,,0.001203800000,  -0.98000,
,,,0.001204000000,  -0.98000,
,,,0.001204200000,  -1.00000,
,,,0.001204400000,  -0.98000,
,,,0.001204600000,  -0.98000,
,,,0.001204800000,  -0.96000,
,,,0.001205000000,  -0.96000,
,,,0.001205200000,  -0.96000,
,,,0.001205400000,  -0.96000,
,,,0.001205600000,  -0.96000,
,,,0.001205800000,  -0.96000,
,,,0.001206000000,  -0.94000,
,,,0.001206200000,  -0.92000,
,,,0.001206400000,  -0.94000,
,,,0.001206600000,  -0.96000,
,,,0.001206800000,  -0.92000,
,,,0.001207000000,  -0.92000,
,,,0.001207200000,  -0.94000,
,,,0.001207400000,  -0.96000,
,,,0.001207600000,  -0.96000,
,,,0.001207800000,  -0.92000,
,,,0.001208000000,  -0.92000,
,,,0.001208200000,  -0.92000,
,,,0.001208400000,  -0.92000,
,,,0.001208600000,  -0.92000,
,,,0.001208800000,  -0.90000,
,,,0.001209000000,  -0.92000,
,,,0.001209200000,  -0.90000,
,,,0.001209400000,  -0.92000,
,,,0.001209600000,  -0.92000,
,,,0.001209800000,  -0.88000,
,,,0.001210000000,  -0.88000,
,,,0.001210200000,  -0.90000,
,,,0.001210400000,  -0.88000,
,,,0.001210600000,  -0.86000,
,,,0.001210800000,  -0.88000,
,,,0.001211000000,  -0.88000,
,,,0.001211200000,  -0.84000,
,,,0.001211400000,  -0.84000,
,,,0.001211600000,  -0.86000,
,,,0.001211800000,  -0.86000,
,,,0.001212000000,  -0.86000,
,,,0.001212200000,  -0.84000,
,,,0.001212400000,  -0.84000,
,,,0.001212600000,  -0.88000,
,,,0.001212800000,  -0.80000,
,,,0.001213000000,  -0.84000,
,,,0.001213200000,  -0.82000,
,,,0.001213400000,  -0.80000,
,,,0.001213600000,  -0.82000,
,,,0.001213800000,  -0.80000,
,,,0.001214000000,  -0.80000,
,,,0.001214200000,  -0.82000,
,,,0.001214400000,  -0.78000,
,,,0.001214600000,  -0.80000,
,,,0.001214800000,  -0.78000,
,,,0.001215000000,  -0.76000,
,,,0.001215200000,  -0.78000,
,,,0.001215400000,  -0.76000,
,,,0.001215600000,  -0.80000,
,,,0.001215800000,  -0.76000,
,,,0.001216000000,  -0.76000,
,,,0.001216200000,  -0.74000,
,,,0.001216400000,  -0.74000,
,,,0.001216600000,  -0.72000,
,,,0.001216800000,  -0.72000,
,,,0.001217000000,  -0.70000,
,,,0.001217200000,  -0.72000,
,,,0.001217400000,  -0.68000,
,,,0.001217600000,  -0.68000,
,,,0.001217800000,  -0.68000,
,,,0.001218000000,  -0.74000,
,,,0.001218200000,  -0.70000,
,,,0.001218400000,  -0.68000,
,,,0.001218600000,  -0.66000,
,,,0.001218800000,  -0.68000,
,,,0.001219000000,  -0.68000,
,,,0.001219200000,  -0.64000,
,,,0.001219400000,  -0.62000,
,,,0.001219600000,  -0.62000,
,,,0.001219800000,  -0.62000,
,,,0.001220000000,  -0.60000,
,,,0.001220200000,  -0.62000,
,,,0.001220400000,  -0.62000,
,,,0.001220600000,  -0.58000,
,,,0.001220800000,  -0.60000,
,,,0.001221000000,  -0.60000,
,,,0.001221200000,  -0.58000,
,,,0.001221400000,  -0.58000,
,,,0.001221600000,  -0.58000,
,,,0.001221800000,  -0.58000,
,,,0.001222000000,  -0.56000,
,,,0.001222200000,  -0.56000,
,,,0.001222400000,  -0.54000,
,,,0.001222600000,  -0.56000,
,,,0.001222800000,  -0.52000,
,,,0.001223000000,  -0.52000,
,,,0.001223200000,  -0.50000,
,,,0.001223400000,  -0.50000,
,,,0.001223600000,  -0.48000,
,,,0.001223800000,  -0.50000,
,,,0.001224000000,  -0.48000,
,,,0.001224200000,  -0.46000,
,,,0.001224400000,  -0.46000,
,,,0.001224600000,  -0.46000,
,,,0.001224800000,  -0.44000,
,,,0.001225000000,  -0.44000,
,,,0.001225200000,  -0.44000,
,,,0.001225400000,  -0.44000,
,,,0.001225600000,  -0.42000,
,,,0.001225800000,  -0.40000,
,,,0.001226000000,  -0.40000,
,,,0.001226200000,  -0.40000,
,,,0.001226400000,  -0.38000,
,,,0.001226600000,  -0.36000,
,,,0.001226800000,  -0.36000,
,,,0.001227000000,  -0.36000,
,,,0.001227200000,  -0.36000,
,,,0.001227400000,  -0.36000,
,,,0.001227600000,  -0.34000,
,,,0.001227800000,  -0.32000,
,,,0.001228000000,  -0.34000,
,,,0.001228200000,  -0.34000,
,,,0.001228400000,  -0.30000,
,,,0.001228600000,  -0.30000,
,,,0.001228800000,  -0.30000,
,,,0.001229000000,  -0.26000,
,,,0.001229200000,  -0.26000,
,,,0.001229400000,  -0.24000,
,,,0.001229600000,  -0.22000,
,,,0.001229800000,  -0.22000,
,,,0.001230000000,  -0.24000,
,,,0.001230200000,  -0.22000,
,,,0.001230400000,  -0.22000,
,,,0.001230600000,  -0.20000,
,,,0.001230800000,  -0.20000,
,,,0.001231000000,  -0.16000,
,,,0.001231200000,  -0.16000,
,,,0.001231400000,  -0.16000,
,,,0.001231600000,  -0.16000,
,,,0.001231800000,  -0.16000,
,,,0.001232000000,  -0.14000,
,,,0.001232200000,  -0.12000,
,,,0.001232400000,  -0.14000,
,,,0.001232600000,  -0.10000,
,,,0.001232800000,  -0.10000,
,,,0.001233000000,  -0.08000,
,,,0.001233200000,  -0.08000,
,,,0.001233400000,  -0.10000,
,,,0.001233600000,  -0.10000,
,,,0.001233800000,  -0.08000,
,,,0.001234000000,  -0.06000,
,,,0.001234200000,  -0.04000,
,,,0.001234400000,  -0.06000,
,,,0.001234600000,  -0.02000,
,,,0.001234800000,   0.00000,
,,,0.001235000000,   0.00000,
,,,0.001235200000,  -0.02000,
,,,0.001235400000,   0.00000,
,,,0.001235600000,   0.02000,
,,,0.001235800000,   0.02000,
,,,0.001236000000,   0.04000,
,,,0.001236200000,   0.04000,
,,,0.001236400000,   0.04000,
,,,0.001236600000,   0.08000,
,,,0.001236800000,   0.08000,
,,,0.001237000000,   0.10000,
,,,0.001237200000,   0.08000,
,,,0.001237400000,   0.10000,
,,,0.001237600000,   0.10000,
,,,0.001237800000,   0.10000,
,,,0.001238000000,   0.14000,
,,,0.001238200000,   0.12000,
,,,0.001238400000,   0.14000,
,,,0.001238600000,   0.14000,
,,,0.001238800000,   0.14000,
,,,0.001239000000,   0.16000,
,,,0.001239200000,   0.18000,
,,,0.001239400000,   0.18000,
,,,0.001239600000,   0.22000,
,,,0.001239800000,   0.20000,
,,,0.001240000000,   0.18000,
,,,0.001240200000,   0.20000,
,,,0.001240400000,   0.22000,
,,,0.001240600000,   0.24000,
,,,0.001240800000,   0.26000,
,,,0.001241000000,   0.24000,
,,,0.001241200000,   0.26000,
,,,0.001241400000,   0.26000,
,,,0.001241600000,   0.28000,
,,,0.001241800000,   0.26000,
,,,0.001242000000,   0.30000,
,,,0.001242200000,   0.32000,
,,,0.001242400000,   0.28000,
,,,0.001242600000,   0.32000,
,,,0.001242800000,   0.34000,
,,,0.001243000000,   0.36000,
,,,0.001243200000,   0.34000,
,,,0.001243400000,   0.36000,
,,,0.001243600000,   0.34000,
,,,0.001243800000,   0.36000,
,,,0.001244000000,   0.42000,
,,,0.001244200000,   0.38000,
,,,0.001244400000,   0.38000,
,,,0.001244600000,   0.38000,
,,,0.001244800000,   0.40000,
,,,0.001245000000,   0.42000,
,,,0.001245200000,   0.44000,
,,,0.001245400000,   0.44000,
,,,0.001245600000,   0.42000,
,,,0.001245800000,   0.48000,
,,,0.001246000000,   0.44000,
,,,0.001246200000,   0.46000,
,,,0.001246400000,   0.48000,
,,,0.001246600000,   0.48000,
,,,0.001246800000,   0.50000,
,,,0.001247000000,   0.48000,
,,,0.001247200000,   0.50000,
,,,0.001247400000,   0.52000,
,,,0.001247600000,   0.52000,
,,,0.001247800000,   0.50000,
,,,0.001248000000,   0.52000,
,,,0.001248200000,   0.56000,
,,,0.001248400000,   0.56000,
,,,0.001248600000,   0.56000,
,,,0.001248800000,   0.58000,
,,,0.001249000000,   0.56000,
