circuiti_3/data/RL/40830/F0000CH1.CSV

Record Length,2.500000e+03,,   0.001336600000,  -0.60000,
Sample Interval,4.000000e-08,,   0.001336640000,  -0.60000,
Trigger Point,-3.341500000000e+04,,   0.001336680000,  -0.58000,
,,,   0.001336720000,  -0.60000,
,,,   0.001336760000,  -0.62000,
,,,   0.001336800000,  -0.60000,
Source,CH1,,   0.001336840000,  -0.64000,
Vertical Units,V,,   0.001336880000,  -0.64000,
Vertical Scale,5.000000e-01,,   0.001336920000,  -0.64000,
Vertical Offset,2.000000e-02,,   0.001336960000,  -0.68000,
Horizontal Units,s,,   0.001337000000,  -0.68000,
Horizontal Scale,1.000000e-05,,   0.001337040000,  -0.68000,
Pt Fmt,Y,,   0.001337080000,  -0.68000,
Yzero,0.000000e+00,,   0.001337120000,  -0.68000,
Probe Atten,1.000000e+01,,   0.001337160000,  -0.70000,
Model Number,TDS1002B,,   0.001337200000,  -0.70000,
Serial Number,C010776,,   0.001337240000,  -0.72000,
Firmware Version,FV:v21.20,,   0.001337280000,  -0.70000,
,,,0.001337320000,  -0.76000,
,,,0.001337360000,  -0.74000,
,,,0.001337400000,  -0.74000,
,,,0.001337440000,  -0.74000,
,,,0.001337480000,  -0.74000,
,,,0.001337520000,  -0.76000,
,,,0.001337560000,  -0.78000,
,,,0.001337600000,  -0.80000,
,,,0.001337640000,  -0.80000,
,,,0.001337680000,  -0.80000,
,,,0.001337720000,  -0.82000,
,,,0.001337760000,  -0.80000,
,,,0.001337800000,  -0.82000,
,,,0.001337840000,  -0.82000,
,,,0.001337880000,  -0.82000,
,,,0.001337920000,  -0.84000,
,,,0.001337960000,  -0.84000,
,,,0.001338000000,  -0.86000,
,,,0.001338040000,  -0.88000,
,,,0.001338080000,  -0.86000,
,,,0.001338120000,  -0.86000,
,,,0.001338160000,  -0.90000,
,,,0.001338200000,  -0.90000,
,,,0.001338240000,  -0.88000,
,,,0.001338280000,  -0.90000,
,,,0.001338320000,  -0.88000,
,,,0.001338360000,  -0.90000,
,,,0.001338400000,  -0.90000,
,,,0.001338440000,  -0.90000,
,,,0.001338480000,  -0.94000,
,,,0.001338520000,  -0.92000,
,,,0.001338560000,  -0.94000,
,,,0.001338600000,  -0.94000,
,,,0.001338640000,  -0.96000,
,,,0.001338680000,  -0.94000,
,,,0.001338720000,  -0.94000,
,,,0.001338760000,  -0.98000,
,,,0.001338800000,  -0.98000,
,,,0.001338840000,  -0.98000,
,,,0.001338880000,  -0.98000,
,,,0.001338920000,  -1.00000,
,,,0.001338960000,  -1.00000,
,,,0.001339000000,  -0.98000,
,,,0.001339040000,  -0.98000,
,,,0.001339080000,  -0.98000,
,,,0.001339120000,  -1.00000,
,,,0.001339160000,  -0.98000,
,,,0.001339200000,  -0.98000,
,,,0.001339240000,  -1.00000,
,,,0.001339280000,  -1.00000,
,,,0.001339320000,  -1.02000,
,,,0.001339360000,  -1.00000,
,,,0.001339400000,  -1.02000,
,,,0.001339440000,  -1.00000,
,,,0.001339480000,  -1.02000,
,,,0.001339520000,  -1.06000,
,,,0.001339560000,  -1.04000,
,,,0.001339600000,  -1.06000,
,,,0.001339640000,  -1.04000,
,,,0.001339680000,  -1.06000,
,,,0.001339720000,  -1.06000,
,,,0.001339760000,  -1.06000,
,,,0.001339800000,  -1.06000,
,,,0.001339840000,  -1.04000,
,,,0.001339880000,  -1.08000,
,,,0.001339920000,  -1.06000,
,,,0.001339960000,  -1.06000,
,,,0.001340000000,  -1.08000,
,,,0.001340040000,  -1.06000,
,,,0.001340080000,  -1.06000,
,,,0.001340120000,  -1.08000,
,,,0.001340160000,  -1.08000,
,,,0.001340200000,  -1.08000,
,,,0.001340240000,  -1.08000,
,,,0.001340280000,  -1.08000,
,,,0.001340320000,  -1.10000,
,,,0.001340360000,  -1.08000,
,,,0.001340400000,  -1.08000,
,,,0.001340440000,  -1.06000,
,,,0.001340480000,  -1.10000,
,,,0.001340520000,  -1.08000,
,,,0.001340560000,  -1.12000,
,,,0.001340600000,  -1.08000,
,,,0.001340640000,  -1.08000,
,,,0.001340680000,  -1.10000,
,,,0.001340720000,  -1.10000,
,,,0.001340760000,  -1.10000,
,,,0.001340800000,  -1.10000,
,,,0.001340840000,  -1.08000,
,,,0.001340880000,  -1.10000,
,,,0.001340920000,  -1.08000,
,,,0.001340960000,  -1.10000,
,,,0.001341000000,  -1.10000,
,,,0.001341040000,  -1.06000,
,,,0.001341080000,  -1.08000,
,,,0.001341120000,  -1.08000,
,,,0.001341160000,  -1.08000,
,,,0.001341200000,  -1.08000,
,,,0.001341240000,  -1.08000,
,,,0.001341280000,  -1.06000,
,,,0.001341320000,  -1.08000,
,,,0.001341360000,  -1.06000,
,,,0.001341400000,  -1.06000,
,,,0.001341440000,  -1.06000,
,,,0.001341480000,  -1.04000,
,,,0.001341520000,  -1.08000,
,,,0.001341560000,  -1.06000,
,,,0.001341600000,  -1.04000,
,,,0.001341640000,  -1.04000,
,,,0.001341680000,  -1.04000,
,,,0.001341720000,  -1.02000,
,,,0.001341760000,  -1.04000,
,,,0.001341800000,  -1.02000,
,,,0.001341840000,  -1.02000,
,,,0.001341880000,  -1.02000,
,,,0.001341920000,  -1.02000,
,,,0.001341960000,  -1.00000,
,,,0.001342000000,  -1.02000,
,,,0.001342040000,  -1.00000,
,,,0.001342080000,  -0.98000,
,,,0.001342120000,  -1.02000,
,,,0.001342160000,  -1.00000,
,,,0.001342200000,  -1.00000,
,,,0.001342240000,  -0.98000,
,,,0.001342280000,  -0.98000,
,,,0.001342320000,  -0.98000,
,,,0.001342360000,  -0.98000,
,,,0.001342400000,  -0.96000,
,,,0.001342440000,  -0.96000,
,,,0.001342480000,  -0.96000,
,,,0.001342520000,  -0.94000,
,,,0.001342560000,  -0.92000,
,,,0.001342600000,  -0.92000,
,,,0.001342640000,  -0.96000,
,,,0.001342680000,  -0.90000,
,,,0.001342720000,  -0.94000,
,,,0.001342760000,  -0.92000,
,,,0.001342800000,  -0.92000,
,,,0.001342840000,  -0.92000,
,,,0.001342880000,  -0.90000,
,,,0.001342920000,  -0.92000,
,,,0.001342960000,  -0.90000,
,,,0.001343000000,  -0.88000,
,,,0.001343040000,  -0.86000,
,,,0.001343080000,  -0.88000,
,,,0.001343120000,  -0.86000,
,,,0.001343160000,  -0.86000,
,,,0.001343200000,  -0.84000,
,,,0.001343240000,  -0.84000,
,,,0.001343280000,  -0.84000,
,,,0.001343320000,  -0.82000,
,,,0.001343360000,  -0.86000,
,,,0.001343400000,  -0.82000,
,,,0.001343440000,  -0.80000,
,,,0.001343480000,  -0.82000,
,,,0.001343520000,  -0.78000,
,,,0.001343560000,  -0.80000,
,,,0.001343600000,  -0.78000,
,,,0.001343640000,  -0.76000,
,,,0.001343680000,  -0.78000,
,,,0.001343720000,  -0.76000,
,,,0.001343760000,  -0.74000,
,,,0.001343800000,  -0.76000,
,,,0.001343840000,  -0.76000,
,,,0.001343880000,  -0.72000,
,,,0.001343920000,  -0.72000,
,,,0.001343960000,  -0.72000,
,,,0.001344000000,  -0.70000,
,,,0.001344040000,  -0.72000,
,,,0.001344080000,  -0.70000,
,,,0.001344120000,  -0.66000,
,,,0.001344160000,  -0.68000,
,,,0.001344200000,  -0.64000,
,,,0.001344240000,  -0.64000,
,,,0.001344280000,  -0.66000,
,,,0.001344320000,  -0.64000,
,,,0.001344360000,  -0.62000,
,,,0.001344400000,  -0.60000,
,,,0.001344440000,  -0.62000,
,,,0.001344480000,  -0.60000,
,,,0.001344520000,  -0.64000,
,,,0.001344560000,  -0.56000,
,,,0.001344600000,  -0.56000,
,,,0.001344640000,  -0.56000,
,,,0.001344680000,  -0.54000,
,,,0.001344720000,  -0.52000,
,,,0.001344760000,  -0.52000,
,,,0.001344800000,  -0.52000,
,,,0.001344840000,  -0.52000,
,,,0.001344880000,  -0.52000,
,,,0.001344920000,  -0.50000,
,,,0.001344960000,  -0.46000,
,,,0.001345000000,  -0.48000,
,,,0.001345040000,  -0.48000,
,,,0.001345080000,  -0.46000,
,,,0.001345120000,  -0.46000,
,,,0.001345160000,  -0.42000,
,,,0.001345200000,  -0.42000,
,,,0.001345240000,  -0.42000,
,,,0.001345280000,  -0.42000,
,,,0.001345320000,  -0.38000,
,,,0.001345360000,  -0.38000,
,,,0.001345400000,  -0.38000,
,,,0.001345440000,  -0.40000,
,,,0.001345480000,  -0.36000,
,,,0.001345520000,  -0.34000,
,,,0.001345560000,  -0.34000,
,,,0.001345600000,  -0.34000,
,,,0.001345640000,  -0.32000,
,,,0.001345680000,  -0.32000,
,,,0.001345720000,  -0.32000,
,,,0.001345760000,  -0.28000,
,,,0.001345800000,  -0.28000,
,,,0.001345840000,  -0.28000,
,,,0.001345880000,  -0.24000,
,,,0.001345920000,  -0.24000,
,,,0.001345960000,  -0.26000,
,,,0.001346000000,  -0.24000,
,,,0.001346040000,  -0.22000,
,,,0.001346080000,  -0.22000,
,,,0.001346120000,  -0.18000,
,,,0.001346160000,  -0.18000,
,,,0.001346200000,  -0.16000,
,,,0.001346240000,  -0.16000,
,,,0.001346280000,  -0.18000,
,,,0.001346320000,  -0.16000,
,,,0.001346360000,  -0.12000,
,,,0.001346400000,  -0.12000,
,,,0.001346440000,  -0.12000,
,,,0.001346480000,  -0.10000,
,,,0.001346520000,  -0.10000,
,,,0.001346560000,  -0.10000,
,,,0.001346600000,  -0.06000,
,,,0.001346640000,  -0.02000,
,,,0.001346680000,  -0.06000,
,,,0.001346720000,  -0.06000,
,,,0.001346760000,  -0.06000,
,,,0.001346800000,  -0.02000,
,,,0.001346840000,  -0.02000,
,,,0.001346880000,   0.00000,
,,,0.001346920000,   0.04000,
,,,0.001346960000,   0.02000,
,,,0.001347000000,   0.06000,
,,,0.001347040000,   0.02000,
,,,0.001347080000,   0.06000,
,,,0.001347120000,   0.08000,
,,,0.001347160000,   0.08000,
,,,0.001347200000,   0.06000,
,,,0.001347240000,   0.08000,
,,,0.001347280000,   0.10000,
,,,0.001347320000,   0.12000,
,,,0.001347360000,   0.14000,
,,,0.001347400000,   0.10000,
,,,0.001347440000,   0.14000,
,,,0.001347480000,   0.16000,
,,,0.001347520000,   0.16000,
,,,0.001347560000,   0.18000,
,,,0.001347600000,   0.18000,
,,,0.001347640000,   0.18000,
,,,0.001347680000,   0.20000,
,,,0.001347720000,   0.20000,
,,,0.001347760000,   0.24000,
,,,0.001347800000,   0.22000,
,,,0.001347840000,   0.24000,
,,,0.001347880000,   0.24000,
,,,0.001347920000,   0.26000,
,,,0.001347960000,   0.26000,
,,,0.001348000000,   0.28000,
,,,0.001348040000,   0.26000,
,,,0.001348080000,   0.32000,
,,,0.001348120000,   0.32000,
,,,0.001348160000,   0.32000,
,,,0.001348200000,   0.34000,
,,,0.001348240000,   0.32000,
,,,0.001348280000,   0.34000,
,,,0.001348320000,   0.36000,
,,,0.001348360000,   0.36000,
,,,0.001348400000,   0.36000,
,,,0.001348440000,   0.40000,
,,,0.001348480000,   0.40000,
,,,0.001348520000,   0.42000,
,,,0.001348560000,   0.40000,
,,,0.001348600000,   0.42000,
,,,0.001348640000,   0.42000,
,,,0.001348680000,   0.44000,
,,,0.001348720000,   0.44000,
,,,0.001348760000,   0.46000,
,,,0.001348800000,   0.48000,
,,,0.001348840000,   0.48000,
,,,0.001348880000,   0.48000,
,,,0.001348920000,   0.48000,
,,,0.001348960000,   0.50000,
,,,0.001349000000,   0.52000,
,,,0.001349040000,   0.50000,
,,,0.001349080000,   0.52000,
,,,0.001349120000,   0.52000,
,,,0.001349160000,   0.54000,
,,,0.001349200000,   0.54000,
,,,0.001349240000,   0.56000,
,,,0.001349280000,   0.58000,
,,,0.001349320000,   0.56000,
,,,0.001349360000,   0.60000,
,,,0.001349400000,   0.60000,
,,,0.001349440000,   0.58000,
,,,0.001349480000,   0.62000,
,,,0.001349520000,   0.66000,
,,,0.001349560000,   0.64000,
,,,0.001349600000,   0.64000,
,,,0.001349640000,   0.64000,
,,,0.001349680000,   0.66000,
,,,0.001349720000,   0.68000,
,,,0.001349760000,   0.64000,
,,,0.001349800000,   0.68000,
,,,0.001349840000,   0.68000,
,,,0.001349880000,   0.70000,
,,,0.001349920000,   0.68000,
,,,0.001349960000,   0.70000,
,,,0.001350000000,   0.72000,
,,,0.001350040000,   0.72000,
,,,0.001350080000,   0.72000,
,,,0.001350120000,   0.72000,
,,,0.001350160000,   0.76000,
,,,0.001350200000,   0.72000,
,,,0.001350240000,   0.74000,
,,,0.001350280000,   0.74000,
,,,0.001350320000,   0.76000,
,,,0.001350360000,   0.76000,
,,,0.001350400000,   0.76000,
,,,0.001350440000,   0.76000,
,,,0.001350480000,   0.76000,
,,,0.001350520000,   0.78000,
,,,0.001350560000,   0.82000,
,,,0.001350600000,   0.82000,
,,,0.001350640000,   0.80000,
,,,0.001350680000,   0.80000,
,,,0.001350720000,   0.84000,
,,,0.001350760000,   0.80000,
,,,0.001350800000,   0.84000,
,,,0.001350840000,   0.82000,
,,,0.001350880000,   0.84000,
,,,0.001350920000,   0.86000,
,,,0.001350960000,   0.84000,
,,,0.001351000000,   0.86000,
,,,0.001351040000,   0.90000,
,,,0.001351080000,   0.86000,
,,,0.001351120000,   0.88000,
,,,0.001351160000,   0.86000,
,,,0.001351200000,   0.88000,
,,,0.001351240000,   0.88000,
,,,0.001351280000,   0.86000,
,,,0.001351320000,   0.90000,
,,,0.001351360000,   0.88000,
,,,0.001351400000,   0.88000,
,,,0.001351440000,   0.88000,
,,,0.001351480000,   0.90000,
,,,0.001351520000,   0.92000,
,,,0.001351560000,   0.90000,
,,,0.001351600000,   0.94000,
,,,0.001351640000,   0.94000,
,,,0.001351680000,   0.94000,
,,,0.001351720000,   0.94000,
,,,0.001351760000,   0.92000,
,,,0.001351800000,   0.92000,
,,,0.001351840000,   0.92000,
,,,0.001351880000,   0.94000,
,,,0.001351920000,   0.94000,
,,,0.001351960000,   0.94000,
,,,0.001352000000,   0.94000,
,,,0.001352040000,   0.96000,
,,,0.001352080000,   0.94000,
,,,0.001352120000,   0.96000,
,,,0.001352160000,   0.96000,
,,,0.001352200000,   0.96000,
,,,0.001352240000,   0.96000,
,,,0.001352280000,   0.96000,
,,,0.001352320000,   0.94000,
,,,0.001352360000,   0.98000,
,,,0.001352400000,   0.98000,
,,,0.001352440000,   0.98000,
,,,0.001352480000,   0.98000,
,,,0.001352520000,   0.94000,
,,,0.001352560000,   0.94000,
,,,0.001352600000,   0.98000,
,,,0.001352640000,   1.00000,
,,,0.001352680000,   0.96000,
,,,0.001352720000,   0.96000,
,,,0.001352760000,   0.96000,
,,,0.001352800000,   0.96000,
,,,0.001352840000,   0.98000,
,,,0.001352880000,   0.98000,
,,,0.001352920000,   0.98000,
,,,0.001352960000,   0.98000,
,,,0.001353000000,   1.00000,
,,,0.001353040000,   0.98000,
,,,0.001353080000,   0.98000,
,,,0.001353120000,   0.98000,
,,,0.001353160000,   0.98000,
,,,0.001353200000,   0.98000,
,,,0.001353240000,   0.98000,
,,,0.001353280000,   1.00000,
,,,0.001353320000,   0.98000,
,,,0.001353360000,   0.96000,
,,,0.001353400000,   0.96000,
,,,0.001353440000,   0.94000,
,,,0.001353480000,   1.00000,
,,,0.001353520000,   0.94000,
,,,0.001353560000,   0.94000,
,,,0.001353600000,   0.94000,
,,,0.001353640000,   0.94000,
,,,0.001353680000,   0.96000,
,,,0.001353720000,   0.94000,
,,,0.001353760000,   0.96000,
,,,0.001353800000,   0.96000,
,,,0.001353840000,   0.94000,
,,,0.001353880000,   0.94000,
,,,0.001353920000,   0.94000,
,,,0.001353960000,   0.94000,
,,,0.001354000000,   0.94000,
,,,0.001354040000,   0.92000,
,,,0.001354080000,   0.92000,
,,,0.001354120000,   0.90000,
,,,0.001354160000,   0.90000,
,,,0.001354200000,   0.92000,
,,,0.001354240000,   0.92000,
,,,0.001354280000,   0.90000,
,,,0.001354320000,   0.88000,
,,,0.001354360000,   0.88000,
,,,0.001354400000,   0.90000,
,,,0.001354440000,   0.88000,
,,,0.001354480000,   0.90000,
,,,0.001354520000,   0.86000,
,,,0.001354560000,   0.90000,
,,,0.001354600000,   0.86000,
,,,0.001354640000,   0.86000,
,,,0.001354680000,   0.86000,
,,,0.001354720000,   0.82000,
,,,0.001354760000,   0.84000,
,,,0.001354800000,   0.82000,
,,,0.001354840000,   0.86000,
,,,0.001354880000,   0.84000,
,,,0.001354920000,   0.82000,
,,,0.001354960000,   0.82000,
,,,0.001355000000,   0.82000,
,,,0.001355040000,   0.80000,
,,,0.001355080000,   0.82000,
,,,0.001355120000,   0.80000,
,,,0.001355160000,   0.80000,
,,,0.001355200000,   0.78000,
,,,0.001355240000,   0.78000,
,,,0.001355280000,   0.76000,
,,,0.001355320000,   0.76000,
,,,0.001355360000,   0.74000,
,,,0.001355400000,   0.76000,
,,,0.001355440000,   0.74000,
,,,0.001355480000,   0.74000,
,,,0.001355520000,   0.72000,
,,,0.001355560000,   0.74000,
,,,0.001355600000,   0.74000,
,,,0.001355640000,   0.72000,
,,,0.001355680000,   0.72000,
,,,0.001355720000,   0.70000,
,,,0.001355760000,   0.70000,
,,,0.001355800000,   0.70000,
,,,0.001355840000,   0.70000,
,,,0.001355880000,   0.68000,
,,,0.001355920000,   0.66000,
,,,0.001355960000,   0.66000,
,,,0.001356000000,   0.66000,
,,,0.001356040000,   0.62000,
,,,0.001356080000,   0.62000,
,,,0.001356120000,   0.64000,
,,,0.001356160000,   0.62000,
,,,0.001356200000,   0.62000,
,,,0.001356240000,   0.60000,
,,,0.001356280000,   0.60000,
,,,0.001356320000,   0.60000,
,,,0.001356360000,   0.58000,
,,,0.001356400000,   0.56000,
,,,0.001356440000,   0.58000,
,,,0.001356480000,   0.54000,
,,,0.001356520000,   0.54000,
,,,0.001356560000,   0.52000,
,,,0.001356600000,   0.56000,
,,,0.001356640000,   0.54000,
,,,0.001356680000,   0.50000,
,,,0.001356720000,   0.52000,
,,,0.001356760000,   0.50000,
,,,0.001356800000,   0.48000,
,,,0.001356840000,   0.48000,
,,,0.001356880000,   0.48000,
,,,0.001356920000,   0.46000,
,,,0.001356960000,   0.44000,
,,,0.001357000000,   0.46000,
,,,0.001357040000,   0.44000,
,,,0.001357080000,   0.42000,
,,,0.001357120000,   0.42000,
,,,0.001357160000,   0.38000,
,,,0.001357200000,   0.42000,
,,,0.001357240000,   0.36000,
,,,0.001357280000,   0.38000,
,,,0.001357320000,   0.38000,
,,,0.001357360000,   0.36000,
,,,0.001357400000,   0.36000,
,,,0.001357440000,   0.34000,
,,,0.001357480000,   0.32000,
,,,0.001357520000,   0.32000,
,,,0.001357560000,   0.30000,
,,,0.001357600000,   0.32000,
,,,0.001357640000,   0.28000,
,,,0.001357680000,   0.28000,
,,,0.001357720000,   0.28000,
,,,0.001357760000,   0.26000,
,,,0.001357800000,   0.24000,
,,,0.001357840000,   0.24000,
,,,0.001357880000,   0.26000,
,,,0.001357920000,   0.26000,
,,,0.001357960000,   0.20000,
,,,0.001358000000,   0.20000,
,,,0.001358040000,   0.18000,
,,,0.001358080000,   0.18000,
,,,0.001358120000,   0.18000,
,,,0.001358160000,   0.14000,
,,,0.001358200000,   0.16000,
,,,0.001358240000,   0.14000,
,,,0.001358280000,   0.12000,
,,,0.001358320000,   0.12000,
,,,0.001358360000,   0.10000,
,,,0.001358400000,   0.08000,
,,,0.001358440000,   0.08000,
,,,0.001358480000,   0.08000,
,,,0.001358520000,   0.08000,
,,,0.001358560000,   0.06000,
,,,0.001358600000,   0.04000,
,,,0.001358640000,   0.04000,
,,,0.001358680000,   0.02000,
,,,0.001358720000,   0.02000,
,,,0.001358760000,   0.00000,
,,,0.001358800000,   0.02000,
,,,0.001358840000,   0.00000,
,,,0.001358880000,  -0.04000,
,,,0.001358920000,  -0.04000,
,,,0.001358960000,   0.00000,
,,,0.001359000000,  -0.04000,
,,,0.001359040000,  -0.06000,
,,,0.001359080000,  -0.08000,
,,,0.001359120000,  -0.08000,
,,,0.001359160000,  -0.10000,
,,,0.001359200000,  -0.12000,
,,,0.001359240000,  -0.10000,
,,,0.001359280000,  -0.10000,
,,,0.001359320000,  -0.12000,
,,,0.001359360000,  -0.16000,
,,,0.001359400000,  -0.16000,
,,,0.001359440000,  -0.16000,
,,,0.001359480000,  -0.16000,
,,,0.001359520000,  -0.20000,
,,,0.001359560000,  -0.18000,
,,,0.001359600000,  -0.20000,
,,,0.001359640000,  -0.22000,
,,,0.001359680000,  -0.22000,
,,,0.001359720000,  -0.24000,
,,,0.001359760000,  -0.26000,
,,,0.001359800000,  -0.26000,
,,,0.001359840000,  -0.28000,
,,,0.001359880000,  -0.28000,
,,,0.001359920000,  -0.32000,
,,,0.001359960000,  -0.28000,
,,,0.001360000000,  -0.32000,
,,,0.001360040000,  -0.34000,
,,,0.001360080000,  -0.34000,
,,,0.001360120000,  -0.36000,
,,,0.001360160000,  -0.34000,
,,,0.001360200000,  -0.36000,
,,,0.001360240000,  -0.36000,
,,,0.001360280000,  -0.38000,
,,,0.001360320000,  -0.38000,
,,,0.001360360000,  -0.42000,
,,,0.001360400000,  -0.40000,
,,,0.001360440000,  -0.40000,
,,,0.001360480000,  -0.44000,
,,,0.001360520000,  -0.44000,
,,,0.001360560000,  -0.44000,
,,,0.001360600000,  -0.46000,
,,,0.001360640000,  -0.48000,
,,,0.001360680000,  -0.50000,
,,,0.001360720000,  -0.50000,
,,,0.001360760000,  -0.52000,
,,,0.001360800000,  -0.48000,
,,,0.001360840000,  -0.54000,
,,,0.001360880000,  -0.54000,
,,,0.001360920000,  -0.56000,
,,,0.001360960000,  -0.52000,
,,,0.001361000000,  -0.58000,
,,,0.001361040000,  -0.56000,
,,,0.001361080000,  -0.58000,
,,,0.001361120000,  -0.58000,
,,,0.001361160000,  -0.58000,
,,,0.001361200000,  -0.58000,
,,,0.001361240000,  -0.62000,
,,,0.001361280000,  -0.62000,
,,,0.001361320000,  -0.60000,
,,,0.001361360000,  -0.66000,
,,,0.001361400000,  -0.62000,
,,,0.001361440000,  -0.66000,
,,,0.001361480000,  -0.68000,
,,,0.001361520000,  -0.64000,
,,,0.001361560000,  -0.68000,
,,,0.001361600000,  -0.68000,
,,,0.001361640000,  -0.70000,
,,,0.001361680000,  -0.70000,
,,,0.001361720000,  -0.72000,
,,,0.001361760000,  -0.72000,
,,,0.001361800000,  -0.76000,
,,,0.001361840000,  -0.74000,
,,,0.001361880000,  -0.70000,
,,,0.001361920000,  -0.74000,
,,,0.001361960000,  -0.74000,
,,,0.001362000000,  -0.78000,
,,,0.001362040000,  -0.76000,
,,,0.001362080000,  -0.78000,
,,,0.001362120000,  -0.80000,
,,,0.001362160000,  -0.78000,
,,,0.001362200000,  -0.80000,
,,,0.001362240000,  -0.82000,
,,,0.001362280000,  -0.84000,
,,,0.001362320000,  -0.82000,
,,,0.001362360000,  -0.86000,
,,,0.001362400000,  -0.84000,
,,,0.001362440000,  -0.82000,
,,,0.001362480000,  -0.86000,
,,,0.001362520000,  -0.84000,
,,,0.001362560000,  -0.84000,
,,,0.001362600000,  -0.88000,
,,,0.001362640000,  -0.86000,
,,,0.001362680000,  -0.86000,
,,,0.001362720000,  -0.88000,
