circuiti_3/data/RLC/L/46100/F0000CH2.CSV

Record Length,2.500000e+03,,   0.001312000000,  -0.46000,
Sample Interval,4.000000e-08,,   0.001312040000,  -0.48000,
Trigger Point,-3.280000000000e+04,,   0.001312080000,  -0.46000,
,,,   0.001312120000,  -0.50000,
,,,   0.001312160000,  -0.50000,
,,,   0.001312200000,  -0.50000,
Source,CH2,,   0.001312240000,  -0.52000,
Vertical Units,V,,   0.001312280000,  -0.54000,
Vertical Scale,5.000000e-01,,   0.001312320000,  -0.54000,
Vertical Offset,8.000000e-02,,   0.001312360000,  -0.56000,
Horizontal Units,s,,   0.001312400000,  -0.58000,
Horizontal Scale,1.000000e-05,,   0.001312440000,  -0.60000,
Pt Fmt,Y,,   0.001312480000,  -0.60000,
Yzero,0.000000e+00,,   0.001312520000,  -0.64000,
Probe Atten,1.000000e+01,,   0.001312560000,  -0.64000,
Model Number,TDS1002B,,   0.001312600000,  -0.62000,
Serial Number,C010776,,   0.001312640000,  -0.64000,
Firmware Version,FV:v21.20,,   0.001312680000,  -0.66000,
,,,0.001312720000,  -0.66000,
,,,0.001312760000,  -0.68000,
,,,0.001312800000,  -0.70000,
,,,0.001312840000,  -0.72000,
,,,0.001312880000,  -0.72000,
,,,0.001312920000,  -0.72000,
,,,0.001312960000,  -0.74000,
,,,0.001313000000,  -0.78000,
,,,0.001313040000,  -0.76000,
,,,0.001313080000,  -0.76000,
,,,0.001313120000,  -0.80000,
,,,0.001313160000,  -0.78000,
,,,0.001313200000,  -0.80000,
,,,0.001313240000,  -0.78000,
,,,0.001313280000,  -0.80000,
,,,0.001313320000,  -0.84000,
,,,0.001313360000,  -0.84000,
,,,0.001313400000,  -0.84000,
,,,0.001313440000,  -0.82000,
,,,0.001313480000,  -0.88000,
,,,0.001313520000,  -0.88000,
,,,0.001313560000,  -0.86000,
,,,0.001313600000,  -0.88000,
,,,0.001313640000,  -0.90000,
,,,0.001313680000,  -0.90000,
,,,0.001313720000,  -0.90000,
,,,0.001313760000,  -0.94000,
,,,0.001313800000,  -0.94000,
,,,0.001313840000,  -0.94000,
,,,0.001313880000,  -0.96000,
,,,0.001313920000,  -0.96000,
,,,0.001313960000,  -0.96000,
,,,0.001314000000,  -0.96000,
,,,0.001314040000,  -0.98000,
,,,0.001314080000,  -0.98000,
,,,0.001314120000,  -1.00000,
,,,0.001314160000,  -1.00000,
,,,0.001314200000,  -1.00000,
,,,0.001314240000,  -1.02000,
,,,0.001314280000,  -1.02000,
,,,0.001314320000,  -1.02000,
,,,0.001314360000,  -1.04000,
,,,0.001314400000,  -1.02000,
,,,0.001314440000,  -1.06000,
,,,0.001314480000,  -1.04000,
,,,0.001314520000,  -1.06000,
,,,0.001314560000,  -1.06000,
,,,0.001314600000,  -1.06000,
,,,0.001314640000,  -1.06000,
,,,0.001314680000,  -1.08000,
,,,0.001314720000,  -1.08000,
,,,0.001314760000,  -1.08000,
,,,0.001314800000,  -1.10000,
,,,0.001314840000,  -1.10000,
,,,0.001314880000,  -1.10000,
,,,0.001314920000,  -1.10000,
,,,0.001314960000,  -1.10000,
,,,0.001315000000,  -1.14000,
,,,0.001315040000,  -1.10000,
,,,0.001315080000,  -1.12000,
,,,0.001315120000,  -1.14000,
,,,0.001315160000,  -1.12000,
,,,0.001315200000,  -1.14000,
,,,0.001315240000,  -1.14000,
,,,0.001315280000,  -1.14000,
,,,0.001315320000,  -1.12000,
,,,0.001315360000,  -1.14000,
,,,0.001315400000,  -1.14000,
,,,0.001315440000,  -1.16000,
,,,0.001315480000,  -1.16000,
,,,0.001315520000,  -1.16000,
,,,0.001315560000,  -1.16000,
,,,0.001315600000,  -1.16000,
,,,0.001315640000,  -1.14000,
,,,0.001315680000,  -1.16000,
,,,0.001315720000,  -1.16000,
,,,0.001315760000,  -1.18000,
,,,0.001315800000,  -1.16000,
,,,0.001315840000,  -1.18000,
,,,0.001315880000,  -1.18000,
,,,0.001315920000,  -1.18000,
,,,0.001315960000,  -1.18000,
,,,0.001316000000,  -1.18000,
,,,0.001316040000,  -1.18000,
,,,0.001316080000,  -1.18000,
,,,0.001316120000,  -1.16000,
,,,0.001316160000,  -1.16000,
,,,0.001316200000,  -1.18000,
,,,0.001316240000,  -1.20000,
,,,0.001316280000,  -1.18000,
,,,0.001316320000,  -1.18000,
,,,0.001316360000,  -1.16000,
,,,0.001316400000,  -1.18000,
,,,0.001316440000,  -1.14000,
,,,0.001316480000,  -1.18000,
,,,0.001316520000,  -1.18000,
,,,0.001316560000,  -1.16000,
,,,0.001316600000,  -1.16000,
,,,0.001316640000,  -1.16000,
,,,0.001316680000,  -1.16000,
,,,0.001316720000,  -1.16000,
,,,0.001316760000,  -1.16000,
,,,0.001316800000,  -1.16000,
,,,0.001316840000,  -1.14000,
,,,0.001316880000,  -1.16000,
,,,0.001316920000,  -1.14000,
,,,0.001316960000,  -1.16000,
,,,0.001317000000,  -1.12000,
,,,0.001317040000,  -1.12000,
,,,0.001317080000,  -1.12000,
,,,0.001317120000,  -1.14000,
,,,0.001317160000,  -1.14000,
,,,0.001317200000,  -1.10000,
,,,0.001317240000,  -1.12000,
,,,0.001317280000,  -1.12000,
,,,0.001317320000,  -1.12000,
,,,0.001317360000,  -1.10000,
,,,0.001317400000,  -1.08000,
,,,0.001317440000,  -1.10000,
,,,0.001317480000,  -1.08000,
,,,0.001317520000,  -1.08000,
,,,0.001317560000,  -1.06000,
,,,0.001317600000,  -1.08000,
,,,0.001317640000,  -1.06000,
,,,0.001317680000,  -1.08000,
,,,0.001317720000,  -1.08000,
,,,0.001317760000,  -1.04000,
,,,0.001317800000,  -1.04000,
,,,0.001317840000,  -1.06000,
,,,0.001317880000,  -1.02000,
,,,0.001317920000,  -1.00000,
,,,0.001317960000,  -1.00000,
,,,0.001318000000,  -1.00000,
,,,0.001318040000,  -1.02000,
,,,0.001318080000,  -0.98000,
,,,0.001318120000,  -0.98000,
,,,0.001318160000,  -0.96000,
,,,0.001318200000,  -0.98000,
,,,0.001318240000,  -0.94000,
,,,0.001318280000,  -0.92000,
,,,0.001318320000,  -0.94000,
,,,0.001318360000,  -0.92000,
,,,0.001318400000,  -0.92000,
,,,0.001318440000,  -0.90000,
,,,0.001318480000,  -0.88000,
,,,0.001318520000,  -0.90000,
,,,0.001318560000,  -0.88000,
,,,0.001318600000,  -0.88000,
,,,0.001318640000,  -0.86000,
,,,0.001318680000,  -0.86000,
,,,0.001318720000,  -0.86000,
,,,0.001318760000,  -0.84000,
,,,0.001318800000,  -0.80000,
,,,0.001318840000,  -0.82000,
,,,0.001318880000,  -0.80000,
,,,0.001318920000,  -0.78000,
,,,0.001318960000,  -0.78000,
,,,0.001319000000,  -0.78000,
,,,0.001319040000,  -0.76000,
,,,0.001319080000,  -0.74000,
,,,0.001319120000,  -0.74000,
,,,0.001319160000,  -0.72000,
,,,0.001319200000,  -0.72000,
,,,0.001319240000,  -0.72000,
,,,0.001319280000,  -0.70000,
,,,0.001319320000,  -0.68000,
,,,0.001319360000,  -0.66000,
,,,0.001319400000,  -0.66000,
,,,0.001319440000,  -0.68000,
,,,0.001319480000,  -0.66000,
,,,0.001319520000,  -0.62000,
,,,0.001319560000,  -0.64000,
,,,0.001319600000,  -0.60000,
,,,0.001319640000,  -0.60000,
,,,0.001319680000,  -0.56000,
,,,0.001319720000,  -0.56000,
,,,0.001319760000,  -0.56000,
,,,0.001319800000,  -0.54000,
,,,0.001319840000,  -0.54000,
,,,0.001319880000,  -0.52000,
,,,0.001319920000,  -0.50000,
,,,0.001319960000,  -0.50000,
,,,0.001320000000,  -0.48000,
,,,0.001320040000,  -0.46000,
,,,0.001320080000,  -0.46000,
,,,0.001320120000,  -0.44000,
,,,0.001320160000,  -0.44000,
,,,0.001320200000,  -0.42000,
,,,0.001320240000,  -0.38000,
,,,0.001320280000,  -0.40000,
,,,0.001320320000,  -0.36000,
,,,0.001320360000,  -0.34000,
,,,0.001320400000,  -0.36000,
,,,0.001320440000,  -0.36000,
,,,0.001320480000,  -0.32000,
,,,0.001320520000,  -0.30000,
,,,0.001320560000,  -0.30000,
,,,0.001320600000,  -0.28000,
,,,0.001320640000,  -0.28000,
,,,0.001320680000,  -0.26000,
,,,0.001320720000,  -0.22000,
,,,0.001320760000,  -0.24000,
,,,0.001320800000,  -0.22000,
,,,0.001320840000,  -0.20000,
,,,0.001320880000,  -0.18000,
,,,0.001320920000,  -0.18000,
,,,0.001320960000,  -0.16000,
,,,0.001321000000,  -0.14000,
,,,0.001321040000,  -0.14000,
,,,0.001321080000,  -0.12000,
,,,0.001321120000,  -0.10000,
,,,0.001321160000,  -0.08000,
,,,0.001321200000,  -0.06000,
,,,0.001321240000,  -0.06000,
,,,0.001321280000,  -0.06000,
,,,0.001321320000,  -0.04000,
,,,0.001321360000,  -0.06000,
,,,0.001321400000,  -0.04000,
,,,0.001321440000,   0.02000,
,,,0.001321480000,   0.02000,
,,,0.001321520000,   0.04000,
,,,0.001321560000,   0.04000,
,,,0.001321600000,   0.06000,
,,,0.001321640000,   0.10000,
,,,0.001321680000,   0.08000,
,,,0.001321720000,   0.12000,
,,,0.001321760000,   0.12000,
,,,0.001321800000,   0.14000,
,,,0.001321840000,   0.12000,
,,,0.001321880000,   0.16000,
,,,0.001321920000,   0.18000,
,,,0.001321960000,   0.18000,
,,,0.001322000000,   0.20000,
,,,0.001322040000,   0.18000,
,,,0.001322080000,   0.22000,
,,,0.001322120000,   0.26000,
,,,0.001322160000,   0.22000,
,,,0.001322200000,   0.28000,
,,,0.001322240000,   0.28000,
,,,0.001322280000,   0.30000,
,,,0.001322320000,   0.32000,
,,,0.001322360000,   0.32000,
,,,0.001322400000,   0.32000,
,,,0.001322440000,   0.34000,
,,,0.001322480000,   0.36000,
,,,0.001322520000,   0.36000,
,,,0.001322560000,   0.36000,
,,,0.001322600000,   0.40000,
,,,0.001322640000,   0.42000,
,,,0.001322680000,   0.42000,
,,,0.001322720000,   0.42000,
,,,0.001322760000,   0.44000,
,,,0.001322800000,   0.44000,
,,,0.001322840000,   0.46000,
,,,0.001322880000,   0.50000,
,,,0.001322920000,   0.50000,
,,,0.001322960000,   0.54000,
,,,0.001323000000,   0.52000,
,,,0.001323040000,   0.54000,
,,,0.001323080000,   0.52000,
,,,0.001323120000,   0.58000,
,,,0.001323160000,   0.56000,
,,,0.001323200000,   0.58000,
,,,0.001323240000,   0.58000,
,,,0.001323280000,   0.58000,
,,,0.001323320000,   0.58000,
,,,0.001323360000,   0.64000,
,,,0.001323400000,   0.64000,
,,,0.001323440000,   0.64000,
,,,0.001323480000,   0.68000,
,,,0.001323520000,   0.64000,
,,,0.001323560000,   0.70000,
,,,0.001323600000,   0.68000,
,,,0.001323640000,   0.72000,
,,,0.001323680000,   0.72000,
,,,0.001323720000,   0.72000,
,,,0.001323760000,   0.72000,
,,,0.001323800000,   0.74000,
,,,0.001323840000,   0.76000,
,,,0.001323880000,   0.76000,
,,,0.001323920000,   0.76000,
,,,0.001323960000,   0.82000,
,,,0.001324000000,   0.80000,
,,,0.001324040000,   0.82000,
,,,0.001324080000,   0.82000,
,,,0.001324120000,   0.84000,
,,,0.001324160000,   0.82000,
,,,0.001324200000,   0.82000,
,,,0.001324240000,   0.86000,
,,,0.001324280000,   0.86000,
,,,0.001324320000,   0.84000,
,,,0.001324360000,   0.90000,
,,,0.001324400000,   0.88000,
,,,0.001324440000,   0.88000,
,,,0.001324480000,   0.90000,
,,,0.001324520000,   0.88000,
,,,0.001324560000,   0.90000,
,,,0.001324600000,   0.92000,
,,,0.001324640000,   0.94000,
,,,0.001324680000,   0.96000,
,,,0.001324720000,   0.94000,
,,,0.001324760000,   0.94000,
,,,0.001324800000,   0.98000,
,,,0.001324840000,   0.98000,
,,,0.001324880000,   0.98000,
,,,0.001324920000,   0.98000,
,,,0.001324960000,   1.00000,
,,,0.001325000000,   1.02000,
,,,0.001325040000,   1.02000,
,,,0.001325080000,   1.02000,
,,,0.001325120000,   1.02000,
,,,0.001325160000,   1.02000,
,,,0.001325200000,   1.02000,
,,,0.001325240000,   1.04000,
,,,0.001325280000,   1.04000,
,,,0.001325320000,   1.06000,
,,,0.001325360000,   1.06000,
,,,0.001325400000,   1.08000,
,,,0.001325440000,   1.06000,
,,,0.001325480000,   1.08000,
,,,0.001325520000,   1.08000,
,,,0.001325560000,   1.10000,
,,,0.001325600000,   1.10000,
,,,0.001325640000,   1.08000,
,,,0.001325680000,   1.10000,
,,,0.001325720000,   1.10000,
,,,0.001325760000,   1.10000,
,,,0.001325800000,   1.12000,
,,,0.001325840000,   1.12000,
,,,0.001325880000,   1.12000,
,,,0.001325920000,   1.12000,
,,,0.001325960000,   1.14000,
,,,0.001326000000,   1.14000,
,,,0.001326040000,   1.14000,
,,,0.001326080000,   1.16000,
,,,0.001326120000,   1.12000,
,,,0.001326160000,   1.16000,
,,,0.001326200000,   1.14000,
,,,0.001326240000,   1.16000,
,,,0.001326280000,   1.16000,
,,,0.001326320000,   1.18000,
,,,0.001326360000,   1.16000,
,,,0.001326400000,   1.16000,
,,,0.001326440000,   1.18000,
,,,0.001326480000,   1.18000,
,,,0.001326520000,   1.16000,
,,,0.001326560000,   1.18000,
,,,0.001326600000,   1.18000,
,,,0.001326640000,   1.16000,
,,,0.001326680000,   1.20000,
,,,0.001326720000,   1.18000,
,,,0.001326760000,   1.16000,
,,,0.001326800000,   1.18000,
,,,0.001326840000,   1.18000,
,,,0.001326880000,   1.16000,
,,,0.001326920000,   1.18000,
,,,0.001326960000,   1.16000,
,,,0.001327000000,   1.18000,
,,,0.001327040000,   1.16000,
,,,0.001327080000,   1.18000,
,,,0.001327120000,   1.16000,
,,,0.001327160000,   1.16000,
,,,0.001327200000,   1.18000,
,,,0.001327240000,   1.18000,
,,,0.001327280000,   1.16000,
,,,0.001327320000,   1.20000,
,,,0.001327360000,   1.18000,
,,,0.001327400000,   1.16000,
,,,0.001327440000,   1.18000,
,,,0.001327480000,   1.16000,
,,,0.001327520000,   1.16000,
,,,0.001327560000,   1.16000,
,,,0.001327600000,   1.16000,
,,,0.001327640000,   1.16000,
,,,0.001327680000,   1.14000,
,,,0.001327720000,   1.16000,
,,,0.001327760000,   1.14000,
,,,0.001327800000,   1.16000,
,,,0.001327840000,   1.16000,
,,,0.001327880000,   1.14000,
,,,0.001327920000,   1.16000,
,,,0.001327960000,   1.12000,
,,,0.001328000000,   1.10000,
,,,0.001328040000,   1.12000,
,,,0.001328080000,   1.10000,
,,,0.001328120000,   1.12000,
,,,0.001328160000,   1.12000,
,,,0.001328200000,   1.10000,
,,,0.001328240000,   1.10000,
,,,0.001328280000,   1.10000,
,,,0.001328320000,   1.10000,
,,,0.001328360000,   1.06000,
,,,0.001328400000,   1.06000,
,,,0.001328440000,   1.06000,
,,,0.001328480000,   1.06000,
,,,0.001328520000,   1.06000,
,,,0.001328560000,   1.04000,
,,,0.001328600000,   1.06000,
,,,0.001328640000,   1.02000,
,,,0.001328680000,   1.04000,
,,,0.001328720000,   1.02000,
,,,0.001328760000,   1.02000,
,,,0.001328800000,   1.00000,
,,,0.001328840000,   1.00000,
,,,0.001328880000,   1.00000,
,,,0.001328920000,   0.98000,
,,,0.001328960000,   1.00000,
,,,0.001329000000,   0.96000,
,,,0.001329040000,   0.94000,
,,,0.001329080000,   0.94000,
,,,0.001329120000,   0.92000,
,,,0.001329160000,   0.96000,
,,,0.001329200000,   0.90000,
,,,0.001329240000,   0.92000,
,,,0.001329280000,   0.92000,
,,,0.001329320000,   0.88000,
,,,0.001329360000,   0.88000,
,,,0.001329400000,   0.88000,
,,,0.001329440000,   0.86000,
,,,0.001329480000,   0.86000,
,,,0.001329520000,   0.88000,
,,,0.001329560000,   0.86000,
,,,0.001329600000,   0.84000,
,,,0.001329640000,   0.84000,
,,,0.001329680000,   0.82000,
,,,0.001329720000,   0.80000,
,,,0.001329760000,   0.82000,
,,,0.001329800000,   0.80000,
,,,0.001329840000,   0.78000,
,,,0.001329880000,   0.78000,
,,,0.001329920000,   0.74000,
,,,0.001329960000,   0.74000,
,,,0.001330000000,   0.70000,
,,,0.001330040000,   0.72000,
,,,0.001330080000,   0.70000,
,,,0.001330120000,   0.68000,
,,,0.001330160000,   0.66000,
,,,0.001330200000,   0.66000,
,,,0.001330240000,   0.66000,
,,,0.001330280000,   0.66000,
,,,0.001330320000,   0.64000,
,,,0.001330360000,   0.62000,
,,,0.001330400000,   0.64000,
,,,0.001330440000,   0.60000,
,,,0.001330480000,   0.60000,
,,,0.001330520000,   0.58000,
,,,0.001330560000,   0.58000,
,,,0.001330600000,   0.56000,
,,,0.001330640000,   0.56000,
,,,0.001330680000,   0.54000,
,,,0.001330720000,   0.52000,
,,,0.001330760000,   0.52000,
,,,0.001330800000,   0.52000,
,,,0.001330840000,   0.48000,
,,,0.001330880000,   0.48000,
,,,0.001330920000,   0.48000,
,,,0.001330960000,   0.46000,
,,,0.001331000000,   0.44000,
,,,0.001331040000,   0.42000,
,,,0.001331080000,   0.42000,
,,,0.001331120000,   0.40000,
,,,0.001331160000,   0.36000,
,,,0.001331200000,   0.36000,
,,,0.001331240000,   0.38000,
,,,0.001331280000,   0.36000,
,,,0.001331320000,   0.34000,
,,,0.001331360000,   0.32000,
,,,0.001331400000,   0.30000,
,,,0.001331440000,   0.28000,
,,,0.001331480000,   0.26000,
,,,0.001331520000,   0.28000,
,,,0.001331560000,   0.24000,
,,,0.001331600000,   0.24000,
,,,0.001331640000,   0.22000,
,,,0.001331680000,   0.20000,
,,,0.001331720000,   0.20000,
,,,0.001331760000,   0.20000,
,,,0.001331800000,   0.16000,
,,,0.001331840000,   0.16000,
,,,0.001331880000,   0.16000,
,,,0.001331920000,   0.14000,
,,,0.001331960000,   0.12000,
,,,0.001332000000,   0.12000,
,,,0.001332040000,   0.10000,
,,,0.001332080000,   0.06000,
,,,0.001332120000,   0.08000,
,,,0.001332160000,   0.04000,
,,,0.001332200000,   0.04000,
,,,0.001332240000,   0.02000,
,,,0.001332280000,   0.02000,
,,,0.001332320000,  -0.02000,
,,,0.001332360000,  -0.02000,
,,,0.001332400000,  -0.02000,
,,,0.001332440000,  -0.04000,
,,,0.001332480000,  -0.06000,
,,,0.001332520000,  -0.08000,
,,,0.001332560000,  -0.08000,
,,,0.001332600000,  -0.10000,
,,,0.001332640000,  -0.12000,
,,,0.001332680000,  -0.12000,
,,,0.001332720000,  -0.12000,
,,,0.001332760000,  -0.14000,
,,,0.001332800000,  -0.16000,
,,,0.001332840000,  -0.16000,
,,,0.001332880000,  -0.18000,
,,,0.001332920000,  -0.22000,
,,,0.001332960000,  -0.20000,
,,,0.001333000000,  -0.22000,
,,,0.001333040000,  -0.26000,
,,,0.001333080000,  -0.26000,
,,,0.001333120000,  -0.28000,
,,,0.001333160000,  -0.28000,
,,,0.001333200000,  -0.30000,
,,,0.001333240000,  -0.30000,
,,,0.001333280000,  -0.34000,
,,,0.001333320000,  -0.32000,
,,,0.001333360000,  -0.34000,
,,,0.001333400000,  -0.34000,
,,,0.001333440000,  -0.38000,
,,,0.001333480000,  -0.38000,
,,,0.001333520000,  -0.38000,
,,,0.001333560000,  -0.44000,
,,,0.001333600000,  -0.42000,
,,,0.001333640000,  -0.44000,
,,,0.001333680000,  -0.44000,
,,,0.001333720000,  -0.48000,
,,,0.001333760000,  -0.50000,
,,,0.001333800000,  -0.48000,
,,,0.001333840000,  -0.50000,
,,,0.001333880000,  -0.52000,
,,,0.001333920000,  -0.50000,
,,,0.001333960000,  -0.54000,
,,,0.001334000000,  -0.56000,
,,,0.001334040000,  -0.56000,
,,,0.001334080000,  -0.58000,
,,,0.001334120000,  -0.58000,
,,,0.001334160000,  -0.62000,
,,,0.001334200000,  -0.60000,
,,,0.001334240000,  -0.62000,
,,,0.001334280000,  -0.64000,
,,,0.001334320000,  -0.64000,
,,,0.001334360000,  -0.66000,
,,,0.001334400000,  -0.66000,
,,,0.001334440000,  -0.70000,
,,,0.001334480000,  -0.68000,
,,,0.001334520000,  -0.70000,
,,,0.001334560000,  -0.70000,
,,,0.001334600000,  -0.72000,
,,,0.001334640000,  -0.74000,
,,,0.001334680000,  -0.72000,
,,,0.001334720000,  -0.76000,
,,,0.001334760000,  -0.74000,
,,,0.001334800000,  -0.78000,
,,,0.001334840000,  -0.80000,
,,,0.001334880000,  -0.80000,
,,,0.001334920000,  -0.80000,
,,,0.001334960000,  -0.80000,
,,,0.001335000000,  -0.80000,
,,,0.001335040000,  -0.84000,
,,,0.001335080000,  -0.86000,
,,,0.001335120000,  -0.82000,
,,,0.001335160000,  -0.88000,
,,,0.001335200000,  -0.88000,
,,,0.001335240000,  -0.88000,
,,,0.001335280000,  -0.90000,
,,,0.001335320000,  -0.90000,
,,,0.001335360000,  -0.90000,
,,,0.001335400000,  -0.92000,
,,,0.001335440000,  -0.92000,
,,,0.001335480000,  -0.92000,
,,,0.001335520000,  -0.92000,
,,,0.001335560000,  -0.96000,
,,,0.001335600000,  -0.94000,
,,,0.001335640000,  -0.98000,
,,,0.001335680000,  -0.96000,
,,,0.001335720000,  -0.96000,
,,,0.001335760000,  -1.00000,
,,,0.001335800000,  -0.98000,
,,,0.001335840000,  -1.00000,
,,,0.001335880000,  -1.00000,
,,,0.001335920000,  -1.00000,
,,,0.001335960000,  -1.04000,
,,,0.001336000000,  -1.02000,
,,,0.001336040000,  -1.02000,
,,,0.001336080000,  -1.04000,
,,,0.001336120000,  -1.06000,
,,,0.001336160000,  -1.04000,
,,,0.001336200000,  -1.04000,
,,,0.001336240000,  -1.04000,
,,,0.001336280000,  -1.08000,
,,,0.001336320000,  -1.08000,
,,,0.001336360000,  -1.06000,
,,,0.001336400000,  -1.06000,
,,,0.001336440000,  -1.10000,
,,,0.001336480000,  -1.10000,
,,,0.001336520000,  -1.08000,
,,,0.001336560000,  -1.10000,
,,,0.001336600000,  -1.12000,
,,,0.001336640000,  -1.10000,
,,,0.001336680000,  -1.10000,
,,,0.001336720000,  -1.10000,
,,,0.001336760000,  -1.12000,
,,,0.001336800000,  -1.12000,
,,,0.001336840000,  -1.16000,
,,,0.001336880000,  -1.14000,
,,,0.001336920000,  -1.14000,
,,,0.001336960000,  -1.14000,
,,,0.001337000000,  -1.16000,
,,,0.001337040000,  -1.16000,
,,,0.001337080000,  -1.14000,
,,,0.001337120000,  -1.16000,
,,,0.001337160000,  -1.18000,
,,,0.001337200000,  -1.16000,
,,,0.001337240000,  -1.14000,
,,,0.001337280000,  -1.14000,
,,,0.001337320000,  -1.16000,
,,,0.001337360000,  -1.14000,
,,,0.001337400000,  -1.16000,
,,,0.001337440000,  -1.16000,
,,,0.001337480000,  -1.18000,
,,,0.001337520000,  -1.18000,
,,,0.001337560000,  -1.18000,
,,,0.001337600000,  -1.18000,
,,,0.001337640000,  -1.16000,
,,,0.001337680000,  -1.18000,
,,,0.001337720000,  -1.18000,
,,,0.001337760000,  -1.16000,
,,,0.001337800000,  -1.16000,
,,,0.001337840000,  -1.18000,
,,,0.001337880000,  -1.18000,
,,,0.001337920000,  -1.16000,
,,,0.001337960000,  -1.18000,
,,,0.001338000000,  -1.18000,
,,,0.001338040000,  -1.16000,
,,,0.001338080000,  -1.18000,
,,,0.001338120000,  -1.16000,
