circuiti_3/data/RLC/L/55170/F0000CH2.CSV

Record Length,2.500000e+03,,   0.001339000000,  -0.52000,
Sample Interval,2.000000e-08,,   0.001339020000,  -0.50000,
Trigger Point,-6.695000000000e+04,,   0.001339040000,  -0.50000,
,,,   0.001339060000,  -0.50000,
,,,   0.001339080000,  -0.48000,
,,,   0.001339100000,  -0.46000,
Source,CH2,,   0.001339120000,  -0.50000,
Vertical Units,V,,   0.001339140000,  -0.46000,
Vertical Scale,5.000000e-01,,   0.001339160000,  -0.44000,
Vertical Offset,8.000000e-02,,   0.001339180000,  -0.46000,
Horizontal Units,s,,   0.001339200000,  -0.42000,
Horizontal Scale,5.000000e-06,,   0.001339220000,  -0.44000,
Pt Fmt,Y,,   0.001339240000,  -0.42000,
Yzero,0.000000e+00,,   0.001339260000,  -0.40000,
Probe Atten,1.000000e+01,,   0.001339280000,  -0.42000,
Model Number,TDS1002B,,   0.001339300000,  -0.40000,
Serial Number,C010776,,   0.001339320000,  -0.38000,
Firmware Version,FV:v21.20,,   0.001339340000,  -0.38000,
,,,0.001339360000,  -0.38000,
,,,0.001339380000,  -0.36000,
,,,0.001339400000,  -0.36000,
,,,0.001339420000,  -0.36000,
,,,0.001339440000,  -0.32000,
,,,0.001339460000,  -0.34000,
,,,0.001339480000,  -0.32000,
,,,0.001339500000,  -0.32000,
,,,0.001339520000,  -0.30000,
,,,0.001339540000,  -0.28000,
,,,0.001339560000,  -0.32000,
,,,0.001339580000,  -0.28000,
,,,0.001339600000,  -0.28000,
,,,0.001339620000,  -0.28000,
,,,0.001339640000,  -0.26000,
,,,0.001339660000,  -0.26000,
,,,0.001339680000,  -0.24000,
,,,0.001339700000,  -0.24000,
,,,0.001339720000,  -0.22000,
,,,0.001339740000,  -0.20000,
,,,0.001339760000,  -0.20000,
,,,0.001339780000,  -0.18000,
,,,0.001339800000,  -0.20000,
,,,0.001339820000,  -0.20000,
,,,0.001339840000,  -0.18000,
,,,0.001339860000,  -0.18000,
,,,0.001339880000,  -0.16000,
,,,0.001339900000,  -0.14000,
,,,0.001339920000,  -0.12000,
,,,0.001339940000,  -0.10000,
,,,0.001339960000,  -0.14000,
,,,0.001339980000,  -0.10000,
,,,0.001340000000,  -0.08000,
,,,0.001340020000,  -0.08000,
,,,0.001340040000,  -0.08000,
,,,0.001340060000,  -0.08000,
,,,0.001340080000,  -0.06000,
,,,0.001340100000,  -0.06000,
,,,0.001340120000,  -0.04000,
,,,0.001340140000,  -0.06000,
,,,0.001340160000,  -0.02000,
,,,0.001340180000,  -0.02000,
,,,0.001340200000,  -0.02000,
,,,0.001340220000,  -0.04000,
,,,0.001340240000,  -0.02000,
,,,0.001340260000,   0.02000,
,,,0.001340280000,   0.02000,
,,,0.001340300000,   0.00000,
,,,0.001340320000,   0.02000,
,,,0.001340340000,   0.06000,
,,,0.001340360000,   0.04000,
,,,0.001340380000,   0.04000,
,,,0.001340400000,   0.06000,
,,,0.001340420000,   0.08000,
,,,0.001340440000,   0.08000,
,,,0.001340460000,   0.10000,
,,,0.001340480000,   0.08000,
,,,0.001340500000,   0.08000,
,,,0.001340520000,   0.12000,
,,,0.001340540000,   0.12000,
,,,0.001340560000,   0.14000,
,,,0.001340580000,   0.14000,
,,,0.001340600000,   0.14000,
,,,0.001340620000,   0.16000,
,,,0.001340640000,   0.16000,
,,,0.001340660000,   0.20000,
,,,0.001340680000,   0.18000,
,,,0.001340700000,   0.18000,
,,,0.001340720000,   0.20000,
,,,0.001340740000,   0.18000,
,,,0.001340760000,   0.22000,
,,,0.001340780000,   0.24000,
,,,0.001340800000,   0.26000,
,,,0.001340820000,   0.24000,
,,,0.001340840000,   0.26000,
,,,0.001340860000,   0.26000,
,,,0.001340880000,   0.28000,
,,,0.001340900000,   0.26000,
,,,0.001340920000,   0.28000,
,,,0.001340940000,   0.30000,
,,,0.001340960000,   0.30000,
,,,0.001340980000,   0.32000,
,,,0.001341000000,   0.32000,
,,,0.001341020000,   0.34000,
,,,0.001341040000,   0.34000,
,,,0.001341060000,   0.34000,
,,,0.001341080000,   0.36000,
,,,0.001341100000,   0.36000,
,,,0.001341120000,   0.36000,
,,,0.001341140000,   0.36000,
,,,0.001341160000,   0.40000,
,,,0.001341180000,   0.38000,
,,,0.001341200000,   0.40000,
,,,0.001341220000,   0.42000,
,,,0.001341240000,   0.40000,
,,,0.001341260000,   0.44000,
,,,0.001341280000,   0.42000,
,,,0.001341300000,   0.46000,
,,,0.001341320000,   0.44000,
,,,0.001341340000,   0.44000,
,,,0.001341360000,   0.44000,
,,,0.001341380000,   0.46000,
,,,0.001341400000,   0.46000,
,,,0.001341420000,   0.50000,
,,,0.001341440000,   0.50000,
,,,0.001341460000,   0.50000,
,,,0.001341480000,   0.50000,
,,,0.001341500000,   0.52000,
,,,0.001341520000,   0.52000,
,,,0.001341540000,   0.52000,
,,,0.001341560000,   0.52000,
,,,0.001341580000,   0.54000,
,,,0.001341600000,   0.54000,
,,,0.001341620000,   0.56000,
,,,0.001341640000,   0.56000,
,,,0.001341660000,   0.60000,
,,,0.001341680000,   0.60000,
,,,0.001341700000,   0.58000,
,,,0.001341720000,   0.60000,
,,,0.001341740000,   0.58000,
,,,0.001341760000,   0.60000,
,,,0.001341780000,   0.62000,
,,,0.001341800000,   0.62000,
,,,0.001341820000,   0.62000,
,,,0.001341840000,   0.64000,
,,,0.001341860000,   0.64000,
,,,0.001341880000,   0.64000,
,,,0.001341900000,   0.66000,
,,,0.001341920000,   0.68000,
,,,0.001341940000,   0.68000,
,,,0.001341960000,   0.66000,
,,,0.001341980000,   0.68000,
,,,0.001342000000,   0.68000,
,,,0.001342020000,   0.70000,
,,,0.001342040000,   0.70000,
,,,0.001342060000,   0.72000,
,,,0.001342080000,   0.72000,
,,,0.001342100000,   0.74000,
,,,0.001342120000,   0.74000,
,,,0.001342140000,   0.74000,
,,,0.001342160000,   0.76000,
,,,0.001342180000,   0.76000,
,,,0.001342200000,   0.74000,
,,,0.001342220000,   0.76000,
,,,0.001342240000,   0.78000,
,,,0.001342260000,   0.78000,
,,,0.001342280000,   0.78000,
,,,0.001342300000,   0.78000,
,,,0.001342320000,   0.82000,
,,,0.001342340000,   0.78000,
,,,0.001342360000,   0.80000,
,,,0.001342380000,   0.82000,
,,,0.001342400000,   0.82000,
,,,0.001342420000,   0.82000,
,,,0.001342440000,   0.84000,
,,,0.001342460000,   0.84000,
,,,0.001342480000,   0.86000,
,,,0.001342500000,   0.86000,
,,,0.001342520000,   0.86000,
,,,0.001342540000,   0.86000,
,,,0.001342560000,   0.88000,
,,,0.001342580000,   0.86000,
,,,0.001342600000,   0.88000,
,,,0.001342620000,   0.88000,
,,,0.001342640000,   0.92000,
,,,0.001342660000,   0.90000,
,,,0.001342680000,   0.92000,
,,,0.001342700000,   0.92000,
,,,0.001342720000,   0.92000,
,,,0.001342740000,   0.94000,
,,,0.001342760000,   0.92000,
,,,0.001342780000,   0.94000,
,,,0.001342800000,   0.92000,
,,,0.001342820000,   0.94000,
,,,0.001342840000,   0.94000,
,,,0.001342860000,   0.94000,
,,,0.001342880000,   0.96000,
,,,0.001342900000,   0.96000,
,,,0.001342920000,   0.96000,
,,,0.001342940000,   0.96000,
,,,0.001342960000,   0.98000,
,,,0.001342980000,   0.98000,
,,,0.001343000000,   1.00000,
,,,0.001343020000,   1.00000,
,,,0.001343040000,   0.98000,
,,,0.001343060000,   1.00000,
,,,0.001343080000,   1.02000,
,,,0.001343100000,   1.02000,
,,,0.001343120000,   1.02000,
,,,0.001343140000,   1.04000,
,,,0.001343160000,   1.02000,
,,,0.001343180000,   1.04000,
,,,0.001343200000,   1.04000,
,,,0.001343220000,   1.02000,
,,,0.001343240000,   1.04000,
,,,0.001343260000,   1.06000,
,,,0.001343280000,   1.04000,
,,,0.001343300000,   1.06000,
,,,0.001343320000,   1.06000,
,,,0.001343340000,   1.04000,
,,,0.001343360000,   1.06000,
,,,0.001343380000,   1.08000,
,,,0.001343400000,   1.08000,
,,,0.001343420000,   1.08000,
,,,0.001343440000,   1.08000,
,,,0.001343460000,   1.08000,
,,,0.001343480000,   1.10000,
,,,0.001343500000,   1.10000,
,,,0.001343520000,   1.10000,
,,,0.001343540000,   1.14000,
,,,0.001343560000,   1.10000,
,,,0.001343580000,   1.10000,
,,,0.001343600000,   1.12000,
,,,0.001343620000,   1.12000,
,,,0.001343640000,   1.14000,
,,,0.001343660000,   1.10000,
,,,0.001343680000,   1.12000,
,,,0.001343700000,   1.14000,
,,,0.001343720000,   1.12000,
,,,0.001343740000,   1.12000,
,,,0.001343760000,   1.16000,
,,,0.001343780000,   1.14000,
,,,0.001343800000,   1.12000,
,,,0.001343820000,   1.14000,
,,,0.001343840000,   1.14000,
,,,0.001343860000,   1.16000,
,,,0.001343880000,   1.14000,
,,,0.001343900000,   1.16000,
,,,0.001343920000,   1.18000,
,,,0.001343940000,   1.18000,
,,,0.001343960000,   1.16000,
,,,0.001343980000,   1.16000,
,,,0.001344000000,   1.18000,
,,,0.001344020000,   1.18000,
,,,0.001344040000,   1.16000,
,,,0.001344060000,   1.18000,
,,,0.001344080000,   1.18000,
,,,0.001344100000,   1.16000,
,,,0.001344120000,   1.18000,
,,,0.001344140000,   1.18000,
,,,0.001344160000,   1.22000,
,,,0.001344180000,   1.18000,
,,,0.001344200000,   1.20000,
,,,0.001344220000,   1.18000,
,,,0.001344240000,   1.20000,
,,,0.001344260000,   1.20000,
,,,0.001344280000,   1.18000,
,,,0.001344300000,   1.20000,
,,,0.001344320000,   1.20000,
,,,0.001344340000,   1.22000,
,,,0.001344360000,   1.22000,
,,,0.001344380000,   1.20000,
,,,0.001344400000,   1.22000,
,,,0.001344420000,   1.20000,
,,,0.001344440000,   1.24000,
,,,0.001344460000,   1.22000,
,,,0.001344480000,   1.20000,
,,,0.001344500000,   1.18000,
,,,0.001344520000,   1.24000,
,,,0.001344540000,   1.22000,
,,,0.001344560000,   1.22000,
,,,0.001344580000,   1.22000,
,,,0.001344600000,   1.20000,
,,,0.001344620000,   1.22000,
,,,0.001344640000,   1.22000,
,,,0.001344660000,   1.24000,
,,,0.001344680000,   1.22000,
,,,0.001344700000,   1.20000,
,,,0.001344720000,   1.22000,
,,,0.001344740000,   1.24000,
,,,0.001344760000,   1.20000,
,,,0.001344780000,   1.20000,
,,,0.001344800000,   1.22000,
,,,0.001344820000,   1.22000,
,,,0.001344840000,   1.24000,
,,,0.001344860000,   1.24000,
,,,0.001344880000,   1.22000,
,,,0.001344900000,   1.20000,
,,,0.001344920000,   1.20000,
,,,0.001344940000,   1.24000,
,,,0.001344960000,   1.22000,
,,,0.001344980000,   1.24000,
,,,0.001345000000,   1.24000,
,,,0.001345020000,   1.22000,
,,,0.001345040000,   1.22000,
,,,0.001345060000,   1.24000,
,,,0.001345080000,   1.24000,
,,,0.001345100000,   1.20000,
,,,0.001345120000,   1.22000,
,,,0.001345140000,   1.20000,
,,,0.001345160000,   1.20000,
,,,0.001345180000,   1.20000,
,,,0.001345200000,   1.22000,
,,,0.001345220000,   1.20000,
,,,0.001345240000,   1.22000,
,,,0.001345260000,   1.20000,
,,,0.001345280000,   1.22000,
,,,0.001345300000,   1.22000,
,,,0.001345320000,   1.18000,
,,,0.001345340000,   1.18000,
,,,0.001345360000,   1.18000,
,,,0.001345380000,   1.22000,
,,,0.001345400000,   1.20000,
,,,0.001345420000,   1.18000,
,,,0.001345440000,   1.20000,
,,,0.001345460000,   1.18000,
,,,0.001345480000,   1.18000,
,,,0.001345500000,   1.20000,
,,,0.001345520000,   1.20000,
,,,0.001345540000,   1.18000,
,,,0.001345560000,   1.18000,
,,,0.001345580000,   1.16000,
,,,0.001345600000,   1.20000,
,,,0.001345620000,   1.18000,
,,,0.001345640000,   1.18000,
,,,0.001345660000,   1.18000,
,,,0.001345680000,   1.18000,
,,,0.001345700000,   1.16000,
,,,0.001345720000,   1.16000,
,,,0.001345740000,   1.16000,
,,,0.001345760000,   1.16000,
,,,0.001345780000,   1.16000,
,,,0.001345800000,   1.16000,
,,,0.001345820000,   1.18000,
,,,0.001345840000,   1.14000,
,,,0.001345860000,   1.12000,
,,,0.001345880000,   1.14000,
,,,0.001345900000,   1.12000,
,,,0.001345920000,   1.14000,
,,,0.001345940000,   1.14000,
,,,0.001345960000,   1.16000,
,,,0.001345980000,   1.12000,
,,,0.001346000000,   1.14000,
,,,0.001346020000,   1.12000,
,,,0.001346040000,   1.12000,
,,,0.001346060000,   1.12000,
,,,0.001346080000,   1.10000,
,,,0.001346100000,   1.08000,
,,,0.001346120000,   1.10000,
,,,0.001346140000,   1.10000,
,,,0.001346160000,   1.10000,
,,,0.001346180000,   1.08000,
,,,0.001346200000,   1.08000,
,,,0.001346220000,   1.08000,
,,,0.001346240000,   1.08000,
,,,0.001346260000,   1.08000,
,,,0.001346280000,   1.08000,
,,,0.001346300000,   1.06000,
,,,0.001346320000,   1.06000,
,,,0.001346340000,   1.06000,
,,,0.001346360000,   1.06000,
,,,0.001346380000,   1.06000,
,,,0.001346400000,   1.06000,
,,,0.001346420000,   1.02000,
,,,0.001346440000,   1.04000,
,,,0.001346460000,   1.04000,
,,,0.001346480000,   1.02000,
,,,0.001346500000,   1.02000,
,,,0.001346520000,   1.02000,
,,,0.001346540000,   1.02000,
,,,0.001346560000,   1.02000,
,,,0.001346580000,   0.98000,
,,,0.001346600000,   1.00000,
,,,0.001346620000,   0.98000,
,,,0.001346640000,   1.00000,
,,,0.001346660000,   0.98000,
,,,0.001346680000,   0.96000,
,,,0.001346700000,   0.96000,
,,,0.001346720000,   0.94000,
,,,0.001346740000,   0.96000,
,,,0.001346760000,   0.94000,
,,,0.001346780000,   0.92000,
,,,0.001346800000,   0.92000,
,,,0.001346820000,   0.94000,
,,,0.001346840000,   0.94000,
,,,0.001346860000,   0.94000,
,,,0.001346880000,   0.90000,
,,,0.001346900000,   0.92000,
,,,0.001346920000,   0.90000,
,,,0.001346940000,   0.90000,
,,,0.001346960000,   0.92000,
,,,0.001346980000,   0.88000,
,,,0.001347000000,   0.88000,
,,,0.001347020000,   0.86000,
,,,0.001347040000,   0.86000,
,,,0.001347060000,   0.88000,
,,,0.001347080000,   0.84000,
,,,0.001347100000,   0.84000,
,,,0.001347120000,   0.84000,
,,,0.001347140000,   0.84000,
,,,0.001347160000,   0.82000,
,,,0.001347180000,   0.80000,
,,,0.001347200000,   0.82000,
,,,0.001347220000,   0.84000,
,,,0.001347240000,   0.82000,
,,,0.001347260000,   0.84000,
,,,0.001347280000,   0.80000,
,,,0.001347300000,   0.80000,
,,,0.001347320000,   0.80000,
,,,0.001347340000,   0.80000,
,,,0.001347360000,   0.80000,
,,,0.001347380000,   0.78000,
,,,0.001347400000,   0.74000,
,,,0.001347420000,   0.74000,
,,,0.001347440000,   0.74000,
,,,0.001347460000,   0.72000,
,,,0.001347480000,   0.74000,
,,,0.001347500000,   0.72000,
,,,0.001347520000,   0.74000,
,,,0.001347540000,   0.70000,
,,,0.001347560000,   0.70000,
,,,0.001347580000,   0.68000,
,,,0.001347600000,   0.68000,
,,,0.001347620000,   0.68000,
,,,0.001347640000,   0.70000,
,,,0.001347660000,   0.66000,
,,,0.001347680000,   0.66000,
,,,0.001347700000,   0.66000,
,,,0.001347720000,   0.66000,
,,,0.001347740000,   0.66000,
,,,0.001347760000,   0.64000,
,,,0.001347780000,   0.62000,
,,,0.001347800000,   0.62000,
,,,0.001347820000,   0.62000,
,,,0.001347840000,   0.60000,
,,,0.001347860000,   0.58000,
,,,0.001347880000,   0.60000,
,,,0.001347900000,   0.58000,
,,,0.001347920000,   0.60000,
,,,0.001347940000,   0.58000,
,,,0.001347960000,   0.58000,
,,,0.001347980000,   0.54000,
,,,0.001348000000,   0.56000,
,,,0.001348020000,   0.54000,
,,,0.001348040000,   0.54000,
,,,0.001348060000,   0.54000,
,,,0.001348080000,   0.52000,
,,,0.001348100000,   0.50000,
,,,0.001348120000,   0.52000,
,,,0.001348140000,   0.48000,
,,,0.001348160000,   0.50000,
,,,0.001348180000,   0.48000,
,,,0.001348200000,   0.46000,
,,,0.001348220000,   0.46000,
,,,0.001348240000,   0.44000,
,,,0.001348260000,   0.44000,
,,,0.001348280000,   0.42000,
,,,0.001348300000,   0.44000,
,,,0.001348320000,   0.42000,
,,,0.001348340000,   0.40000,
,,,0.001348360000,   0.40000,
,,,0.001348380000,   0.40000,
,,,0.001348400000,   0.40000,
,,,0.001348420000,   0.40000,
,,,0.001348440000,   0.38000,
,,,0.001348460000,   0.36000,
,,,0.001348480000,   0.36000,
,,,0.001348500000,   0.36000,
,,,0.001348520000,   0.32000,
,,,0.001348540000,   0.34000,
,,,0.001348560000,   0.34000,
,,,0.001348580000,   0.32000,
,,,0.001348600000,   0.30000,
,,,0.001348620000,   0.30000,
,,,0.001348640000,   0.32000,
,,,0.001348660000,   0.26000,
,,,0.001348680000,   0.28000,
,,,0.001348700000,   0.28000,
,,,0.001348720000,   0.26000,
,,,0.001348740000,   0.24000,
,,,0.001348760000,   0.24000,
,,,0.001348780000,   0.24000,
,,,0.001348800000,   0.24000,
,,,0.001348820000,   0.22000,
,,,0.001348840000,   0.22000,
,,,0.001348860000,   0.20000,
,,,0.001348880000,   0.20000,
,,,0.001348900000,   0.16000,
,,,0.001348920000,   0.16000,
,,,0.001348940000,   0.20000,
,,,0.001348960000,   0.14000,
,,,0.001348980000,   0.14000,
,,,0.001349000000,   0.14000,
,,,0.001349020000,   0.12000,
,,,0.001349040000,   0.12000,
,,,0.001349060000,   0.12000,
,,,0.001349080000,   0.10000,
,,,0.001349100000,   0.12000,
,,,0.001349120000,   0.10000,
,,,0.001349140000,   0.10000,
,,,0.001349160000,   0.08000,
,,,0.001349180000,   0.06000,
,,,0.001349200000,   0.06000,
,,,0.001349220000,   0.06000,
,,,0.001349240000,   0.06000,
,,,0.001349260000,   0.06000,
,,,0.001349280000,   0.02000,
,,,0.001349300000,   0.00000,
,,,0.001349320000,   0.00000,
,,,0.001349340000,   0.00000,
,,,0.001349360000,   0.02000,
,,,0.001349380000,  -0.04000,
,,,0.001349400000,  -0.02000,
,,,0.001349420000,  -0.04000,
,,,0.001349440000,  -0.04000,
,,,0.001349460000,  -0.02000,
,,,0.001349480000,  -0.04000,
,,,0.001349500000,  -0.06000,
,,,0.001349520000,  -0.08000,
,,,0.001349540000,  -0.08000,
,,,0.001349560000,  -0.08000,
,,,0.001349580000,  -0.12000,
,,,0.001349600000,  -0.12000,
,,,0.001349620000,  -0.10000,
,,,0.001349640000,  -0.12000,
,,,0.001349660000,  -0.14000,
,,,0.001349680000,  -0.14000,
,,,0.001349700000,  -0.14000,
,,,0.001349720000,  -0.16000,
,,,0.001349740000,  -0.16000,
,,,0.001349760000,  -0.16000,
,,,0.001349780000,  -0.18000,
,,,0.001349800000,  -0.20000,
,,,0.001349820000,  -0.20000,
,,,0.001349840000,  -0.18000,
,,,0.001349860000,  -0.22000,
,,,0.001349880000,  -0.22000,
,,,0.001349900000,  -0.22000,
,,,0.001349920000,  -0.28000,
,,,0.001349940000,  -0.26000,
,,,0.001349960000,  -0.28000,
,,,0.001349980000,  -0.26000,
,,,0.001350000000,  -0.30000,
,,,0.001350020000,  -0.26000,
,,,0.001350040000,  -0.28000,
,,,0.001350060000,  -0.32000,
,,,0.001350080000,  -0.32000,
,,,0.001350100000,  -0.30000,
,,,0.001350120000,  -0.34000,
,,,0.001350140000,  -0.32000,
,,,0.001350160000,  -0.34000,
,,,0.001350180000,  -0.36000,
,,,0.001350200000,  -0.36000,
,,,0.001350220000,  -0.38000,
,,,0.001350240000,  -0.38000,
,,,0.001350260000,  -0.38000,
,,,0.001350280000,  -0.42000,
,,,0.001350300000,  -0.38000,
,,,0.001350320000,  -0.40000,
,,,0.001350340000,  -0.42000,
,,,0.001350360000,  -0.42000,
,,,0.001350380000,  -0.40000,
,,,0.001350400000,  -0.44000,
,,,0.001350420000,  -0.44000,
,,,0.001350440000,  -0.44000,
,,,0.001350460000,  -0.46000,
,,,0.001350480000,  -0.48000,
,,,0.001350500000,  -0.48000,
,,,0.001350520000,  -0.48000,
,,,0.001350540000,  -0.50000,
,,,0.001350560000,  -0.48000,
,,,0.001350580000,  -0.50000,
,,,0.001350600000,  -0.52000,
,,,0.001350620000,  -0.52000,
,,,0.001350640000,  -0.52000,
,,,0.001350660000,  -0.54000,
,,,0.001350680000,  -0.54000,
,,,0.001350700000,  -0.56000,
,,,0.001350720000,  -0.56000,
,,,0.001350740000,  -0.56000,
,,,0.001350760000,  -0.56000,
,,,0.001350780000,  -0.60000,
,,,0.001350800000,  -0.60000,
,,,0.001350820000,  -0.58000,
,,,0.001350840000,  -0.60000,
,,,0.001350860000,  -0.60000,
,,,0.001350880000,  -0.64000,
,,,0.001350900000,  -0.64000,
,,,0.001350920000,  -0.62000,
,,,0.001350940000,  -0.62000,
,,,0.001350960000,  -0.64000,
,,,0.001350980000,  -0.66000,
,,,0.001351000000,  -0.66000,
,,,0.001351020000,  -0.68000,
,,,0.001351040000,  -0.66000,
,,,0.001351060000,  -0.68000,
,,,0.001351080000,  -0.68000,
,,,0.001351100000,  -0.70000,
,,,0.001351120000,  -0.70000,
,,,0.001351140000,  -0.72000,
,,,0.001351160000,  -0.70000,
,,,0.001351180000,  -0.74000,
,,,0.001351200000,  -0.72000,
,,,0.001351220000,  -0.74000,
,,,0.001351240000,  -0.74000,
,,,0.001351260000,  -0.74000,
,,,0.001351280000,  -0.76000,
,,,0.001351300000,  -0.76000,
,,,0.001351320000,  -0.76000,
,,,0.001351340000,  -0.76000,
,,,0.001351360000,  -0.78000,
,,,0.001351380000,  -0.80000,
,,,0.001351400000,  -0.78000,
,,,0.001351420000,  -0.80000,
,,,0.001351440000,  -0.80000,
,,,0.001351460000,  -0.80000,
,,,0.001351480000,  -0.80000,
,,,0.001351500000,  -0.82000,
,,,0.001351520000,  -0.84000,
,,,0.001351540000,  -0.84000,
,,,0.001351560000,  -0.86000,
,,,0.001351580000,  -0.86000,
,,,0.001351600000,  -0.86000,
,,,0.001351620000,  -0.86000,
,,,0.001351640000,  -0.86000,
,,,0.001351660000,  -0.88000,
,,,0.001351680000,  -0.88000,
,,,0.001351700000,  -0.86000,
,,,0.001351720000,  -0.88000,
,,,0.001351740000,  -0.94000,
,,,0.001351760000,  -0.90000,
,,,0.001351780000,  -0.92000,
,,,0.001351800000,  -0.90000,
,,,0.001351820000,  -0.92000,
,,,0.001351840000,  -0.94000,
,,,0.001351860000,  -0.90000,
,,,0.001351880000,  -0.92000,
,,,0.001351900000,  -0.94000,
,,,0.001351920000,  -0.92000,
,,,0.001351940000,  -0.96000,
,,,0.001351960000,  -0.94000,
,,,0.001351980000,  -0.96000,
,,,0.001352000000,  -0.96000,
,,,0.001352020000,  -0.98000,
,,,0.001352040000,  -0.98000,
,,,0.001352060000,  -0.98000,
