circuiti_3/data/RLC/R/28550/F0000CH1.CSV

Record Length,2.500000e+03,,   0.000973200000,  -1.00000,
Sample Interval,4.000000e-08,,   0.000973240000,  -0.98000,
Trigger Point,-2.433000000000e+04,,   0.000973280000,  -0.96000,
,,,   0.000973320000,  -1.00000,
,,,   0.000973360000,  -0.96000,
,,,   0.000973400000,  -0.96000,
Source,CH1,,   0.000973440000,  -0.98000,
Vertical Units,V,,   0.000973480000,  -0.94000,
Vertical Scale,5.000000e-01,,   0.000973520000,  -0.96000,
Vertical Offset,2.000000e-02,,   0.000973560000,  -0.98000,
Horizontal Units,s,,   0.000973600000,  -0.94000,
Horizontal Scale,1.000000e-05,,   0.000973640000,  -0.96000,
Pt Fmt,Y,,   0.000973680000,  -0.94000,
Yzero,0.000000e+00,,   0.000973720000,  -0.92000,
Probe Atten,1.000000e+01,,   0.000973760000,  -0.96000,
Model Number,TDS1002B,,   0.000973800000,  -0.94000,
Serial Number,C010776,,   0.000973840000,  -0.92000,
Firmware Version,FV:v21.20,,   0.000973880000,  -0.92000,
,,,0.000973920000,  -0.92000,
,,,0.000973960000,  -0.92000,
,,,0.000974000000,  -0.94000,
,,,0.000974040000,  -0.94000,
,,,0.000974080000,  -0.94000,
,,,0.000974120000,  -0.92000,
,,,0.000974160000,  -0.90000,
,,,0.000974200000,  -0.92000,
,,,0.000974240000,  -0.90000,
,,,0.000974280000,  -0.90000,
,,,0.000974320000,  -0.88000,
,,,0.000974360000,  -0.90000,
,,,0.000974400000,  -0.88000,
,,,0.000974440000,  -0.88000,
,,,0.000974480000,  -0.90000,
,,,0.000974520000,  -0.86000,
,,,0.000974560000,  -0.88000,
,,,0.000974600000,  -0.86000,
,,,0.000974640000,  -0.86000,
,,,0.000974680000,  -0.84000,
,,,0.000974720000,  -0.84000,
,,,0.000974760000,  -0.86000,
,,,0.000974800000,  -0.84000,
,,,0.000974840000,  -0.84000,
,,,0.000974880000,  -0.86000,
,,,0.000974920000,  -0.86000,
,,,0.000974960000,  -0.84000,
,,,0.000975000000,  -0.82000,
,,,0.000975040000,  -0.82000,
,,,0.000975080000,  -0.82000,
,,,0.000975120000,  -0.82000,
,,,0.000975160000,  -0.82000,
,,,0.000975200000,  -0.80000,
,,,0.000975240000,  -0.80000,
,,,0.000975280000,  -0.80000,
,,,0.000975320000,  -0.78000,
,,,0.000975360000,  -0.80000,
,,,0.000975400000,  -0.78000,
,,,0.000975440000,  -0.78000,
,,,0.000975480000,  -0.78000,
,,,0.000975520000,  -0.78000,
,,,0.000975560000,  -0.76000,
,,,0.000975600000,  -0.74000,
,,,0.000975640000,  -0.76000,
,,,0.000975680000,  -0.76000,
,,,0.000975720000,  -0.74000,
,,,0.000975760000,  -0.72000,
,,,0.000975800000,  -0.72000,
,,,0.000975840000,  -0.74000,
,,,0.000975880000,  -0.74000,
,,,0.000975920000,  -0.74000,
,,,0.000975960000,  -0.70000,
,,,0.000976000000,  -0.70000,
,,,0.000976040000,  -0.70000,
,,,0.000976080000,  -0.72000,
,,,0.000976120000,  -0.68000,
,,,0.000976160000,  -0.70000,
,,,0.000976200000,  -0.70000,
,,,0.000976240000,  -0.68000,
,,,0.000976280000,  -0.68000,
,,,0.000976320000,  -0.66000,
,,,0.000976360000,  -0.64000,
,,,0.000976400000,  -0.66000,
,,,0.000976440000,  -0.64000,
,,,0.000976480000,  -0.64000,
,,,0.000976520000,  -0.66000,
,,,0.000976560000,  -0.62000,
,,,0.000976600000,  -0.64000,
,,,0.000976640000,  -0.64000,
,,,0.000976680000,  -0.62000,
,,,0.000976720000,  -0.60000,
,,,0.000976760000,  -0.62000,
,,,0.000976800000,  -0.60000,
,,,0.000976840000,  -0.58000,
,,,0.000976880000,  -0.60000,
,,,0.000976920000,  -0.56000,
,,,0.000976960000,  -0.58000,
,,,0.000977000000,  -0.56000,
,,,0.000977040000,  -0.56000,
,,,0.000977080000,  -0.56000,
,,,0.000977120000,  -0.54000,
,,,0.000977160000,  -0.50000,
,,,0.000977200000,  -0.50000,
,,,0.000977240000,  -0.50000,
,,,0.000977280000,  -0.54000,
,,,0.000977320000,  -0.52000,
,,,0.000977360000,  -0.50000,
,,,0.000977400000,  -0.50000,
,,,0.000977440000,  -0.50000,
,,,0.000977480000,  -0.48000,
,,,0.000977520000,  -0.50000,
,,,0.000977560000,  -0.48000,
,,,0.000977600000,  -0.48000,
,,,0.000977640000,  -0.48000,
,,,0.000977680000,  -0.44000,
,,,0.000977720000,  -0.46000,
,,,0.000977760000,  -0.44000,
,,,0.000977800000,  -0.44000,
,,,0.000977840000,  -0.42000,
,,,0.000977880000,  -0.44000,
,,,0.000977920000,  -0.38000,
,,,0.000977960000,  -0.42000,
,,,0.000978000000,  -0.40000,
,,,0.000978040000,  -0.40000,
,,,0.000978080000,  -0.38000,
,,,0.000978120000,  -0.38000,
,,,0.000978160000,  -0.36000,
,,,0.000978200000,  -0.36000,
,,,0.000978240000,  -0.36000,
,,,0.000978280000,  -0.36000,
,,,0.000978320000,  -0.36000,
,,,0.000978360000,  -0.34000,
,,,0.000978400000,  -0.32000,
,,,0.000978440000,  -0.34000,
,,,0.000978480000,  -0.30000,
,,,0.000978520000,  -0.30000,
,,,0.000978560000,  -0.30000,
,,,0.000978600000,  -0.28000,
,,,0.000978640000,  -0.28000,
,,,0.000978680000,  -0.30000,
,,,0.000978720000,  -0.26000,
,,,0.000978760000,  -0.26000,
,,,0.000978800000,  -0.26000,
,,,0.000978840000,  -0.26000,
,,,0.000978880000,  -0.22000,
,,,0.000978920000,  -0.24000,
,,,0.000978960000,  -0.28000,
,,,0.000979000000,  -0.22000,
,,,0.000979040000,  -0.20000,
,,,0.000979080000,  -0.22000,
,,,0.000979120000,  -0.22000,
,,,0.000979160000,  -0.20000,
,,,0.000979200000,  -0.18000,
,,,0.000979240000,  -0.18000,
,,,0.000979280000,  -0.16000,
,,,0.000979320000,  -0.16000,
,,,0.000979360000,  -0.16000,
,,,0.000979400000,  -0.16000,
,,,0.000979440000,  -0.16000,
,,,0.000979480000,  -0.14000,
,,,0.000979520000,  -0.16000,
,,,0.000979560000,  -0.12000,
,,,0.000979600000,  -0.12000,
,,,0.000979640000,  -0.10000,
,,,0.000979680000,  -0.10000,
,,,0.000979720000,  -0.06000,
,,,0.000979760000,  -0.10000,
,,,0.000979800000,  -0.10000,
,,,0.000979840000,  -0.06000,
,,,0.000979880000,  -0.08000,
,,,0.000979920000,  -0.06000,
,,,0.000979960000,  -0.06000,
,,,0.000980000000,  -0.04000,
,,,0.000980040000,  -0.04000,
,,,0.000980080000,  -0.06000,
,,,0.000980120000,  -0.06000,
,,,0.000980160000,  -0.02000,
,,,0.000980200000,  -0.02000,
,,,0.000980240000,  -0.04000,
,,,0.000980280000,   0.00000,
,,,0.000980320000,   0.00000,
,,,0.000980360000,   0.02000,
,,,0.000980400000,   0.00000,
,,,0.000980440000,   0.02000,
,,,0.000980480000,   0.02000,
,,,0.000980520000,   0.02000,
,,,0.000980560000,   0.06000,
,,,0.000980600000,   0.06000,
,,,0.000980640000,   0.06000,
,,,0.000980680000,   0.08000,
,,,0.000980720000,   0.10000,
,,,0.000980760000,   0.10000,
,,,0.000980800000,   0.10000,
,,,0.000980840000,   0.10000,
,,,0.000980880000,   0.08000,
,,,0.000980920000,   0.10000,
,,,0.000980960000,   0.12000,
,,,0.000981000000,   0.14000,
,,,0.000981040000,   0.14000,
,,,0.000981080000,   0.12000,
,,,0.000981120000,   0.14000,
,,,0.000981160000,   0.16000,
,,,0.000981200000,   0.16000,
,,,0.000981240000,   0.16000,
,,,0.000981280000,   0.18000,
,,,0.000981320000,   0.20000,
,,,0.000981360000,   0.18000,
,,,0.000981400000,   0.22000,
,,,0.000981440000,   0.22000,
,,,0.000981480000,   0.22000,
,,,0.000981520000,   0.26000,
,,,0.000981560000,   0.24000,
,,,0.000981600000,   0.26000,
,,,0.000981640000,   0.28000,
,,,0.000981680000,   0.24000,
,,,0.000981720000,   0.26000,
,,,0.000981760000,   0.28000,
,,,0.000981800000,   0.26000,
,,,0.000981840000,   0.28000,
,,,0.000981880000,   0.26000,
,,,0.000981920000,   0.30000,
,,,0.000981960000,   0.28000,
,,,0.000982000000,   0.32000,
,,,0.000982040000,   0.30000,
,,,0.000982080000,   0.30000,
,,,0.000982120000,   0.32000,
,,,0.000982160000,   0.34000,
,,,0.000982200000,   0.34000,
,,,0.000982240000,   0.38000,
,,,0.000982280000,   0.34000,
,,,0.000982320000,   0.32000,
,,,0.000982360000,   0.38000,
,,,0.000982400000,   0.36000,
,,,0.000982440000,   0.36000,
,,,0.000982480000,   0.40000,
,,,0.000982520000,   0.38000,
,,,0.000982560000,   0.40000,
,,,0.000982600000,   0.38000,
,,,0.000982640000,   0.42000,
,,,0.000982680000,   0.42000,
,,,0.000982720000,   0.42000,
,,,0.000982760000,   0.44000,
,,,0.000982800000,   0.40000,
,,,0.000982840000,   0.44000,
,,,0.000982880000,   0.46000,
,,,0.000982920000,   0.42000,
,,,0.000982960000,   0.46000,
,,,0.000983000000,   0.46000,
,,,0.000983040000,   0.46000,
,,,0.000983080000,   0.48000,
,,,0.000983120000,   0.48000,
,,,0.000983160000,   0.48000,
,,,0.000983200000,   0.50000,
,,,0.000983240000,   0.52000,
,,,0.000983280000,   0.50000,
,,,0.000983320000,   0.54000,
,,,0.000983360000,   0.52000,
,,,0.000983400000,   0.52000,
,,,0.000983440000,   0.54000,
,,,0.000983480000,   0.54000,
,,,0.000983520000,   0.54000,
,,,0.000983560000,   0.54000,
,,,0.000983600000,   0.54000,
,,,0.000983640000,   0.58000,
,,,0.000983680000,   0.60000,
,,,0.000983720000,   0.58000,
,,,0.000983760000,   0.56000,
,,,0.000983800000,   0.60000,
,,,0.000983840000,   0.58000,
,,,0.000983880000,   0.60000,
,,,0.000983920000,   0.60000,
,,,0.000983960000,   0.60000,
,,,0.000984000000,   0.62000,
,,,0.000984040000,   0.62000,
,,,0.000984080000,   0.62000,
,,,0.000984120000,   0.62000,
,,,0.000984160000,   0.64000,
,,,0.000984200000,   0.62000,
,,,0.000984240000,   0.64000,
,,,0.000984280000,   0.66000,
,,,0.000984320000,   0.64000,
,,,0.000984360000,   0.68000,
,,,0.000984400000,   0.68000,
,,,0.000984440000,   0.66000,
,,,0.000984480000,   0.66000,
,,,0.000984520000,   0.68000,
,,,0.000984560000,   0.68000,
,,,0.000984600000,   0.68000,
,,,0.000984640000,   0.70000,
,,,0.000984680000,   0.72000,
,,,0.000984720000,   0.70000,
,,,0.000984760000,   0.72000,
,,,0.000984800000,   0.70000,
,,,0.000984840000,   0.74000,
,,,0.000984880000,   0.72000,
,,,0.000984920000,   0.72000,
,,,0.000984960000,   0.74000,
,,,0.000985000000,   0.74000,
,,,0.000985040000,   0.76000,
,,,0.000985080000,   0.76000,
,,,0.000985120000,   0.78000,
,,,0.000985160000,   0.78000,
,,,0.000985200000,   0.76000,
,,,0.000985240000,   0.78000,
,,,0.000985280000,   0.78000,
,,,0.000985320000,   0.80000,
,,,0.000985360000,   0.80000,
,,,0.000985400000,   0.78000,
,,,0.000985440000,   0.80000,
,,,0.000985480000,   0.80000,
,,,0.000985520000,   0.78000,
,,,0.000985560000,   0.78000,
,,,0.000985600000,   0.84000,
,,,0.000985640000,   0.80000,
,,,0.000985680000,   0.84000,
,,,0.000985720000,   0.84000,
,,,0.000985760000,   0.84000,
,,,0.000985800000,   0.84000,
,,,0.000985840000,   0.84000,
,,,0.000985880000,   0.86000,
,,,0.000985920000,   0.86000,
,,,0.000985960000,   0.84000,
,,,0.000986000000,   0.84000,
,,,0.000986040000,   0.88000,
,,,0.000986080000,   0.86000,
,,,0.000986120000,   0.88000,
,,,0.000986160000,   0.84000,
,,,0.000986200000,   0.92000,
,,,0.000986240000,   0.88000,
,,,0.000986280000,   0.88000,
,,,0.000986320000,   0.86000,
,,,0.000986360000,   0.88000,
,,,0.000986400000,   0.88000,
,,,0.000986440000,   0.90000,
,,,0.000986480000,   0.92000,
,,,0.000986520000,   0.90000,
,,,0.000986560000,   0.88000,
,,,0.000986600000,   0.90000,
,,,0.000986640000,   0.92000,
,,,0.000986680000,   0.90000,
,,,0.000986720000,   0.92000,
,,,0.000986760000,   0.92000,
,,,0.000986800000,   0.92000,
,,,0.000986840000,   0.90000,
,,,0.000986880000,   0.92000,
,,,0.000986920000,   0.94000,
,,,0.000986960000,   0.92000,
,,,0.000987000000,   0.92000,
,,,0.000987040000,   0.94000,
,,,0.000987080000,   0.92000,
,,,0.000987120000,   0.94000,
,,,0.000987160000,   0.94000,
,,,0.000987200000,   0.96000,
,,,0.000987240000,   0.96000,
,,,0.000987280000,   0.98000,
,,,0.000987320000,   0.98000,
,,,0.000987360000,   0.98000,
,,,0.000987400000,   0.94000,
,,,0.000987440000,   0.94000,
,,,0.000987480000,   0.96000,
,,,0.000987520000,   0.98000,
,,,0.000987560000,   0.98000,
,,,0.000987600000,   0.92000,
,,,0.000987640000,   1.00000,
,,,0.000987680000,   0.98000,
,,,0.000987720000,   0.96000,
,,,0.000987760000,   0.98000,
,,,0.000987800000,   0.96000,
,,,0.000987840000,   0.96000,
,,,0.000987880000,   0.98000,
,,,0.000987920000,   0.98000,
,,,0.000987960000,   1.00000,
,,,0.000988000000,   0.98000,
,,,0.000988040000,   0.98000,
,,,0.000988080000,   0.98000,
,,,0.000988120000,   1.00000,
,,,0.000988160000,   1.00000,
,,,0.000988200000,   1.00000,
,,,0.000988240000,   1.00000,
,,,0.000988280000,   0.98000,
,,,0.000988320000,   1.00000,
,,,0.000988360000,   1.00000,
,,,0.000988400000,   1.00000,
,,,0.000988440000,   0.98000,
,,,0.000988480000,   1.02000,
,,,0.000988520000,   1.00000,
,,,0.000988560000,   1.00000,
,,,0.000988600000,   1.00000,
,,,0.000988640000,   1.00000,
,,,0.000988680000,   0.98000,
,,,0.000988720000,   1.02000,
,,,0.000988760000,   1.02000,
,,,0.000988800000,   1.00000,
,,,0.000988840000,   1.00000,
,,,0.000988880000,   1.00000,
,,,0.000988920000,   1.02000,
,,,0.000988960000,   1.00000,
,,,0.000989000000,   1.02000,
,,,0.000989040000,   1.02000,
,,,0.000989080000,   1.02000,
,,,0.000989120000,   1.00000,
,,,0.000989160000,   1.04000,
,,,0.000989200000,   1.00000,
,,,0.000989240000,   1.00000,
,,,0.000989280000,   1.00000,
,,,0.000989320000,   1.02000,
,,,0.000989360000,   1.02000,
,,,0.000989400000,   1.00000,
,,,0.000989440000,   1.00000,
,,,0.000989480000,   1.00000,
,,,0.000989520000,   1.00000,
,,,0.000989560000,   1.04000,
,,,0.000989600000,   1.00000,
,,,0.000989640000,   1.00000,
,,,0.000989680000,   1.00000,
,,,0.000989720000,   1.00000,
,,,0.000989760000,   0.96000,
,,,0.000989800000,   0.98000,
,,,0.000989840000,   1.00000,
,,,0.000989880000,   1.00000,
,,,0.000989920000,   1.02000,
,,,0.000989960000,   1.00000,
,,,0.000990000000,   1.02000,
,,,0.000990040000,   0.98000,
,,,0.000990080000,   0.98000,
,,,0.000990120000,   1.00000,
,,,0.000990160000,   1.00000,
,,,0.000990200000,   0.98000,
,,,0.000990240000,   0.96000,
,,,0.000990280000,   0.96000,
,,,0.000990320000,   0.96000,
,,,0.000990360000,   0.98000,
,,,0.000990400000,   0.96000,
,,,0.000990440000,   0.98000,
,,,0.000990480000,   0.96000,
,,,0.000990520000,   0.98000,
,,,0.000990560000,   0.96000,
,,,0.000990600000,   0.96000,
,,,0.000990640000,   0.96000,
,,,0.000990680000,   0.96000,
,,,0.000990720000,   0.96000,
,,,0.000990760000,   0.94000,
,,,0.000990800000,   0.94000,
,,,0.000990840000,   0.94000,
,,,0.000990880000,   0.96000,
,,,0.000990920000,   0.96000,
,,,0.000990960000,   0.96000,
,,,0.000991000000,   0.92000,
,,,0.000991040000,   0.94000,
,,,0.000991080000,   0.94000,
,,,0.000991120000,   0.92000,
,,,0.000991160000,   0.94000,
,,,0.000991200000,   0.92000,
,,,0.000991240000,   0.96000,
,,,0.000991280000,   0.94000,
,,,0.000991320000,   0.94000,
,,,0.000991360000,   0.90000,
,,,0.000991400000,   0.92000,
,,,0.000991440000,   0.90000,
,,,0.000991480000,   0.92000,
,,,0.000991520000,   0.92000,
,,,0.000991560000,   0.90000,
,,,0.000991600000,   0.90000,
,,,0.000991640000,   0.90000,
,,,0.000991680000,   0.86000,
,,,0.000991720000,   0.88000,
,,,0.000991760000,   0.86000,
,,,0.000991800000,   0.90000,
,,,0.000991840000,   0.86000,
,,,0.000991880000,   0.86000,
,,,0.000991920000,   0.86000,
,,,0.000991960000,   0.86000,
,,,0.000992000000,   0.88000,
,,,0.000992040000,   0.86000,
,,,0.000992080000,   0.84000,
,,,0.000992120000,   0.84000,
,,,0.000992160000,   0.84000,
,,,0.000992200000,   0.84000,
,,,0.000992240000,   0.84000,
,,,0.000992280000,   0.84000,
,,,0.000992320000,   0.84000,
,,,0.000992360000,   0.84000,
,,,0.000992400000,   0.80000,
,,,0.000992440000,   0.80000,
,,,0.000992480000,   0.82000,
,,,0.000992520000,   0.80000,
,,,0.000992560000,   0.82000,
,,,0.000992600000,   0.76000,
,,,0.000992640000,   0.78000,
,,,0.000992680000,   0.80000,
,,,0.000992720000,   0.80000,
,,,0.000992760000,   0.80000,
,,,0.000992800000,   0.78000,
,,,0.000992840000,   0.78000,
,,,0.000992880000,   0.78000,
,,,0.000992920000,   0.78000,
,,,0.000992960000,   0.76000,
,,,0.000993000000,   0.78000,
,,,0.000993040000,   0.76000,
,,,0.000993080000,   0.74000,
,,,0.000993120000,   0.76000,
,,,0.000993160000,   0.74000,
,,,0.000993200000,   0.74000,
,,,0.000993240000,   0.76000,
,,,0.000993280000,   0.74000,
,,,0.000993320000,   0.72000,
,,,0.000993360000,   0.70000,
,,,0.000993400000,   0.74000,
,,,0.000993440000,   0.68000,
,,,0.000993480000,   0.68000,
,,,0.000993520000,   0.72000,
,,,0.000993560000,   0.68000,
,,,0.000993600000,   0.70000,
,,,0.000993640000,   0.68000,
,,,0.000993680000,   0.66000,
,,,0.000993720000,   0.66000,
,,,0.000993760000,   0.66000,
,,,0.000993800000,   0.68000,
,,,0.000993840000,   0.64000,
,,,0.000993880000,   0.68000,
,,,0.000993920000,   0.62000,
,,,0.000993960000,   0.64000,
,,,0.000994000000,   0.62000,
,,,0.000994040000,   0.64000,
,,,0.000994080000,   0.60000,
,,,0.000994120000,   0.62000,
,,,0.000994160000,   0.62000,
,,,0.000994200000,   0.60000,
,,,0.000994240000,   0.60000,
,,,0.000994280000,   0.58000,
,,,0.000994320000,   0.60000,
,,,0.000994360000,   0.58000,
,,,0.000994400000,   0.60000,
,,,0.000994440000,   0.56000,
,,,0.000994480000,   0.56000,
,,,0.000994520000,   0.54000,
,,,0.000994560000,   0.56000,
,,,0.000994600000,   0.54000,
,,,0.000994640000,   0.54000,
,,,0.000994680000,   0.54000,
,,,0.000994720000,   0.52000,
,,,0.000994760000,   0.50000,
,,,0.000994800000,   0.52000,
,,,0.000994840000,   0.50000,
,,,0.000994880000,   0.50000,
,,,0.000994920000,   0.50000,
,,,0.000994960000,   0.48000,
,,,0.000995000000,   0.50000,
,,,0.000995040000,   0.50000,
,,,0.000995080000,   0.46000,
,,,0.000995120000,   0.46000,
,,,0.000995160000,   0.46000,
,,,0.000995200000,   0.46000,
,,,0.000995240000,   0.46000,
,,,0.000995280000,   0.44000,
,,,0.000995320000,   0.44000,
,,,0.000995360000,   0.42000,
,,,0.000995400000,   0.42000,
,,,0.000995440000,   0.42000,
,,,0.000995480000,   0.38000,
,,,0.000995520000,   0.38000,
,,,0.000995560000,   0.40000,
,,,0.000995600000,   0.36000,
,,,0.000995640000,   0.36000,
,,,0.000995680000,   0.38000,
,,,0.000995720000,   0.36000,
,,,0.000995760000,   0.38000,
,,,0.000995800000,   0.36000,
,,,0.000995840000,   0.34000,
,,,0.000995880000,   0.34000,
,,,0.000995920000,   0.34000,
,,,0.000995960000,   0.32000,
,,,0.000996000000,   0.30000,
,,,0.000996040000,   0.30000,
,,,0.000996080000,   0.30000,
,,,0.000996120000,   0.28000,
,,,0.000996160000,   0.32000,
,,,0.000996200000,   0.28000,
,,,0.000996240000,   0.26000,
,,,0.000996280000,   0.28000,
,,,0.000996320000,   0.26000,
,,,0.000996360000,   0.26000,
,,,0.000996400000,   0.24000,
,,,0.000996440000,   0.22000,
,,,0.000996480000,   0.26000,
,,,0.000996520000,   0.22000,
,,,0.000996560000,   0.22000,
,,,0.000996600000,   0.20000,
,,,0.000996640000,   0.22000,
,,,0.000996680000,   0.22000,
,,,0.000996720000,   0.20000,
,,,0.000996760000,   0.18000,
,,,0.000996800000,   0.18000,
,,,0.000996840000,   0.18000,
,,,0.000996880000,   0.20000,
,,,0.000996920000,   0.18000,
,,,0.000996960000,   0.14000,
,,,0.000997000000,   0.16000,
,,,0.000997040000,   0.14000,
,,,0.000997080000,   0.12000,
,,,0.000997120000,   0.12000,
,,,0.000997160000,   0.12000,
,,,0.000997200000,   0.10000,
,,,0.000997240000,   0.12000,
,,,0.000997280000,   0.10000,
,,,0.000997320000,   0.08000,
,,,0.000997360000,   0.10000,
,,,0.000997400000,   0.06000,
,,,0.000997440000,   0.10000,
,,,0.000997480000,   0.06000,
,,,0.000997520000,   0.04000,
,,,0.000997560000,   0.06000,
,,,0.000997600000,   0.04000,
,,,0.000997640000,   0.04000,
,,,0.000997680000,   0.02000,
,,,0.000997720000,   0.02000,
,,,0.000997760000,   0.04000,
,,,0.000997800000,   0.04000,
,,,0.000997840000,   0.00000,
,,,0.000997880000,  -0.02000,
,,,0.000997920000,   0.00000,
,,,0.000997960000,  -0.02000,
,,,0.000998000000,  -0.02000,
,,,0.000998040000,  -0.04000,
,,,0.000998080000,  -0.04000,
,,,0.000998120000,  -0.08000,
,,,0.000998160000,  -0.06000,
,,,0.000998200000,  -0.06000,
,,,0.000998240000,  -0.08000,
,,,0.000998280000,  -0.08000,
,,,0.000998320000,  -0.08000,
,,,0.000998360000,  -0.10000,
,,,0.000998400000,  -0.10000,
,,,0.000998440000,  -0.14000,
,,,0.000998480000,  -0.10000,
,,,0.000998520000,  -0.10000,
,,,0.000998560000,  -0.12000,
,,,0.000998600000,  -0.14000,
,,,0.000998640000,  -0.12000,
,,,0.000998680000,  -0.16000,
,,,0.000998720000,  -0.16000,
,,,0.000998760000,  -0.16000,
,,,0.000998800000,  -0.18000,
,,,0.000998840000,  -0.16000,
,,,0.000998880000,  -0.22000,
,,,0.000998920000,  -0.20000,
,,,0.000998960000,  -0.22000,
,,,0.000999000000,  -0.20000,
,,,0.000999040000,  -0.22000,
,,,0.000999080000,  -0.22000,
,,,0.000999120000,  -0.24000,
,,,0.000999160000,  -0.22000,
,,,0.000999200000,  -0.22000,
,,,0.000999240000,  -0.26000,
,,,0.000999280000,  -0.26000,
,,,0.000999320000,  -0.28000,
