circuiti_3/data/RLC/R/20880/F0021CH2.CSV

Record Length,2.500000e+03,,   0.000225000000,  -0.56000,
Sample Interval,1.000000e-07,,   0.000225100000,  -0.56000,
Trigger Point,-2.250000000000e+03,,   0.000225200000,  -0.60000,
,,,   0.000225300000,  -0.60000,
,,,   0.000225400000,  -0.56000,
,,,   0.000225500000,  -0.60000,
Source,CH2,,   0.000225600000,  -0.60000,
Vertical Units,V,,   0.000225700000,  -0.60000,
Vertical Scale,1.000000e+00,,   0.000225800000,  -0.56000,
Vertical Offset,1.600000e-01,,   0.000225900000,  -0.64000,
Horizontal Units,s,,   0.000226000000,  -0.60000,
Horizontal Scale,2.500000e-05,,   0.000226100000,  -0.64000,
Pt Fmt,Y,,   0.000226200000,  -0.60000,
Yzero,0.000000e+00,,   0.000226300000,  -0.64000,
Probe Atten,1.000000e+01,,   0.000226400000,  -0.60000,
Model Number,TDS1002B,,   0.000226500000,  -0.68000,
Serial Number,C010776,,   0.000226600000,  -0.72000,
Firmware Version,FV:v21.20,,   0.000226700000,  -0.68000,
,,,0.000226800000,  -0.72000,
,,,0.000226900000,  -0.72000,
,,,0.000227000000,  -0.76000,
,,,0.000227100000,  -0.76000,
,,,0.000227200000,  -0.72000,
,,,0.000227300000,  -0.76000,
,,,0.000227400000,  -0.80000,
,,,0.000227500000,  -0.80000,
,,,0.000227600000,  -0.72000,
,,,0.000227700000,  -0.72000,
,,,0.000227800000,  -0.80000,
,,,0.000227900000,  -0.80000,
,,,0.000228000000,  -0.80000,
,,,0.000228100000,  -0.84000,
,,,0.000228200000,  -0.84000,
,,,0.000228300000,  -0.80000,
,,,0.000228400000,  -0.84000,
,,,0.000228500000,  -0.84000,
,,,0.000228600000,  -0.88000,
,,,0.000228700000,  -0.88000,
,,,0.000228800000,  -0.80000,
,,,0.000228900000,  -0.88000,
,,,0.000229000000,  -0.88000,
,,,0.000229100000,  -0.92000,
,,,0.000229200000,  -0.92000,
,,,0.000229300000,  -0.92000,
,,,0.000229400000,  -0.88000,
,,,0.000229500000,  -0.92000,
,,,0.000229600000,  -0.92000,
,,,0.000229700000,  -0.88000,
,,,0.000229800000,  -0.88000,
,,,0.000229900000,  -0.88000,
,,,0.000230000000,  -0.96000,
,,,0.000230100000,  -0.92000,
,,,0.000230200000,  -0.92000,
,,,0.000230300000,  -0.92000,
,,,0.000230400000,  -0.92000,
,,,0.000230500000,  -0.92000,
,,,0.000230600000,  -0.92000,
,,,0.000230700000,  -0.92000,
,,,0.000230800000,  -0.96000,
,,,0.000230900000,  -0.92000,
,,,0.000231000000,  -0.96000,
,,,0.000231100000,  -0.96000,
,,,0.000231200000,  -0.96000,
,,,0.000231300000,  -0.96000,
,,,0.000231400000,  -0.92000,
,,,0.000231500000,  -0.96000,
,,,0.000231600000,  -0.96000,
,,,0.000231700000,  -0.96000,
,,,0.000231800000,  -0.92000,
,,,0.000231900000,  -0.96000,
,,,0.000232000000,  -0.92000,
,,,0.000232100000,  -0.92000,
,,,0.000232200000,  -0.92000,
,,,0.000232300000,  -0.96000,
,,,0.000232400000,  -0.92000,
,,,0.000232500000,  -0.96000,
,,,0.000232600000,  -0.92000,
,,,0.000232700000,  -0.96000,
,,,0.000232800000,  -0.96000,
,,,0.000232900000,  -0.96000,
,,,0.000233000000,  -0.96000,
,,,0.000233100000,  -0.96000,
,,,0.000233200000,  -0.96000,
,,,0.000233300000,  -0.96000,
,,,0.000233400000,  -0.92000,
,,,0.000233500000,  -0.96000,
,,,0.000233600000,  -0.96000,
,,,0.000233700000,  -0.92000,
,,,0.000233800000,  -0.92000,
,,,0.000233900000,  -0.92000,
,,,0.000234000000,  -0.92000,
,,,0.000234100000,  -0.92000,
,,,0.000234200000,  -0.92000,
,,,0.000234300000,  -0.96000,
,,,0.000234400000,  -0.88000,
,,,0.000234500000,  -0.88000,
,,,0.000234600000,  -0.88000,
,,,0.000234700000,  -0.88000,
,,,0.000234800000,  -0.88000,
,,,0.000234900000,  -0.92000,
,,,0.000235000000,  -0.88000,
,,,0.000235100000,  -0.88000,
,,,0.000235200000,  -0.88000,
,,,0.000235300000,  -0.92000,
,,,0.000235400000,  -0.88000,
,,,0.000235500000,  -0.88000,
,,,0.000235600000,  -0.92000,
,,,0.000235700000,  -0.84000,
,,,0.000235800000,  -0.84000,
,,,0.000235900000,  -0.84000,
,,,0.000236000000,  -0.88000,
,,,0.000236100000,  -0.84000,
,,,0.000236200000,  -0.84000,
,,,0.000236300000,  -0.80000,
,,,0.000236400000,  -0.84000,
,,,0.000236500000,  -0.80000,
,,,0.000236600000,  -0.80000,
,,,0.000236700000,  -0.80000,
,,,0.000236800000,  -0.76000,
,,,0.000236900000,  -0.76000,
,,,0.000237000000,  -0.80000,
,,,0.000237100000,  -0.80000,
,,,0.000237200000,  -0.80000,
,,,0.000237300000,  -0.80000,
,,,0.000237400000,  -0.76000,
,,,0.000237500000,  -0.72000,
,,,0.000237600000,  -0.76000,
,,,0.000237700000,  -0.72000,
,,,0.000237800000,  -0.72000,
,,,0.000237900000,  -0.72000,
,,,0.000238000000,  -0.76000,
,,,0.000238100000,  -0.68000,
,,,0.000238200000,  -0.68000,
,,,0.000238300000,  -0.68000,
,,,0.000238400000,  -0.68000,
,,,0.000238500000,  -0.64000,
,,,0.000238600000,  -0.68000,
,,,0.000238700000,  -0.64000,
,,,0.000238800000,  -0.60000,
,,,0.000238900000,  -0.60000,
,,,0.000239000000,  -0.60000,
,,,0.000239100000,  -0.60000,
,,,0.000239200000,  -0.64000,
,,,0.000239300000,  -0.60000,
,,,0.000239400000,  -0.56000,
,,,0.000239500000,  -0.56000,
,,,0.000239600000,  -0.56000,
,,,0.000239700000,  -0.56000,
,,,0.000239800000,  -0.52000,
,,,0.000239900000,  -0.52000,
,,,0.000240000000,  -0.56000,
,,,0.000240100000,  -0.56000,
,,,0.000240200000,  -0.52000,
,,,0.000240300000,  -0.48000,
,,,0.000240400000,  -0.48000,
,,,0.000240500000,  -0.48000,
,,,0.000240600000,  -0.40000,
,,,0.000240700000,  -0.44000,
,,,0.000240800000,  -0.40000,
,,,0.000240900000,  -0.44000,
,,,0.000241000000,  -0.44000,
,,,0.000241100000,  -0.36000,
,,,0.000241200000,  -0.40000,
,,,0.000241300000,  -0.40000,
,,,0.000241400000,  -0.36000,
,,,0.000241500000,  -0.36000,
,,,0.000241600000,  -0.32000,
,,,0.000241700000,  -0.36000,
,,,0.000241800000,  -0.36000,
,,,0.000241900000,  -0.32000,
,,,0.000242000000,  -0.28000,
,,,0.000242100000,  -0.24000,
,,,0.000242200000,  -0.28000,
,,,0.000242300000,  -0.28000,
,,,0.000242400000,  -0.24000,
,,,0.000242500000,  -0.24000,
,,,0.000242600000,  -0.24000,
,,,0.000242700000,  -0.24000,
,,,0.000242800000,  -0.20000,
,,,0.000242900000,  -0.20000,
,,,0.000243000000,  -0.12000,
,,,0.000243100000,  -0.16000,
,,,0.000243200000,  -0.08000,
,,,0.000243300000,  -0.08000,
,,,0.000243400000,  -0.12000,
,,,0.000243500000,  -0.12000,
,,,0.000243600000,  -0.08000,
,,,0.000243700000,  -0.08000,
,,,0.000243800000,  -0.08000,
,,,0.000243900000,  -0.04000,
,,,0.000244000000,  -0.04000,
,,,0.000244100000,  -0.04000,
,,,0.000244200000,  -0.04000,
,,,0.000244300000,  -0.04000,
,,,0.000244400000,   0.00000,
,,,0.000244500000,   0.00000,
,,,0.000244600000,   0.00000,
,,,0.000244700000,   0.04000,
,,,0.000244800000,   0.04000,
,,,0.000244900000,   0.08000,
,,,0.000245000000,   0.08000,
,,,0.000245100000,   0.08000,
,,,0.000245200000,   0.12000,
,,,0.000245300000,   0.16000,
,,,0.000245400000,   0.12000,
,,,0.000245500000,   0.20000,
,,,0.000245600000,   0.16000,
,,,0.000245700000,   0.12000,
,,,0.000245800000,   0.20000,
,,,0.000245900000,   0.20000,
,,,0.000246000000,   0.20000,
,,,0.000246100000,   0.24000,
,,,0.000246200000,   0.20000,
,,,0.000246300000,   0.24000,
,,,0.000246400000,   0.28000,
,,,0.000246500000,   0.28000,
,,,0.000246600000,   0.24000,
,,,0.000246700000,   0.28000,
,,,0.000246800000,   0.32000,
,,,0.000246900000,   0.28000,
,,,0.000247000000,   0.32000,
,,,0.000247100000,   0.36000,
,,,0.000247200000,   0.32000,
,,,0.000247300000,   0.36000,
,,,0.000247400000,   0.44000,
,,,0.000247500000,   0.36000,
,,,0.000247600000,   0.40000,
,,,0.000247700000,   0.40000,
,,,0.000247800000,   0.36000,
,,,0.000247900000,   0.40000,
,,,0.000248000000,   0.44000,
,,,0.000248100000,   0.44000,
,,,0.000248200000,   0.44000,
,,,0.000248300000,   0.44000,
,,,0.000248400000,   0.52000,
,,,0.000248500000,   0.48000,
,,,0.000248600000,   0.52000,
,,,0.000248700000,   0.52000,
,,,0.000248800000,   0.56000,
,,,0.000248900000,   0.52000,
,,,0.000249000000,   0.52000,
,,,0.000249100000,   0.52000,
,,,0.000249200000,   0.56000,
,,,0.000249300000,   0.56000,
,,,0.000249400000,   0.60000,
,,,0.000249500000,   0.60000,
,,,0.000249600000,   0.56000,
,,,0.000249700000,   0.64000,
,,,0.000249800000,   0.64000,
,,,0.000249900000,   0.64000,
,,,0.000250000000,   0.64000,
,,,0.000250100000,   0.68000,
,,,0.000250200000,   0.64000,
,,,0.000250300000,   0.68000,
,,,0.000250400000,   0.68000,
,,,0.000250500000,   0.68000,
,,,0.000250600000,   0.68000,
,,,0.000250700000,   0.72000,
,,,0.000250800000,   0.72000,
,,,0.000250900000,   0.68000,
,,,0.000251000000,   0.72000,
,,,0.000251100000,   0.72000,
,,,0.000251200000,   0.76000,
,,,0.000251300000,   0.76000,
,,,0.000251400000,   0.76000,
,,,0.000251500000,   0.80000,
,,,0.000251600000,   0.76000,
,,,0.000251700000,   0.80000,
,,,0.000251800000,   0.80000,
,,,0.000251900000,   0.84000,
,,,0.000252000000,   0.80000,
,,,0.000252100000,   0.80000,
,,,0.000252200000,   0.84000,
,,,0.000252300000,   0.76000,
,,,0.000252400000,   0.84000,
,,,0.000252500000,   0.80000,
,,,0.000252600000,   0.84000,
,,,0.000252700000,   0.80000,
,,,0.000252800000,   0.84000,
,,,0.000252900000,   0.84000,
,,,0.000253000000,   0.84000,
,,,0.000253100000,   0.88000,
,,,0.000253200000,   0.88000,
,,,0.000253300000,   0.92000,
,,,0.000253400000,   0.92000,
,,,0.000253500000,   0.88000,
,,,0.000253600000,   0.84000,
,,,0.000253700000,   0.88000,
,,,0.000253800000,   0.92000,
,,,0.000253900000,   0.92000,
,,,0.000254000000,   0.92000,
,,,0.000254100000,   0.92000,
,,,0.000254200000,   0.96000,
,,,0.000254300000,   0.92000,
,,,0.000254400000,   0.92000,
,,,0.000254500000,   0.92000,
,,,0.000254600000,   0.96000,
,,,0.000254700000,   0.96000,
,,,0.000254800000,   1.00000,
,,,0.000254900000,   0.96000,
,,,0.000255000000,   0.96000,
,,,0.000255100000,   0.92000,
,,,0.000255200000,   0.96000,
,,,0.000255300000,   0.96000,
,,,0.000255400000,   0.96000,
,,,0.000255500000,   0.96000,
,,,0.000255600000,   0.92000,
,,,0.000255700000,   0.96000,
,,,0.000255800000,   0.96000,
,,,0.000255900000,   0.96000,
,,,0.000256000000,   0.96000,
,,,0.000256100000,   1.00000,
,,,0.000256200000,   0.96000,
,,,0.000256300000,   0.96000,
,,,0.000256400000,   0.96000,
,,,0.000256500000,   0.96000,
,,,0.000256600000,   1.00000,
,,,0.000256700000,   0.96000,
,,,0.000256800000,   0.92000,
,,,0.000256900000,   0.96000,
,,,0.000257000000,   0.92000,
,,,0.000257100000,   0.96000,
,,,0.000257200000,   0.92000,
,,,0.000257300000,   0.96000,
,,,0.000257400000,   0.96000,
,,,0.000257500000,   1.00000,
,,,0.000257600000,   0.92000,
,,,0.000257700000,   0.96000,
,,,0.000257800000,   0.96000,
,,,0.000257900000,   0.96000,
,,,0.000258000000,   0.92000,
,,,0.000258100000,   0.92000,
,,,0.000258200000,   0.92000,
,,,0.000258300000,   0.96000,
,,,0.000258400000,   0.92000,
,,,0.000258500000,   0.88000,
,,,0.000258600000,   0.92000,
,,,0.000258700000,   0.88000,
,,,0.000258800000,   0.88000,
,,,0.000258900000,   0.92000,
,,,0.000259000000,   0.88000,
,,,0.000259100000,   0.88000,
,,,0.000259200000,   0.92000,
,,,0.000259300000,   0.88000,
,,,0.000259400000,   0.88000,
,,,0.000259500000,   0.84000,
,,,0.000259600000,   0.84000,
,,,0.000259700000,   0.84000,
,,,0.000259800000,   0.84000,
,,,0.000259900000,   0.84000,
,,,0.000260000000,   0.84000,
,,,0.000260100000,   0.84000,
,,,0.000260200000,   0.84000,
,,,0.000260300000,   0.80000,
,,,0.000260400000,   0.88000,
,,,0.000260500000,   0.88000,
,,,0.000260600000,   0.84000,
,,,0.000260700000,   0.80000,
,,,0.000260800000,   0.80000,
,,,0.000260900000,   0.80000,
,,,0.000261000000,   0.76000,
,,,0.000261100000,   0.80000,
,,,0.000261200000,   0.80000,
,,,0.000261300000,   0.76000,
,,,0.000261400000,   0.76000,
,,,0.000261500000,   0.76000,
,,,0.000261600000,   0.76000,
,,,0.000261700000,   0.72000,
,,,0.000261800000,   0.68000,
,,,0.000261900000,   0.68000,
,,,0.000262000000,   0.68000,
,,,0.000262100000,   0.68000,
,,,0.000262200000,   0.72000,
,,,0.000262300000,   0.64000,
,,,0.000262400000,   0.68000,
,,,0.000262500000,   0.64000,
,,,0.000262600000,   0.64000,
,,,0.000262700000,   0.68000,
,,,0.000262800000,   0.64000,
,,,0.000262900000,   0.60000,
,,,0.000263000000,   0.60000,
,,,0.000263100000,   0.60000,
,,,0.000263200000,   0.60000,
,,,0.000263300000,   0.56000,
,,,0.000263400000,   0.60000,
,,,0.000263500000,   0.56000,
,,,0.000263600000,   0.56000,
,,,0.000263700000,   0.60000,
,,,0.000263800000,   0.52000,
,,,0.000263900000,   0.56000,
,,,0.000264000000,   0.48000,
,,,0.000264100000,   0.52000,
,,,0.000264200000,   0.52000,
,,,0.000264300000,   0.44000,
,,,0.000264400000,   0.48000,
,,,0.000264500000,   0.40000,
,,,0.000264600000,   0.40000,
,,,0.000264700000,   0.44000,
,,,0.000264800000,   0.44000,
,,,0.000264900000,   0.40000,
,,,0.000265000000,   0.40000,
,,,0.000265100000,   0.32000,
,,,0.000265200000,   0.40000,
,,,0.000265300000,   0.36000,
,,,0.000265400000,   0.36000,
,,,0.000265500000,   0.36000,
,,,0.000265600000,   0.32000,
,,,0.000265700000,   0.36000,
,,,0.000265800000,   0.32000,
,,,0.000265900000,   0.24000,
,,,0.000266000000,   0.28000,
,,,0.000266100000,   0.28000,
,,,0.000266200000,   0.32000,
,,,0.000266300000,   0.20000,
,,,0.000266400000,   0.24000,
,,,0.000266500000,   0.24000,
,,,0.000266600000,   0.20000,
,,,0.000266700000,   0.20000,
,,,0.000266800000,   0.16000,
,,,0.000266900000,   0.20000,
,,,0.000267000000,   0.12000,
,,,0.000267100000,   0.20000,
,,,0.000267200000,   0.12000,
,,,0.000267300000,   0.16000,
,,,0.000267400000,   0.16000,
,,,0.000267500000,   0.08000,
,,,0.000267600000,   0.08000,
,,,0.000267700000,   0.08000,
,,,0.000267800000,   0.04000,
,,,0.000267900000,   0.12000,
,,,0.000268000000,   0.04000,
,,,0.000268100000,   0.00000,
,,,0.000268200000,   0.08000,
,,,0.000268300000,   0.08000,
,,,0.000268400000,   0.04000,
,,,0.000268500000,  -0.04000,
,,,0.000268600000,  -0.04000,
,,,0.000268700000,  -0.08000,
,,,0.000268800000,  -0.04000,
,,,0.000268900000,  -0.04000,
,,,0.000269000000,  -0.04000,
,,,0.000269100000,  -0.12000,
,,,0.000269200000,  -0.08000,
,,,0.000269300000,  -0.08000,
,,,0.000269400000,  -0.12000,
,,,0.000269500000,  -0.16000,
,,,0.000269600000,  -0.16000,
,,,0.000269700000,  -0.16000,
,,,0.000269800000,  -0.16000,
,,,0.000269900000,  -0.16000,
,,,0.000270000000,  -0.20000,
,,,0.000270100000,  -0.24000,
,,,0.000270200000,  -0.20000,
,,,0.000270300000,  -0.20000,
,,,0.000270400000,  -0.28000,
,,,0.000270500000,  -0.24000,
,,,0.000270600000,  -0.28000,
,,,0.000270700000,  -0.32000,
,,,0.000270800000,  -0.28000,
,,,0.000270900000,  -0.32000,
,,,0.000271000000,  -0.32000,
,,,0.000271100000,  -0.36000,
,,,0.000271200000,  -0.36000,
,,,0.000271300000,  -0.32000,
,,,0.000271400000,  -0.36000,
,,,0.000271500000,  -0.36000,
,,,0.000271600000,  -0.44000,
,,,0.000271700000,  -0.36000,
,,,0.000271800000,  -0.40000,
,,,0.000271900000,  -0.44000,
,,,0.000272000000,  -0.44000,
,,,0.000272100000,  -0.48000,
,,,0.000272200000,  -0.40000,
,,,0.000272300000,  -0.48000,
,,,0.000272400000,  -0.44000,
,,,0.000272500000,  -0.48000,
,,,0.000272600000,  -0.48000,
,,,0.000272700000,  -0.52000,
,,,0.000272800000,  -0.52000,
,,,0.000272900000,  -0.52000,
,,,0.000273000000,  -0.52000,
,,,0.000273100000,  -0.56000,
,,,0.000273200000,  -0.56000,
,,,0.000273300000,  -0.60000,
,,,0.000273400000,  -0.60000,
,,,0.000273500000,  -0.60000,
,,,0.000273600000,  -0.56000,
,,,0.000273700000,  -0.60000,
,,,0.000273800000,  -0.64000,
,,,0.000273900000,  -0.60000,
,,,0.000274000000,  -0.64000,
,,,0.000274100000,  -0.64000,
,,,0.000274200000,  -0.64000,
,,,0.000274300000,  -0.68000,
,,,0.000274400000,  -0.68000,
,,,0.000274500000,  -0.68000,
,,,0.000274600000,  -0.68000,
,,,0.000274700000,  -0.72000,
,,,0.000274800000,  -0.76000,
,,,0.000274900000,  -0.76000,
,,,0.000275000000,  -0.72000,
,,,0.000275100000,  -0.72000,
,,,0.000275200000,  -0.72000,
,,,0.000275300000,  -0.72000,
,,,0.000275400000,  -0.80000,
,,,0.000275500000,  -0.72000,
,,,0.000275600000,  -0.80000,
,,,0.000275700000,  -0.80000,
,,,0.000275800000,  -0.80000,
,,,0.000275900000,  -0.76000,
,,,0.000276000000,  -0.84000,
,,,0.000276100000,  -0.84000,
,,,0.000276200000,  -0.80000,
,,,0.000276300000,  -0.84000,
,,,0.000276400000,  -0.84000,
,,,0.000276500000,  -0.84000,
,,,0.000276600000,  -0.84000,
,,,0.000276700000,  -0.84000,
,,,0.000276800000,  -0.84000,
,,,0.000276900000,  -0.84000,
,,,0.000277000000,  -0.88000,
,,,0.000277100000,  -0.88000,
,,,0.000277200000,  -0.88000,
,,,0.000277300000,  -0.88000,
,,,0.000277400000,  -0.92000,
,,,0.000277500000,  -0.88000,
,,,0.000277600000,  -0.92000,
,,,0.000277700000,  -0.88000,
,,,0.000277800000,  -0.88000,
,,,0.000277900000,  -0.96000,
,,,0.000278000000,  -0.92000,
,,,0.000278100000,  -0.96000,
,,,0.000278200000,  -0.96000,
,,,0.000278300000,  -0.96000,
,,,0.000278400000,  -0.96000,
,,,0.000278500000,  -0.92000,
,,,0.000278600000,  -0.92000,
,,,0.000278700000,  -0.92000,
,,,0.000278800000,  -0.92000,
,,,0.000278900000,  -0.92000,
,,,0.000279000000,  -0.92000,
,,,0.000279100000,  -0.92000,
,,,0.000279200000,  -0.92000,
,,,0.000279300000,  -0.96000,
,,,0.000279400000,  -0.96000,
,,,0.000279500000,  -0.96000,
,,,0.000279600000,  -0.96000,
,,,0.000279700000,  -1.00000,
,,,0.000279800000,  -0.96000,
,,,0.000279900000,  -0.96000,
,,,0.000280000000,  -0.96000,
,,,0.000280100000,  -1.00000,
,,,0.000280200000,  -0.96000,
,,,0.000280300000,  -0.92000,
,,,0.000280400000,  -0.96000,
,,,0.000280500000,  -0.92000,
,,,0.000280600000,  -0.92000,
,,,0.000280700000,  -0.96000,
,,,0.000280800000,  -0.96000,
,,,0.000280900000,  -0.92000,
,,,0.000281000000,  -0.96000,
,,,0.000281100000,  -0.96000,
,,,0.000281200000,  -0.96000,
,,,0.000281300000,  -0.92000,
,,,0.000281400000,  -0.96000,
,,,0.000281500000,  -0.92000,
,,,0.000281600000,  -0.92000,
,,,0.000281700000,  -0.96000,
,,,0.000281800000,  -0.96000,
,,,0.000281900000,  -0.96000,
,,,0.000282000000,  -0.92000,
,,,0.000282100000,  -0.96000,
,,,0.000282200000,  -0.92000,
,,,0.000282300000,  -0.92000,
,,,0.000282400000,  -0.92000,
,,,0.000282500000,  -0.92000,
,,,0.000282600000,  -0.92000,
,,,0.000282700000,  -0.88000,
,,,0.000282800000,  -0.88000,
,,,0.000282900000,  -0.88000,
,,,0.000283000000,  -0.92000,
,,,0.000283100000,  -0.92000,
,,,0.000283200000,  -0.88000,
,,,0.000283300000,  -0.88000,
,,,0.000283400000,  -0.84000,
,,,0.000283500000,  -0.88000,
,,,0.000283600000,  -0.88000,
,,,0.000283700000,  -0.84000,
,,,0.000283800000,  -0.80000,
,,,0.000283900000,  -0.84000,
,,,0.000284000000,  -0.80000,
,,,0.000284100000,  -0.80000,
,,,0.000284200000,  -0.84000,
,,,0.000284300000,  -0.80000,
,,,0.000284400000,  -0.84000,
,,,0.000284500000,  -0.80000,
,,,0.000284600000,  -0.80000,
,,,0.000284700000,  -0.80000,
,,,0.000284800000,  -0.80000,
,,,0.000284900000,  -0.80000,
,,,0.000285000000,  -0.80000,
,,,0.000285100000,  -0.76000,
,,,0.000285200000,  -0.72000,
,,,0.000285300000,  -0.76000,
,,,0.000285400000,  -0.72000,
,,,0.000285500000,  -0.72000,
,,,0.000285600000,  -0.76000,
,,,0.000285700000,  -0.68000,
,,,0.000285800000,  -0.68000,
,,,0.000285900000,  -0.72000,
,,,0.000286000000,  -0.68000,
,,,0.000286100000,  -0.68000,
,,,0.000286200000,  -0.68000,
,,,0.000286300000,  -0.64000,
,,,0.000286400000,  -0.68000,
,,,0.000286500000,  -0.68000,
,,,0.000286600000,  -0.64000,
,,,0.000286700000,  -0.60000,
,,,0.000286800000,  -0.60000,
,,,0.000286900000,  -0.64000,
,,,0.000287000000,  -0.60000,
,,,0.000287100000,  -0.56000,
,,,0.000287200000,  -0.60000,
,,,0.000287300000,  -0.60000,
,,,0.000287400000,  -0.56000,
,,,0.000287500000,  -0.56000,
,,,0.000287600000,  -0.52000,
,,,0.000287700000,  -0.52000,
,,,0.000287800000,  -0.56000,
,,,0.000287900000,  -0.52000,
,,,0.000288000000,  -0.48000,
,,,0.000288100000,  -0.48000,
,,,0.000288200000,  -0.48000,
,,,0.000288300000,  -0.48000,
,,,0.000288400000,  -0.44000,
,,,0.000288500000,  -0.44000,
,,,0.000288600000,  -0.48000,
,,,0.000288700000,  -0.40000,
,,,0.000288800000,  -0.36000,
,,,0.000288900000,  -0.36000,
,,,0.000289000000,  -0.40000,
,,,0.000289100000,  -0.36000,
,,,0.000289200000,  -0.32000,
,,,0.000289300000,  -0.36000,
,,,0.000289400000,  -0.36000,
,,,0.000289500000,  -0.32000,
,,,0.000289600000,  -0.32000,
,,,0.000289700000,  -0.32000,
,,,0.000289800000,  -0.28000,
,,,0.000289900000,  -0.32000,
,,,0.000290000000,  -0.28000,
,,,0.000290100000,  -0.20000,
,,,0.000290200000,  -0.28000,
,,,0.000290300000,  -0.24000,
