circuiti_3/data/RLC/R/15670/F0000CH2.CSV

Record Length,2.500000e+03,,   0.000899000000,   0.08000,
Sample Interval,1.000000e-07,,   0.000899100000,   0.08000,
Trigger Point,-8.990000000000e+03,,   0.000899200000,   0.12000,
,,,   0.000899300000,   0.16000,
,,,   0.000899400000,   0.16000,
,,,   0.000899500000,   0.12000,
Source,CH2,,   0.000899600000,   0.20000,
Vertical Units,V,,   0.000899700000,   0.16000,
Vertical Scale,1.000000e+00,,   0.000899800000,   0.20000,
Vertical Offset,1.600000e-01,,   0.000899900000,   0.20000,
Horizontal Units,s,,   0.000900000000,   0.16000,
Horizontal Scale,2.500000e-05,,   0.000900100000,   0.16000,
Pt Fmt,Y,,   0.000900200000,   0.20000,
Yzero,0.000000e+00,,   0.000900300000,   0.24000,
Probe Atten,1.000000e+01,,   0.000900400000,   0.24000,
Model Number,TDS1002B,,   0.000900500000,   0.24000,
Serial Number,C010776,,   0.000900600000,   0.24000,
Firmware Version,FV:v21.20,,   0.000900700000,   0.24000,
,,,0.000900800000,   0.28000,
,,,0.000900900000,   0.24000,
,,,0.000901000000,   0.32000,
,,,0.000901100000,   0.32000,
,,,0.000901200000,   0.28000,
,,,0.000901300000,   0.36000,
,,,0.000901400000,   0.32000,
,,,0.000901500000,   0.36000,
,,,0.000901600000,   0.36000,
,,,0.000901700000,   0.40000,
,,,0.000901800000,   0.40000,
,,,0.000901900000,   0.36000,
,,,0.000902000000,   0.36000,
,,,0.000902100000,   0.40000,
,,,0.000902200000,   0.36000,
,,,0.000902300000,   0.44000,
,,,0.000902400000,   0.44000,
,,,0.000902500000,   0.44000,
,,,0.000902600000,   0.44000,
,,,0.000902700000,   0.44000,
,,,0.000902800000,   0.52000,
,,,0.000902900000,   0.48000,
,,,0.000903000000,   0.48000,
,,,0.000903100000,   0.52000,
,,,0.000903200000,   0.52000,
,,,0.000903300000,   0.52000,
,,,0.000903400000,   0.48000,
,,,0.000903500000,   0.52000,
,,,0.000903600000,   0.56000,
,,,0.000903700000,   0.52000,
,,,0.000903800000,   0.56000,
,,,0.000903900000,   0.56000,
,,,0.000904000000,   0.60000,
,,,0.000904100000,   0.56000,
,,,0.000904200000,   0.60000,
,,,0.000904300000,   0.60000,
,,,0.000904400000,   0.56000,
,,,0.000904500000,   0.60000,
,,,0.000904600000,   0.64000,
,,,0.000904700000,   0.64000,
,,,0.000904800000,   0.60000,
,,,0.000904900000,   0.64000,
,,,0.000905000000,   0.64000,
,,,0.000905100000,   0.68000,
,,,0.000905200000,   0.68000,
,,,0.000905300000,   0.64000,
,,,0.000905400000,   0.64000,
,,,0.000905500000,   0.72000,
,,,0.000905600000,   0.68000,
,,,0.000905700000,   0.72000,
,,,0.000905800000,   0.72000,
,,,0.000905900000,   0.72000,
,,,0.000906000000,   0.72000,
,,,0.000906100000,   0.72000,
,,,0.000906200000,   0.72000,
,,,0.000906300000,   0.76000,
,,,0.000906400000,   0.72000,
,,,0.000906500000,   0.72000,
,,,0.000906600000,   0.76000,
,,,0.000906700000,   0.80000,
,,,0.000906800000,   0.76000,
,,,0.000906900000,   0.80000,
,,,0.000907000000,   0.80000,
,,,0.000907100000,   0.76000,
,,,0.000907200000,   0.84000,
,,,0.000907300000,   0.84000,
,,,0.000907400000,   0.80000,
,,,0.000907500000,   0.88000,
,,,0.000907600000,   0.84000,
,,,0.000907700000,   0.84000,
,,,0.000907800000,   0.84000,
,,,0.000907900000,   0.88000,
,,,0.000908000000,   0.88000,
,,,0.000908100000,   0.88000,
,,,0.000908200000,   0.84000,
,,,0.000908300000,   0.84000,
,,,0.000908400000,   0.92000,
,,,0.000908500000,   0.92000,
,,,0.000908600000,   0.92000,
,,,0.000908700000,   0.96000,
,,,0.000908800000,   0.88000,
,,,0.000908900000,   0.92000,
,,,0.000909000000,   0.88000,
,,,0.000909100000,   0.92000,
,,,0.000909200000,   0.96000,
,,,0.000909300000,   0.96000,
,,,0.000909400000,   0.92000,
,,,0.000909500000,   0.92000,
,,,0.000909600000,   1.00000,
,,,0.000909700000,   0.96000,
,,,0.000909800000,   0.96000,
,,,0.000909900000,   0.92000,
,,,0.000910000000,   0.96000,
,,,0.000910100000,   0.96000,
,,,0.000910200000,   0.96000,
,,,0.000910300000,   0.96000,
,,,0.000910400000,   0.96000,
,,,0.000910500000,   1.00000,
,,,0.000910600000,   1.00000,
,,,0.000910700000,   1.00000,
,,,0.000910800000,   1.00000,
,,,0.000910900000,   1.00000,
,,,0.000911000000,   1.00000,
,,,0.000911100000,   1.00000,
,,,0.000911200000,   1.00000,
,,,0.000911300000,   1.00000,
,,,0.000911400000,   1.00000,
,,,0.000911500000,   1.00000,
,,,0.000911600000,   0.96000,
,,,0.000911700000,   1.04000,
,,,0.000911800000,   1.04000,
,,,0.000911900000,   1.04000,
,,,0.000912000000,   1.04000,
,,,0.000912100000,   0.96000,
,,,0.000912200000,   1.00000,
,,,0.000912300000,   1.04000,
,,,0.000912400000,   1.00000,
,,,0.000912500000,   1.00000,
,,,0.000912600000,   1.04000,
,,,0.000912700000,   1.08000,
,,,0.000912800000,   1.08000,
,,,0.000912900000,   1.08000,
,,,0.000913000000,   1.08000,
,,,0.000913100000,   1.08000,
,,,0.000913200000,   1.04000,
,,,0.000913300000,   1.04000,
,,,0.000913400000,   1.04000,
,,,0.000913500000,   1.08000,
,,,0.000913600000,   1.04000,
,,,0.000913700000,   1.08000,
,,,0.000913800000,   1.04000,
,,,0.000913900000,   1.08000,
,,,0.000914000000,   1.00000,
,,,0.000914100000,   1.08000,
,,,0.000914200000,   1.04000,
,,,0.000914300000,   1.04000,
,,,0.000914400000,   1.04000,
,,,0.000914500000,   1.04000,
,,,0.000914600000,   1.04000,
,,,0.000914700000,   1.04000,
,,,0.000914800000,   1.08000,
,,,0.000914900000,   1.04000,
,,,0.000915000000,   1.04000,
,,,0.000915100000,   1.08000,
,,,0.000915200000,   1.04000,
,,,0.000915300000,   1.04000,
,,,0.000915400000,   1.04000,
,,,0.000915500000,   1.04000,
,,,0.000915600000,   1.04000,
,,,0.000915700000,   1.04000,
,,,0.000915800000,   1.04000,
,,,0.000915900000,   1.04000,
,,,0.000916000000,   1.04000,
,,,0.000916100000,   1.00000,
,,,0.000916200000,   1.04000,
,,,0.000916300000,   1.00000,
,,,0.000916400000,   1.04000,
,,,0.000916500000,   1.04000,
,,,0.000916600000,   1.04000,
,,,0.000916700000,   1.04000,
,,,0.000916800000,   1.04000,
,,,0.000916900000,   1.00000,
,,,0.000917000000,   1.08000,
,,,0.000917100000,   1.00000,
,,,0.000917200000,   1.00000,
,,,0.000917300000,   1.00000,
,,,0.000917400000,   1.00000,
,,,0.000917500000,   0.96000,
,,,0.000917600000,   0.96000,
,,,0.000917700000,   1.00000,
,,,0.000917800000,   0.96000,
,,,0.000917900000,   0.96000,
,,,0.000918000000,   1.00000,
,,,0.000918100000,   0.96000,
,,,0.000918200000,   1.00000,
,,,0.000918300000,   0.96000,
,,,0.000918400000,   0.92000,
,,,0.000918500000,   0.96000,
,,,0.000918600000,   0.96000,
,,,0.000918700000,   0.96000,
,,,0.000918800000,   0.96000,
,,,0.000918900000,   0.92000,
,,,0.000919000000,   0.92000,
,,,0.000919100000,   0.92000,
,,,0.000919200000,   0.96000,
,,,0.000919300000,   0.96000,
,,,0.000919400000,   0.92000,
,,,0.000919500000,   0.88000,
,,,0.000919600000,   0.88000,
,,,0.000919700000,   0.92000,
,,,0.000919800000,   0.88000,
,,,0.000919900000,   0.88000,
,,,0.000920000000,   0.92000,
,,,0.000920100000,   0.88000,
,,,0.000920200000,   0.88000,
,,,0.000920300000,   0.88000,
,,,0.000920400000,   0.84000,
,,,0.000920500000,   0.92000,
,,,0.000920600000,   0.88000,
,,,0.000920700000,   0.88000,
,,,0.000920800000,   0.84000,
,,,0.000920900000,   0.84000,
,,,0.000921000000,   0.80000,
,,,0.000921100000,   0.80000,
,,,0.000921200000,   0.84000,
,,,0.000921300000,   0.84000,
,,,0.000921400000,   0.80000,
,,,0.000921500000,   0.80000,
,,,0.000921600000,   0.84000,
,,,0.000921700000,   0.72000,
,,,0.000921800000,   0.80000,
,,,0.000921900000,   0.80000,
,,,0.000922000000,   0.80000,
,,,0.000922100000,   0.72000,
,,,0.000922200000,   0.76000,
,,,0.000922300000,   0.72000,
,,,0.000922400000,   0.68000,
,,,0.000922500000,   0.68000,
,,,0.000922600000,   0.72000,
,,,0.000922700000,   0.72000,
,,,0.000922800000,   0.68000,
,,,0.000922900000,   0.68000,
,,,0.000923000000,   0.68000,
,,,0.000923100000,   0.72000,
,,,0.000923200000,   0.68000,
,,,0.000923300000,   0.68000,
,,,0.000923400000,   0.68000,
,,,0.000923500000,   0.64000,
,,,0.000923600000,   0.64000,
,,,0.000923700000,   0.64000,
,,,0.000923800000,   0.60000,
,,,0.000923900000,   0.64000,
,,,0.000924000000,   0.60000,
,,,0.000924100000,   0.60000,
,,,0.000924200000,   0.56000,
,,,0.000924300000,   0.56000,
,,,0.000924400000,   0.60000,
,,,0.000924500000,   0.60000,
,,,0.000924600000,   0.56000,
,,,0.000924700000,   0.56000,
,,,0.000924800000,   0.52000,
,,,0.000924900000,   0.56000,
,,,0.000925000000,   0.56000,
,,,0.000925100000,   0.52000,
,,,0.000925200000,   0.48000,
,,,0.000925300000,   0.48000,
,,,0.000925400000,   0.48000,
,,,0.000925500000,   0.44000,
,,,0.000925600000,   0.44000,
,,,0.000925700000,   0.40000,
,,,0.000925800000,   0.44000,
,,,0.000925900000,   0.44000,
,,,0.000926000000,   0.40000,
,,,0.000926100000,   0.40000,
,,,0.000926200000,   0.40000,
,,,0.000926300000,   0.40000,
,,,0.000926400000,   0.40000,
,,,0.000926500000,   0.36000,
,,,0.000926600000,   0.32000,
,,,0.000926700000,   0.32000,
,,,0.000926800000,   0.28000,
,,,0.000926900000,   0.32000,
,,,0.000927000000,   0.36000,
,,,0.000927100000,   0.32000,
,,,0.000927200000,   0.28000,
,,,0.000927300000,   0.28000,
,,,0.000927400000,   0.24000,
,,,0.000927500000,   0.24000,
,,,0.000927600000,   0.32000,
,,,0.000927700000,   0.28000,
,,,0.000927800000,   0.24000,
,,,0.000927900000,   0.24000,
,,,0.000928000000,   0.24000,
,,,0.000928100000,   0.24000,
,,,0.000928200000,   0.24000,
,,,0.000928300000,   0.24000,
,,,0.000928400000,   0.20000,
,,,0.000928500000,   0.16000,
,,,0.000928600000,   0.16000,
,,,0.000928700000,   0.16000,
,,,0.000928800000,   0.12000,
,,,0.000928900000,   0.08000,
,,,0.000929000000,   0.16000,
,,,0.000929100000,   0.12000,
,,,0.000929200000,   0.08000,
,,,0.000929300000,   0.08000,
,,,0.000929400000,   0.08000,
,,,0.000929500000,   0.08000,
,,,0.000929600000,   0.04000,
,,,0.000929700000,   0.04000,
,,,0.000929800000,   0.00000,
,,,0.000929900000,   0.04000,
,,,0.000930000000,   0.04000,
,,,0.000930100000,   0.08000,
,,,0.000930200000,   0.00000,
,,,0.000930300000,   0.00000,
,,,0.000930400000,   0.00000,
,,,0.000930500000,   0.00000,
,,,0.000930600000,  -0.04000,
,,,0.000930700000,  -0.04000,
,,,0.000930800000,  -0.08000,
,,,0.000930900000,  -0.04000,
,,,0.000931000000,  -0.08000,
,,,0.000931100000,  -0.08000,
,,,0.000931200000,  -0.08000,
,,,0.000931300000,  -0.12000,
,,,0.000931400000,  -0.12000,
,,,0.000931500000,  -0.08000,
,,,0.000931600000,  -0.16000,
,,,0.000931700000,  -0.16000,
,,,0.000931800000,  -0.16000,
,,,0.000931900000,  -0.16000,
,,,0.000932000000,  -0.20000,
,,,0.000932100000,  -0.20000,
,,,0.000932200000,  -0.24000,
,,,0.000932300000,  -0.24000,
,,,0.000932400000,  -0.20000,
,,,0.000932500000,  -0.24000,
,,,0.000932600000,  -0.24000,
,,,0.000932700000,  -0.24000,
,,,0.000932800000,  -0.28000,
,,,0.000932900000,  -0.24000,
,,,0.000933000000,  -0.24000,
,,,0.000933100000,  -0.32000,
,,,0.000933200000,  -0.36000,
,,,0.000933300000,  -0.36000,
,,,0.000933400000,  -0.36000,
,,,0.000933500000,  -0.32000,
,,,0.000933600000,  -0.32000,
,,,0.000933700000,  -0.36000,
,,,0.000933800000,  -0.36000,
,,,0.000933900000,  -0.36000,
,,,0.000934000000,  -0.36000,
,,,0.000934100000,  -0.40000,
,,,0.000934200000,  -0.36000,
,,,0.000934300000,  -0.40000,
,,,0.000934400000,  -0.44000,
,,,0.000934500000,  -0.44000,
,,,0.000934600000,  -0.40000,
,,,0.000934700000,  -0.44000,
,,,0.000934800000,  -0.44000,
,,,0.000934900000,  -0.48000,
,,,0.000935000000,  -0.48000,
,,,0.000935100000,  -0.48000,
,,,0.000935200000,  -0.52000,
,,,0.000935300000,  -0.52000,
,,,0.000935400000,  -0.56000,
,,,0.000935500000,  -0.56000,
,,,0.000935600000,  -0.48000,
,,,0.000935700000,  -0.56000,
,,,0.000935800000,  -0.48000,
,,,0.000935900000,  -0.56000,
,,,0.000936000000,  -0.56000,
,,,0.000936100000,  -0.60000,
,,,0.000936200000,  -0.60000,
,,,0.000936300000,  -0.60000,
,,,0.000936400000,  -0.64000,
,,,0.000936500000,  -0.64000,
,,,0.000936600000,  -0.64000,
,,,0.000936700000,  -0.64000,
,,,0.000936800000,  -0.64000,
,,,0.000936900000,  -0.64000,
,,,0.000937000000,  -0.68000,
,,,0.000937100000,  -0.60000,
,,,0.000937200000,  -0.68000,
,,,0.000937300000,  -0.68000,
,,,0.000937400000,  -0.68000,
,,,0.000937500000,  -0.68000,
,,,0.000937600000,  -0.72000,
,,,0.000937700000,  -0.68000,
,,,0.000937800000,  -0.72000,
,,,0.000937900000,  -0.72000,
,,,0.000938000000,  -0.72000,
,,,0.000938100000,  -0.72000,
,,,0.000938200000,  -0.80000,
,,,0.000938300000,  -0.76000,
,,,0.000938400000,  -0.76000,
,,,0.000938500000,  -0.76000,
,,,0.000938600000,  -0.80000,
,,,0.000938700000,  -0.80000,
,,,0.000938800000,  -0.80000,
,,,0.000938900000,  -0.80000,
,,,0.000939000000,  -0.80000,
,,,0.000939100000,  -0.80000,
,,,0.000939200000,  -0.80000,
,,,0.000939300000,  -0.84000,
,,,0.000939400000,  -0.84000,
,,,0.000939500000,  -0.80000,
,,,0.000939600000,  -0.84000,
,,,0.000939700000,  -0.84000,
,,,0.000939800000,  -0.84000,
,,,0.000939900000,  -0.88000,
,,,0.000940000000,  -0.80000,
,,,0.000940100000,  -0.88000,
,,,0.000940200000,  -0.88000,
,,,0.000940300000,  -0.88000,
,,,0.000940400000,  -0.88000,
,,,0.000940500000,  -0.92000,
,,,0.000940600000,  -0.92000,
,,,0.000940700000,  -0.92000,
,,,0.000940800000,  -0.88000,
,,,0.000940900000,  -0.92000,
,,,0.000941000000,  -0.92000,
,,,0.000941100000,  -0.88000,
,,,0.000941200000,  -0.92000,
,,,0.000941300000,  -0.92000,
,,,0.000941400000,  -0.92000,
,,,0.000941500000,  -0.96000,
,,,0.000941600000,  -0.96000,
,,,0.000941700000,  -1.00000,
,,,0.000941800000,  -1.00000,
,,,0.000941900000,  -0.96000,
,,,0.000942000000,  -0.96000,
,,,0.000942100000,  -1.00000,
,,,0.000942200000,  -0.96000,
,,,0.000942300000,  -1.00000,
,,,0.000942400000,  -1.00000,
,,,0.000942500000,  -1.00000,
,,,0.000942600000,  -1.04000,
,,,0.000942700000,  -1.00000,
,,,0.000942800000,  -1.00000,
,,,0.000942900000,  -1.00000,
,,,0.000943000000,  -1.00000,
,,,0.000943100000,  -1.00000,
,,,0.000943200000,  -1.00000,
,,,0.000943300000,  -1.04000,
,,,0.000943400000,  -1.00000,
,,,0.000943500000,  -1.00000,
,,,0.000943600000,  -1.04000,
,,,0.000943700000,  -1.04000,
,,,0.000943800000,  -1.00000,
,,,0.000943900000,  -1.04000,
,,,0.000944000000,  -1.04000,
,,,0.000944100000,  -1.04000,
,,,0.000944200000,  -1.08000,
,,,0.000944300000,  -1.04000,
,,,0.000944400000,  -1.08000,
,,,0.000944500000,  -1.04000,
,,,0.000944600000,  -1.00000,
,,,0.000944700000,  -1.04000,
,,,0.000944800000,  -1.08000,
,,,0.000944900000,  -1.04000,
,,,0.000945000000,  -1.08000,
,,,0.000945100000,  -1.08000,
,,,0.000945200000,  -1.04000,
,,,0.000945300000,  -1.04000,
,,,0.000945400000,  -1.12000,
,,,0.000945500000,  -1.04000,
,,,0.000945600000,  -1.08000,
,,,0.000945700000,  -1.04000,
,,,0.000945800000,  -1.04000,
,,,0.000945900000,  -1.04000,
,,,0.000946000000,  -1.04000,
,,,0.000946100000,  -1.04000,
,,,0.000946200000,  -1.04000,
,,,0.000946300000,  -1.04000,
,,,0.000946400000,  -1.08000,
,,,0.000946500000,  -1.08000,
,,,0.000946600000,  -1.08000,
,,,0.000946700000,  -1.08000,
,,,0.000946800000,  -1.00000,
,,,0.000946900000,  -1.04000,
,,,0.000947000000,  -1.04000,
,,,0.000947100000,  -1.04000,
,,,0.000947200000,  -1.04000,
,,,0.000947300000,  -1.04000,
,,,0.000947400000,  -1.00000,
,,,0.000947500000,  -1.04000,
,,,0.000947600000,  -1.00000,
,,,0.000947700000,  -1.04000,
,,,0.000947800000,  -1.08000,
,,,0.000947900000,  -1.04000,
,,,0.000948000000,  -1.00000,
,,,0.000948100000,  -1.04000,
,,,0.000948200000,  -1.04000,
,,,0.000948300000,  -1.04000,
,,,0.000948400000,  -1.00000,
,,,0.000948500000,  -1.00000,
,,,0.000948600000,  -1.04000,
,,,0.000948700000,  -1.04000,
,,,0.000948800000,  -1.00000,
,,,0.000948900000,  -1.00000,
,,,0.000949000000,  -1.00000,
,,,0.000949100000,  -0.96000,
,,,0.000949200000,  -0.92000,
,,,0.000949300000,  -0.96000,
,,,0.000949400000,  -1.00000,
,,,0.000949500000,  -0.96000,
,,,0.000949600000,  -1.00000,
,,,0.000949700000,  -1.00000,
,,,0.000949800000,  -1.00000,
,,,0.000949900000,  -0.96000,
,,,0.000950000000,  -0.96000,
,,,0.000950100000,  -0.96000,
,,,0.000950200000,  -0.96000,
,,,0.000950300000,  -0.96000,
,,,0.000950400000,  -0.96000,
,,,0.000950500000,  -0.96000,
,,,0.000950600000,  -0.96000,
,,,0.000950700000,  -0.92000,
,,,0.000950800000,  -0.92000,
,,,0.000950900000,  -0.92000,
,,,0.000951000000,  -0.88000,
,,,0.000951100000,  -0.96000,
,,,0.000951200000,  -0.96000,
,,,0.000951300000,  -0.88000,
,,,0.000951400000,  -0.92000,
,,,0.000951500000,  -0.88000,
,,,0.000951600000,  -0.92000,
,,,0.000951700000,  -0.92000,
,,,0.000951800000,  -0.88000,
,,,0.000951900000,  -0.88000,
,,,0.000952000000,  -0.84000,
,,,0.000952100000,  -0.84000,
,,,0.000952200000,  -0.88000,
,,,0.000952300000,  -0.84000,
,,,0.000952400000,  -0.84000,
,,,0.000952500000,  -0.84000,
,,,0.000952600000,  -0.84000,
,,,0.000952700000,  -0.88000,
,,,0.000952800000,  -0.80000,
,,,0.000952900000,  -0.84000,
,,,0.000953000000,  -0.84000,
,,,0.000953100000,  -0.80000,
,,,0.000953200000,  -0.80000,
,,,0.000953300000,  -0.80000,
,,,0.000953400000,  -0.80000,
,,,0.000953500000,  -0.80000,
,,,0.000953600000,  -0.76000,
,,,0.000953700000,  -0.76000,
,,,0.000953800000,  -0.76000,
,,,0.000953900000,  -0.76000,
,,,0.000954000000,  -0.76000,
,,,0.000954100000,  -0.72000,
,,,0.000954200000,  -0.76000,
,,,0.000954300000,  -0.72000,
,,,0.000954400000,  -0.72000,
,,,0.000954500000,  -0.72000,
,,,0.000954600000,  -0.68000,
,,,0.000954700000,  -0.64000,
,,,0.000954800000,  -0.72000,
,,,0.000954900000,  -0.68000,
,,,0.000955000000,  -0.68000,
,,,0.000955100000,  -0.68000,
,,,0.000955200000,  -0.68000,
,,,0.000955300000,  -0.68000,
,,,0.000955400000,  -0.64000,
,,,0.000955500000,  -0.64000,
,,,0.000955600000,  -0.60000,
,,,0.000955700000,  -0.64000,
,,,0.000955800000,  -0.60000,
,,,0.000955900000,  -0.56000,
,,,0.000956000000,  -0.56000,
,,,0.000956100000,  -0.56000,
,,,0.000956200000,  -0.52000,
,,,0.000956300000,  -0.60000,
,,,0.000956400000,  -0.56000,
,,,0.000956500000,  -0.56000,
,,,0.000956600000,  -0.60000,
,,,0.000956700000,  -0.52000,
,,,0.000956800000,  -0.56000,
,,,0.000956900000,  -0.52000,
,,,0.000957000000,  -0.48000,
,,,0.000957100000,  -0.48000,
,,,0.000957200000,  -0.52000,
,,,0.000957300000,  -0.40000,
,,,0.000957400000,  -0.40000,
,,,0.000957500000,  -0.44000,
,,,0.000957600000,  -0.48000,
,,,0.000957700000,  -0.40000,
,,,0.000957800000,  -0.44000,
,,,0.000957900000,  -0.36000,
,,,0.000958000000,  -0.44000,
,,,0.000958100000,  -0.40000,
,,,0.000958200000,  -0.40000,
,,,0.000958300000,  -0.36000,
,,,0.000958400000,  -0.40000,
,,,0.000958500000,  -0.36000,
,,,0.000958600000,  -0.36000,
,,,0.000958700000,  -0.32000,
,,,0.000958800000,  -0.28000,
,,,0.000958900000,  -0.32000,
,,,0.000959000000,  -0.28000,
,,,0.000959100000,  -0.32000,
,,,0.000959200000,  -0.32000,
,,,0.000959300000,  -0.28000,
,,,0.000959400000,  -0.28000,
,,,0.000959500000,  -0.28000,
,,,0.000959600000,  -0.24000,
,,,0.000959700000,  -0.20000,
,,,0.000959800000,  -0.24000,
,,,0.000959900000,  -0.28000,
,,,0.000960000000,  -0.28000,
,,,0.000960100000,  -0.16000,
,,,0.000960200000,  -0.16000,
,,,0.000960300000,  -0.12000,
,,,0.000960400000,  -0.16000,
,,,0.000960500000,  -0.16000,
,,,0.000960600000,  -0.16000,
,,,0.000960700000,  -0.08000,
,,,0.000960800000,  -0.08000,
,,,0.000960900000,  -0.08000,
,,,0.000961000000,  -0.12000,
,,,0.000961100000,  -0.12000,
,,,0.000961200000,  -0.08000,
,,,0.000961300000,  -0.04000,
,,,0.000961400000,  -0.08000,
,,,0.000961500000,  -0.04000,
,,,0.000961600000,  -0.04000,
,,,0.000961700000,  -0.04000,
,,,0.000961800000,   0.00000,
,,,0.000961900000,   0.00000,
,,,0.000962000000,  -0.04000,
,,,0.000962100000,  -0.04000,
,,,0.000962200000,   0.04000,
,,,0.000962300000,   0.04000,
,,,0.000962400000,   0.04000,
,,,0.000962500000,   0.08000,
,,,0.000962600000,   0.04000,
,,,0.000962700000,   0.08000,
,,,0.000962800000,   0.12000,
,,,0.000962900000,   0.08000,
,,,0.000963000000,   0.08000,
,,,0.000963100000,   0.08000,
,,,0.000963200000,   0.08000,
,,,0.000963300000,   0.16000,
,,,0.000963400000,   0.12000,
,,,0.000963500000,   0.20000,
,,,0.000963600000,   0.20000,
,,,0.000963700000,   0.16000,
,,,0.000963800000,   0.20000,
,,,0.000963900000,   0.16000,
,,,0.000964000000,   0.20000,
,,,0.000964100000,   0.20000,
,,,0.000964200000,   0.28000,
,,,0.000964300000,   0.28000,
